In	Out	Duration	Text	Speaker	Status
00:00:02.570	00:00:08.289	00:00:05.719	There we go. All right, so let's start with an easy one, your name and your age.	Speaker 1	not-edited	Holy shit!
00:00:08.810	00:00:11.780	00:00:02.970	So my name is Mike. I am forty seven years old.	Speaker 2	not-edited
00:00:12.950	00:00:14.570	00:00:01.620	Excellent. And where do you live?	Speaker 1	not-edited
00:00:15.380	00:00:17.420	00:00:02.040	I live in Huntington, West Virginia.	Speaker 2	not-edited
00:00:18.560	00:00:22.499	00:00:03.939	Awesome. I grew up in Northern Virginia, actually, not too far.	Speaker 1	not-edited
00:00:24.290	00:01:02.030	00:00:37.740	It's about seven hours away. Yes, yes. Yeah. That's a common mistake. Yes. We we are still yet not part of Virginia. So we are about let's see, because I used to work in Nova, I used to work in Stirling Dulles area. And so we are six hours, forty five minutes south west of Sterling, Virginia. Yeah. Our claim to fame is the movie we are Marshall were familiar with the movie We are Marshall that Huntington, West Virginia is for Marshall University is.	Speaker 2	not-edited
00:01:02.600	00:01:11.269	00:00:08.669	Got it. Got it. OK, I will pick up a map after this. How did you how did you land in that part of town?	Speaker 1	not-edited
00:01:11.990	00:01:52.519	00:00:40.529	So I'm originally from Huntington. I grew up here and lived here until I was about 20. I attended Marshall for two semesters. Then I transferred to the University of Kentucky, Lexington, Kentucky, and then I went to work in Frederick, Maryland. And then subsequently the company that I was working for at the time opened up an office in the Sterling Dulles, Virginia area. And so now I actually, because of the pandemic, I was working remotely and moved back to Huntington temporarily. And now we just found out that I can pretty much do my entire job remotely. And so I got to relocate back home. So it's pretty nice.	Speaker 2	not-edited	Background
00:01:53.330	00:01:55.639	00:00:02.309	Awesome. And what type of work you do.	Speaker 1	not-edited
00:01:55.910	00:02:01.480	00:00:05.570	So I am the chief human resource officer for an energy services company out of Frederick, Maryland.	Speaker 2	not-edited	Background
00:02:02.930	00:02:04.940	00:00:02.010	And how did you how did you land this	Speaker 1	not-edited
00:02:06.020	00:02:37.759	00:00:31.739	sheer luck basically? So I went to school to be a psychopathologies. Did not like that after I got out of school and found out that there were all kinds of different things you can do for the degree in psychology, one of which is human resources. And so I kind of found an affinity for that and happened to look into this company. They were a startup company, started back twenty six. I was actually the very first employee that they hired outside of the ownership. I was the only employee and then I've been with them ever since.	Speaker 2	not-edited
00:02:38.550	00:02:41.960	00:00:03.410	All right. And what is it that you like about this job that you're in?	Speaker 1	not-edited
00:02:42.650	00:03:17.870	00:00:35.220	It's a lot of things, but I think the biggest thing, Natalie, to me is that they really invest and value their people are a matter of fact, our first core values. Our people are almost family resource. And without our people, we could not be the company that we are. So that's impressive even by today's standards, even even as people are more valued than they've ever been. But even if the the employer that I worked for, they take that up to what I call the Google Esq type of environment. So it's very nice. It's very nice.	Speaker 2	not-edited
00:03:18.560	00:03:24.530	00:00:05.970	All right. And can you describe what your household look like looks like right now? Yeah.	Speaker 1	not-edited
00:03:25.360	00:03:38.089	00:00:12.729	Yeah, it's chaotic. So so I have a wife. We have three children. We have two dogs, a cat, a blue and gold Macall and a guinea pig. So it's interesting.	Speaker 2	not-edited
00:03:39.890	00:03:41.539	00:00:01.649	And can you describe your neighborhood?	Speaker 1	not-edited
00:03:42.320	00:04:31.869	00:00:49.549	Yes, so we live in a I mean, what would be considered a gated community, and I know that sounds a little bit pretentious, but it's a it's a private community and it's the little security, but with the guard and all that good stuff. And we live in a single family home. One story and pretty much all of our neighbors. And we actually I think we have a total of like 15 or 16 houses here. That's it. It's a dead end street. So very nice out of the way. So we are Andres's Huntington. We're about twenty five minutes away from the proper. So we're kind of out in the suburb area, which is really nice because you can go to the mall or to see a movie or whatever, but you can come home and just kind of relax and use the pool and there's no city noise to speak of.	Speaker 2	not-edited
00:04:32.600	00:04:38.829	00:00:06.229	There you go. OK, and what do you and your family do in your free time?	Speaker 1	not-edited
00:04:40.090	00:05:29.950	00:00:49.860	Well, before the pandemic, we traveled a lot that the kids love the zoo, and so we go to the Louisville or Columbus or Cincinnati Zoo, all of which are about three hours away from us. So not a huge trek. We love the outdoors. Being West Virginians, it's sort of mandatory. I think it's actually a law that you have to do so much of your stuff outdoors anyway. And so we like hiking and just kind of getting out and doing things. And then, you know, I myself, I find I fish with my wife and I. We do a lot of wine tasting in concerts now and not so much. In fact, we are actually having our first date night on Saturday and actually going out to a restaurant and we haven't done that in over a year. So it's it's different dynamics right now.	Speaker 2	not-edited
00:05:30.670	00:05:32.889	00:00:02.219	And that's going to be this weekend. I hope you have a great time.	Speaker 1	not-edited
00:05:34.120	00:05:35.290	00:00:01.170	Thanks, but we do, too.	Speaker 2	not-edited
00:05:38.890	00:05:45.459	00:00:06.569	And what is it about, like wine tasting in the zoo? Like what is it about these topics that are so attractive to you and your family?	Speaker 1	not-edited
00:05:47.090	00:06:27.739	00:00:40.649	Well, the biggest thing relative to everything outside of the limitation in the concert part is that you can do it holistically with the family, like the whole family can go to the zoo, the whole family can go to the movies, the whole family can go on hikes. So that's good family time. In fact, sometimes on the hikes we take the dogs. But outside of that, it's like the wine tasting. That's that's that's some alone time that my wife and I have. And we enjoy wine. So we certainly like the fact that we have the availability sample, different types of wine, because we've always been kind of wine enthusiasts for lack of a better phrase.	Speaker 2	not-edited	Background	Background
00:06:30.020	00:06:35.660	00:00:05.640	I'm going to go down a bit of a philosophical route. Now, what what do you think makes a good life?	Speaker 1	not-edited
00:06:36.720	00:07:06.069	00:00:29.349	Well, you know, that's the case. That is highly subjective, Natalie. And from from my perspective, I think having a good life is having heavy bell and having around those people care about it could be people they don't have like other family members or friends. But for me, it's having my family close around me and for all of us to have good health, to live a good life.	Speaker 2	not-edited	Background	Background
00:07:07.770	00:07:12.680	00:00:04.910	And maybe what what do you lose sleep over what concerns you,	Speaker 1	not-edited	Background
00:07:13.620	00:07:47.730	00:00:34.110	but not much. So I've got that one for you. I think the biggest thing relative to the loss of sleep is just like the health of my children, especially when the baby came. It was initially it was like the next black plague. So no one really knew what was it. So it's like, what about the kids? How are we going to enslave the kids? How are you going to protect the children? So it's just the children at sleepovers. But fortunately, we are in good shape, so I don't lose a lot of sleep.	Speaker 2	not-edited	Background	Background
00:07:49.050	00:07:54.449	00:00:05.399	All right. And what does community mean to you in your life?	Speaker 1	not-edited
00:07:55.020	00:08:48.690	00:00:53.670	Community is really important. I'm from Huntington, so I mean, like their population. Fifty thousand, which for us is really big, but especially coming from an area that's like a village. I mean, so it's it's interesting because I see our community as the Huntington, West Virginia area and then it kind of shrinks down in concentric circles all the way down to our people. So there are different layers here, but we live in a wonderful community. I mean, Huntington has its problems like everywhere else. But by and large, the people are very hospitable. Crime rates are relatively low, and so community is paramount. That's that's one reason we want to Huntington is because we like it better than the Frederick, Maryland area just because it's the, you know, your city folk, so to speak.	Speaker 2	not-edited	Background	Background
00:08:49.830	00:08:57.389	00:00:07.559	All right. And then when I say the word sustainability, what what meaning does that have to you?	Speaker 1	not-edited
00:08:58.110	00:09:47.070	00:00:48.960	Well, I mean, it has a number of different ways, depending on the context. But I think overall sustainability does that. What that does, whatever you about, have the ability to be able to sustain a whole like finding a word by word, a long term sustainable venture. Right. I could be anything. I mean, that can be the energy and this thing versus the traditional fossil fuel energy, unsustainable indefinitely. Or if we look at your health. Right. Or is Michael a sustainable situation. Right. Whether we had better health care or have you? I think if you look at it holistically, sustainability is just the ability to have continuity.	Speaker 2	not-edited	Background
00:09:50.760	00:09:57.570	00:00:06.810	And when you think about, like environmental sustainability, how does that intersect your life today?	Speaker 1	not-edited
00:09:58.950	00:11:04.470	00:01:05.520	Well, I can say it intersects my life more than what I mean by that is when I was like, you know, whatever I mean, it's like gasoline is a fossil fuel. It's deteriorated the ozone layer. And it's kind of like whatever it is had gotten older and understood the impact that we had over a year. It is much more to control the decisions that we make as a family, things that we purchased. I think I mentioned this recently. Well, about five years ago, I had a full solar array put on the house. We have a rain catchment to conserve water. A number of different things. You personally use these recyclable materials you recycle because I think especially after having children, I think you look at the future, right? Water. We leave children. What are we going to leave with the next generation, if we can, to use and abuse the planet the way that we have in the past.	Speaker 2	not-edited
00:11:07.260	00:11:17.970	00:00:10.710	So kind of wrapping up what we've spoken about for the past few minutes is what do you think in our culture and society today? What are the biggest challenges are in your mind?	Speaker 1	not-edited
00:11:19.410	00:12:05.010	00:00:45.600	Wow. That is yeah. We could use this to kind of sum it up. I think the biggest challenges that we face as a society are, one, ensuring that the health care for every person in the world is something that is right to the ability to feed and house everyone in the world equally and efficiently to the extent we can. I mean, thirdly, and harkening back to the fact that we have a planet where I think ultimately will determine whether or not we can do any of the other things like the world, not around here and here is not going to matter if anyone's homeless is pretty bad.	Speaker 2	not-edited
00:12:07.450	00:12:18.190	00:00:10.740	All right, I give you if I give you a magic wand and there's like, what's the first thing you would try to solve? And either your local community, the world. Yeah.	Speaker 1	not-edited
00:12:18.220	00:12:54.279	00:00:36.059	So that's a pretty easy one. I mean, I would resolve every conflict on the planet moving forward. I think, you know, the fact that we are inherently more like people don't get me wrong. I was a military. I understand the cause, the importance of warfare. But if you could resolve conflicts on Earth moving forward, you would have a need to have warfare. And I think that's the first foundation. I mean, if you look at the world now, we can't agree on anything. We could agree on how to handle that. Right. So, I mean, it's like if you could solve that, that is the foundation of everything else.	Speaker 2	not-edited
00:12:58.090	00:13:07.750	00:00:09.660	All right. I'm going to shift gears a little bit. Is it important for you to kind of fit in or is it more important for you to stand out?	Speaker 1	not-edited
00:13:08.900	00:13:29.240	00:00:20.340	Yeah, I've never been a member of my family, so I don't really care too much about being a conformist icon of my family kind of thing. I mean, we we're not we're not likely to obey the laws. But I mean, outside of that, we just kind of do what works for us.	Speaker 2	not-edited
00:13:33.510	00:13:42.870	00:00:09.360	And do you have like an example of something where, you know, it might not be mainstream, it may not be what everybody else is doing, but it works for you and your family?	Speaker 1	not-edited
00:13:43.860	00:14:14.009	00:00:30.149	Oh, yeah, absolutely. I could tell you right now this area that I'm from, the solar array that we have, we think that one I think we're one of only two solar array, 50 mile radius. It's still witchcraft here in battery. And so people are still I mean, even my neighbors have been asking, so how will the order what does it produce? Because there is earlier, but.	Speaker 2	not-edited
00:14:18.660	00:14:27.960	00:00:09.300	That's interesting. So you've been one of the first movers on renewable energy in your neighborhood and you get questions from your neighbors. How does that how does that feel?	Speaker 1	not-edited
00:14:29.100	00:15:04.220	00:00:35.120	It feels really good, because I found that being a psychologist, I feel that people that don't ask questions are the ones that are close minded to do as much asking questions as my default is not right. And so they're asking that people have some type of some interest in it, whether it's a page created by the Beveled or is this something that works really well? Right. Either way, they get an answer to depression. So it's very, very quiet about it.	Speaker 2	not-edited
00:15:06.750	00:15:22.309	00:00:15.559	So thinking about time is where you want to buy something or purchase an item. Like what percentage of those purchases do you think are really calculated and require a lot of research? And what percentage do you really go with your impulse or.	Speaker 1	not-edited
00:15:23.960	00:16:18.210	00:00:54.250	So that's pretty interesting. My wife would tell you that I waste all of our time analyzing her purchases and so I get my perspective, 90 percent of our purchases, including like groceries and all kinds of stuff, have some kind of analytical, whether it's opinions like this on sale versus a Darlie or price per unit all the way up to solar panels. I did a gigantic spreadsheet which twenty five year relied on the solar panels to see if that even made sense to buy them and everything in between. So just about everything. I mean, there's some things obviously, like are we going to get chicken nuggets or Big Mac at McDonalds as. I'll do a lot of anal analysis there. You know, what are its calories? It is. So it's like the devil, you know, at that point.	Speaker 2	not-edited
00:16:18.930	00:16:35.679	00:00:16.749	Got it. So when when you are deliberating between one or two or more choices, is there is there a universal. Definition of better. Like, how would you know which option is better?	Speaker 1	not-edited
00:16:36.160	00:17:16.390	00:00:40.230	Yeah, I guess that's really let's use the table. There's a whole different set of criteria on on a vehicle purchase than there is purchases and a laptop or a new line or for a pool, which we just get. It's so, you know, it depends on the subject matter. But, you know, it's somewhat universal at this point. Right. And then return on investment. I'm not averse to the patent law, if you realize there. But I'm certainly not going to pay more for someone who doesn't have a better or higher quality construct than something that doesn't	Speaker 2	not-edited
00:17:20.079	00:17:27.159	00:00:07.080	if I say the word deserve. What do you think about that word I deserve?	Speaker 1	not-edited
00:17:27.430	00:17:52.329	00:00:24.899	This is a word that I'd write to the word entitlement. I think it's overused and changed over the decades. But I think when we look at the word disturbed, it means title. What am I that I don't get it from or what am I supposed to write in my mind? But what I've actually learned in practice practice.	Speaker 2	not-edited
00:17:53.800	00:17:57.970	00:00:04.170	So nowadays it has more of a positive or negative connotation to you.	Speaker 1	not-edited
00:17:58.210	00:18:31.990	00:00:33.780	To me, it has a more negative connotation. I mean, people have a hugely inflated sense of self worth more so than they did. There is a huge sense of entitlement at all levels of socioeconomic strata in the world relative to certain things. And so you look more about things that we look at what we earned versus what we heard. I think that dynamic diametrically opposed.	Speaker 2	not-edited
00:18:34.720	00:18:39.880	00:00:05.160	What if I said everyone deserves? Does that change your interpretation?	Speaker 1	not-edited
00:18:41.970	00:18:58.470	00:00:16.500	It might I mean, like so I could I could go with like everyone deserves to have food and everyone deserves to have adequate health care. Right. I would agree with those statements relative to the term conservative would be treated.	Speaker 2	not-edited
00:19:03.870	00:19:11.029	00:00:07.159	One more, what if I said. Something bigger than yourself. What would you what comes to mind?	Speaker 1	not-edited
00:19:11.900	00:19:43.910	00:00:32.010	Well, when I was in the military, we had we had a phrase called for for the greater good. Right? I mean, what that meant was mean soldiers and they all die. But for the greater good of the country as a sacrifice, I don't think I looked at the greater good. That's kind of the context I was. It is what I do or what I sacrifice. It is largely more impactful to a larger group of people, positive fashion than the sacrifice that I personally make.	Speaker 2	not-edited
00:19:47.990	00:19:58.849	00:00:10.859	Is there a memory of more recently of a time where you did think of something bigger than myself and that influenced your action or your decision?	Speaker 1	not-edited
00:19:59.450	00:20:39.880	00:00:40.430	Oh, yeah, every day with my family. I mean, when I look at what I want to do. So I'm a watchful eye, but, you know, I want to be in agreement on what is the greater good. Right? I mean, how many diapers, how many articles of clothing, my family, how long a water bill as opposed to me having another watch on my Facebook. Everything that I do from a Decision-Making perspective is always great for my family is as opposed to what I want for life deserve.	Speaker 2	not-edited
00:20:41.450	00:20:50.690	00:00:09.240	OK. All right. So let's switch gears and talk about the talk about driving. Where does how does driving fit into your life?	Speaker 1	not-edited
00:20:50.870	00:21:07.089	00:00:16.219	Oh, my gosh, I love driving. I love vehicles. I always thought this is what is so interesting. I absolutely love vehicles. And I have since I was a kid. Yeah. I drive there all the time. Any time we go anywhere, basically if it's under six hours fly, I drive.	Speaker 2	not-edited
00:21:07.820	00:21:12.470	00:00:04.650	Got it. Why do you think you have such an affinity to cars.	Speaker 1	not-edited
00:21:14.210	00:21:49.230	00:00:35.020	I mean like my dad was not really a car guy, I was a car person I just always been extremely interested in. But more specifically, I have to say, more high performance vehicles like. Yeah, it's not like I'm obsessing over Cavalier's by any stretch imagination, but I do I do like the engineering of of certain vehicles. Porsches specifically had several of those and we have those because I'm fascinated by the engineering vehicles.	Speaker 2	not-edited
00:21:50.420	00:21:55.109	00:00:04.689	OK, so did your family have a car growing up?	Speaker 1	not-edited
00:21:55.790	00:22:13.069	00:00:17.279	We did. We had actually we were we were very blessed that we were back in the day. But I think most wives didn't work and it was kind of like our family. But we actually had two cars, one for my mother, one her. So it worked out very well for us.	Speaker 2	not-edited
00:22:14.690	00:22:16.940	00:00:02.250	Do you have any memories of that, of those cars?	Speaker 1	not-edited
00:22:17.100	00:22:59.359	00:00:42.259	Yes, I do. So you ever seen the movie Vacation? Essentially, we had the station and I thought it was an automobile built eighty a wagon with the wood panels. And I'm not joking. You had the wood in the back by the road, which is now illegal because I'm on the brakes. Right. And we never wore seat belts and we back for all kinds of stuff and we would go to have all these Griselle type adventure pictures. And those will forever be ingrained in my memory of some of the most horrific crimes and some of the best times.	Speaker 2	not-edited
00:23:00.650	00:23:04.959	00:00:04.309	Got it. And tell me again what cars you have at home right now.	Speaker 1	not-edited
00:23:05.720	00:23:35.150	00:00:29.430	So currently we have we have a Porsche and we have a Porsche Panamera. I've got an older building. Eleven. I've got a nine six eighty. I've got a nine four s. And then we also have a fleet here. We have a Jeep Wrangler. And a BMW five twenty five for no serious sympathy, I	Speaker 2	not-edited
00:23:38.290	00:23:39.890	00:00:01.600	do collect cars or do you drive?	Speaker 1	not-edited
00:23:40.880	00:24:02.349	00:00:21.469	So both. But the so the older Porsche, everything that the trophy and the Porsche stable, the kind in the market driven all the older ones like the nine 11, the nine sixty eight to nine before they we may put a year on those babies sometimes not even that. So it's kind of culminated like them in the.	Speaker 2	not-edited
00:24:04.010	00:24:06.450	00:00:02.440	What's the car that you use on your day to day.	Speaker 1	not-edited
00:24:07.550	00:24:23.450	00:00:15.900	Usually it's the client but lately it's been seven fifty only because we just it like that. So, you know, it's new. So you can't drive it. Then you'll get tired of it and I'll go back to probably the car.	Speaker 2	not-edited
00:24:25.490	00:24:33.699	00:00:08.209	What's your like car buying schedule? Like how often are you buying a car or selling a car.	Speaker 1	not-edited
00:24:33.950	00:25:21.529	00:00:47.579	So too many times. According to my wife. But, you know, it depends. So we have a we have a strategy. Try to replace the newer non collectible. It's about every three years. However, some time just we're going to feel that we had a five twenty five I that we've had about nine months. And then we ran into this bill and it was just a really great deal of training. And so that was like a month right there. So that was kind of unusual. It depends. It depends on, you know, happenstances, things of that nature. And there's there's always a check. I'll run into an old Porsche somewhere and I'll just buy it because I'll add it to the collection.	Speaker 2	not-edited
00:25:22.780	00:25:28.010	00:00:05.230	OK, what was the what was the first car you ever bought for yourself?	Speaker 1	not-edited
00:25:29.070	00:25:37.760	00:00:08.690	All for myself that I bought personally, I bought myself a I think it was an eight a Dodge Charger.	Speaker 2	not-edited
00:25:38.840	00:25:47.970	00:00:09.130	Yeah. That's cool, and what other between the Dodge and the Porsches that you have today, like what brands have you had in between?	Speaker 1	not-edited
00:25:48.300	00:26:08.260	00:00:19.960	Oh my gosh, I've had almost everything for poor people. I've had I've had HOTAS and. A Hyundai JE. I think that's it.	Speaker 2	not-edited
00:26:09.920	00:26:16.460	00:00:06.540	Any one of those in your and over the years really stand up the most, you	Speaker 1	not-edited
00:26:17.690	00:26:42.279	00:00:24.589	probably the old gee I had a S.J, which is which is a wrangler. And that thing was so it could climb a tree. I mean, it was anywhere. And in West Virginia, we did things we refer to as ridge running. So, you know, you go up the mile, run across the ridge, you come back now on mud and stuff. And it was a perfect vehicle for that.	Speaker 2	not-edited
00:26:45.530	00:26:52.919	00:00:07.389	So you've had quite a range like our needs from a car changing. Like how what are your needs from a car today than they were 10 years ago?	Speaker 1	not-edited
00:26:53.090	00:27:54.890	00:01:01.800	Yeah. So more room for doors because you know, the kids back in the day when I first when I was first started driving, I, like my parents, bought me a Camaro and I wanted to talk to them because, you know, it's hard for Gerson. And I wanted a sports car because I didn't have children. I didn't have if I had a girlfriend, she the past year, about this time, the faster the car for the better. Right now, you know, we have the SUV, we have the band or the 911, basically, because we need four dollars. We drunk space. We need room to take, as they say, to the vacation to drive across country. You've got to have some hardly relative to the family unit and the expansion.	Speaker 2	not-edited
00:27:57.140	00:28:07.510	00:00:10.370	So if you think about it like a car being very functional, like today, where on that spectrum are cars in your life?	Speaker 1	not-edited
00:28:08.210	00:28:59.510	00:00:51.300	Yeah. So from a personality perspective, cars are extremely important. A because I love to drive the day. I would say this. I had to state the most functional vehicle that would be because of its size and its capacity. However, the larger your family gets, the larger the issue. And that kind of nair's your selection in those areas that you might need a race for the clients don't have. But instead a lot of the other a lot of other competitors out there, larger market space, if they're see things of that nature so that that type of vehicles, what we look at, the most urgent and other vehicles is OK.	Speaker 2	not-edited
00:29:04.050	00:29:19.249	00:00:15.199	This call, this question, maybe you have a different answer, depending on what car you're thinking about, but if you had to associate your car with the word, like, what would it be? And I'm thinking like, is it a tool? Is it a pet or is it a friend? Is it a thing?	Speaker 1	not-edited
00:29:21.140	00:29:48.910	00:00:27.770	Yes, a really good question, I guess, of the cause that we have more assets than anything because there's a certain class of people that we have to work a lot of money, but there's also a certain class of people like we're we're going to trade that off eventually because we put miles on it. And it is a more utilitarian right at this point. It's a functional asset.	Speaker 2	not-edited
00:29:49.360	00:29:54.800	00:00:05.440	And so have you ever named your car? Do you have a name for your tie?	Speaker 1	not-edited
00:29:54.900	00:29:58.730	00:00:03.830	Never know. And we will never name our cars in our family.	Speaker 2	not-edited
00:30:00.470	00:30:01.150	00:00:00.680	Tell me why.	Speaker 1	not-edited
00:30:02.060	00:30:11.280	00:00:09.220	It's just silly. It's silly. Silly. I have friends and it's silly. Have you ever seen	Speaker 2	not-edited
00:30:12.210	00:30:13.950	00:00:01.740	a car as part of your family?	Speaker 1	not-edited
00:30:15.040	00:30:20.760	00:00:05.720	No, no, not really. I mean, no, I don't think that I ever would either.	Speaker 2	not-edited
00:30:21.510	00:30:35.450	00:00:13.940	OK, so one of the reasons why we're talking to you today, because you're you talked about what inspired people in the next two years. Where are you in that process right now?	Speaker 1	not-edited
00:30:35.470	00:30:57.809	00:00:22.339	So we're getting close. The time is gone, I think almost one hundred thousand miles on it now. And so we we try to keep it under one hundred. And so as it gets closer and the like I said, about every year on average on rotations. So that's about right. So we're close. We're within two, three months.	Speaker 2	not-edited
00:30:58.420	00:31:06.200	00:00:07.780	OK, what does your normal process look like. Like how does it start. Where's the middle and when do you know you're close to the end?	Speaker 1	not-edited
00:31:06.600	00:32:48.180	00:01:41.580	So the process starts probably about seventy five miles before you start looking ahead to brand new things that are the new types of technology. The president says new types of vehicles that manufacturers are coming out with. And then as we kind of progressed into that time, I'll start doing things like research for analysis on the features versus the pricing. So there's a return on investment. Do they hold their value more so than other vehicles or other frames of people? What's the trade with the retail edge? And then, of course, gold. I mean, no, I would love to have a body, but I can't afford that. That's just about right. But that's kind of how it starts. And then we're right now, it's more about, OK, let's start looking for a few hundred miles. Do you want to order a vehicle that we want and have a what does that look like, an industry out there? And when are the new models steady? Right. So we're kind of at the of that phase right now where the kids are going to start here in October, November. And so do we wait on the continent and get a twenty twenty two or do we wait until the sun is out and they're trying to get rid of the 2014. Right and get a better deal. So now we're starting to weigh those out of your selection	Speaker 2	not-edited	Buying a Car
00:32:49.650	00:32:53.739	00:00:04.089	and what what brands are in your consideration set right now?	Speaker 1	not-edited
00:32:54.300	00:33:41.039	00:00:46.739	So this sounds really pretentious, but it's just the way it is. So we like Audi. I like w we like Mercedes just like before. We like infinity. We're we're somewhat partial to Honda. It depends on the type of Jeep family. We just don't see Jeep as an option just because of the gladiator or pickup. So we kind of just narrow it down to those types of vehicles. Yes. Most of those older luxury. But we do want a certain amount of comfort and amenity in our house because we do travel in.	Speaker 2	not-edited
00:33:41.950	00:33:51.119	00:00:09.169	Got it. So what are your perception on German versus American versus Japanese versus Korean?	Speaker 1	not-edited
00:33:51.780	00:34:58.300	00:01:06.520	OK, so again, this probably sounds quite so pretentious to me. And my experience has been and in speaking with I worked for a company that hires a lot of engineers, a lot of mechanical engineers. So even with our engineers, it is my personal belief and experience as a German engineer that is second to none in the world and has been evidenced by every German versus every other people I've ever owned. So German vehicles are certainly always the one to look at first and then the Japanese. So you look at Lexus affinity, those those are kind of second and then everyone else kind of falls similar. You know, I listen, I had an uncle that worked for a company million years back before he passed away. So I'm not averse to masturbate. But this and I have read this, I know the affordability and reliability ratings are not very pretty.	Speaker 2	not-edited	Buying a Car
00:35:00.030	00:35:10.739	00:00:10.709	So if you were to pick one of the brands in that list that you had, what is one what is the kind of car person drives say about them? Do you believe it does? Thing about them,	Speaker 1	not-edited
00:35:11.470	00:36:01.480	00:00:50.010	I do that, and that's why you always hear me say this sounds pretentious. I do believe that whole leader knows those people. Some people literally believe I had or prescribe value to themselves based on the type of brand of people I drive. And I work with people like that. And they they look down their nose at people who drive like idiots, for example. And we're not like that, but that some people are. And from my perspective, the value that it has and what it says about you is more about your affinity or functionality or in conjunction with your affordability or your.	Speaker 2	not-edited
00:36:08.190	00:36:12.840	00:00:04.650	What what models are, let's say. What are your top five models that you're thinking of right now?	Speaker 1	not-edited
00:36:14.670	00:37:24.629	00:01:09.959	So probably an old order is going to be Porsche and it's probably going to be the car in the making. And those are nice, but they're relatively small. And so the Audi Q7 VW analysts will tell you about the Atlas has started receding. And that is really we struggle from the perspective of we love Porsches, but of course, Porsche, Audi, VW are all in the same company. So we're trying to still brand loyalty, but the functionality is really trumping the Porsche brand, even though VW is simplicity over the past couple of years, their engineering still, I think, above the rest. And then we've also looked at the Lexus think a step on it. But that's the bigger issue. And then the penalty if you 60 days. But I think there's any doubt which is that large bass player, B or C.	Speaker 2	not-edited	Buying a Car	Buying a Car	Buying a Car
00:37:27.650	00:37:40.519	00:00:12.869	When it comes to making that final decision, it sounds like there's a lot of analytics and like mind that's going into it, but what percentage are you making the decision based on your gut?	Speaker 1	not-edited
00:37:42.520	00:37:59.500	00:00:16.980	Yeah, I mean, with vehicles, it's probably. Twenty five percent, but that's based on a lot of it, based on my experience in the past with brands, vehicles and the types of businesses that we can hire, specifically MBAs over the years.	Speaker 2	not-edited	Buying a Car
00:38:00.730	00:38:07.559	00:00:06.829	OK, so let's let's zero in on on VW had ever owned before.	Speaker 1	not-edited
00:38:08.200	00:38:59.250	00:00:51.050	So I actually did not. But a very good friend of mine owned VW Fox, which was like 80 or 90, I don't know when they did the boxes, but it was a cool little vehicle. I loved it. It was a four door and I still like I was really on like, oh it's more but it was pretty cool. And I think that go anywhere in the snow or whatever, and he had very, very few mechanical problems out of it. And then another friend of mine owned an old W. Sirocco, which I think they kind of those that do. And that was a really sporty little hatchback, I think was a Ford Escort. I mean, it was really nice looking and it performed really well from recollection, especially.	Speaker 2	not-edited
00:39:03.870	00:39:14.949	00:00:11.079	Outside of the cars, what is the what is the VW brand mean to you? Is there sort of like a type of brand story you're thinking about?	Speaker 1	not-edited
00:39:15.210	00:40:29.340	00:01:14.130	So I'm not sure how familiar you are, but you probably are fairly familiar as to how we kind of got it started back in the day under the Nazi regime. So there's always that legacy. But it's the same with Rolls Royce Mercedes they all supplied to Nazi Hugo Boss design uniforms. So you don't buy an insurance. So it's not bad. But there is a you know, there's a huge legacy of outside of that jeep, of pinpoint engineering innovation with VW. I mean, Ferdinand Porsche, you know, the what we call the bug now. And it was extremely innovative back in the day. And so I think when we look at VW, they've always had more innovative than, say, the other car brands out there. And I think the real story of we've always been the know the love, happiness and the guys. Right. But the Banegas in the 60s, flower children, that's what the brand really to get home in America.	Speaker 2	not-edited	VW Owners	VW Owners
00:40:32.280	00:40:38.849	00:00:06.569	And so, like over the years, like, how do you think that hippie VW brand has evolved?	Speaker 1	not-edited
00:40:39.900	00:41:22.400	00:00:42.500	I think it's really all from what used to be considered a of a hipster or hippie type of vehicle to do a more critical as possible for ratcheting up the on of offerings that they have more luxurious and more technology in their vehicles, more efficiency in their vehicles than they ever have before. So I think that you see that innovative mindset really start to take all the last decade or so.	Speaker 2	not-edited
00:41:24.080	00:41:30.349	00:00:06.269	I, I hate to do this, but I might not. So you repeat yourself a little bit as there was a little or.	Speaker 1	not-edited
00:41:30.630	00:41:37.590	00:00:06.960	Yeah. Let me let me make an adjustment here and see if it helps is any better.	Speaker 2	not-edited
00:41:38.310	00:41:44.909	00:00:06.599	I think so, yeah. So you were talking about I heard upper echelon but I can use the stuff in between and it sounded good.	Speaker 1	not-edited
00:41:45.300	00:42:44.110	00:00:58.810	OK, well that's debatable but we'll see. So I think, you know, like I said, when we look at the W style and what it was when it first came out, a lot of people were like, oh, that's that's a car for hippies. And now they out over the past 10 years, they've come up with a more luxurious type of representation. Right. Whether that's sedans with leather interior work. And so it's moved up into the upper echelon of competitiveness. Right. I mean, it's on up there with Mercedes, Cadillac and things like that. But it's not it's not really meant to be either. Right. It's a bit just like Chevrolet and Ford aren't right. As opposed to Cadillac. And even though they're they're still an upper echelon the top tier Toyota versus Lexus situation. So VW, I think, higher on the food chain than it used to be towards.	Speaker 2	not-edited
00:42:45.520	00:42:49.510	00:00:03.990	What do you think has stayed the same over the decades for VW?	Speaker 1	not-edited
00:42:50.130	00:43:51.820	00:01:01.690	Well, I think their commitment to quality, somewhat recent polls aside, I think the quality has been very good, but I think certainly their innovation with innovation and continuous improvement processes has been excellent. I think the fact that they are different in a good way. Right. So they have some unique vehicles out there. And Volvo used to be remember, but they look like LOCKSS with wheels, either like the market price and VW kind of the same. Right. Either like a VW Beetle. And there are a number of reasons for that. But they're they don't look like, for example, there are ideas out there that look like a Lexus. I mean, if you did buy them, you might have a hard time, a very good model. What type of is so they don't have that universal look. So you won't be talking about going with the flow and standing out. I think VW still stands out more so than other people.	Speaker 2	not-edited
00:43:54.810	00:44:01.590	00:00:06.780	Why? Why isn't. Why haven't you why haven't you bought a VW before and why now?	Speaker 1	not-edited
00:44:02.570	00:44:55.459	00:00:52.889	Because most every month, all the inmates there is, of course, a big craft, so we're just porscha people. But the reason I say it is because the athletes of the track take one or make an entire invariants. So the atlas is not a variant of anything related to Porscha currently. It's a bigger SUV in the sky and it offers more space. It all proceedings. And so that's becoming more and more important for us. And so now it is time, as I kind of indicated earlier, that we look at the VW as opposed to the sort of Porsches or even the seasonalities like the seven, I don't believe is is comparable to the IF.	Speaker 2	not-edited
00:44:56.360	00:45:02.030	00:00:05.670	What do you think the VW brand says to the world about who's driving it?	Speaker 1	not-edited
00:45:02.840	00:46:10.489	00:01:07.649	You know, it's funny. So back in the day, I had said something to someone that I thought, you know, I think about getting a perspires VW side and I'll never forget this. And her name was Morila. And I worked with her more or less. If you like to see you in a BMW, you just looked like a normal person. And I'm like, what does that mean? I mean, do I have, like, eyes and ears and a tail or what does that look like? One of the people look like you said, you have that air of sophistication about you that would lead me to believe you would appreciate the quality of a VW. I was like, oh, OK, well, thanks, I'll take that as a compliment. And so I think that I think that's indicative of what VW means to a person. Right. Because, again, they're not the same as a regular people. They don't look the same as. I mean, there's a certain sophistication here. They're not luxury cars. They're not high performance here. Even with the R versions, they're not. Or the wolfsberg versions are not high performance. But there is a certain sophistication about why you do stand out as a driver.	Speaker 2	not-edited
00:46:12.500	00:46:20.049	00:00:07.549	So you kind of start answering that question. What do you think a quintessential VW person looks like?	Speaker 1	not-edited
00:46:21.590	00:47:01.080	00:00:39.490	Or perhaps. Well, I think they behave. I don't know what they would like to say, but I think that their behavior is one of someone who would want to stay in the background. He would want to be noticed. But it's also not because of what they drive a point and they drive and drive. So there's a difference there that they do appreciate the fact that they are different or engineered differently into higher specifications, generally with lower tolerances than through vehicles by and large. And that they have a of what I would call a universal commitment to quality.	Speaker 2	not-edited
00:47:03.410	00:47:11.729	00:00:08.319	OK. It was on the top of my head. It's fun,	Speaker 1	not-edited
00:47:13.440	00:47:16.039	00:00:02.599	you'll figure it out. Oh, boy.	Speaker 2	not-edited
00:47:17.230	00:47:33.940	00:00:16.710	Now, I'm totally off of balance. OK, let's let's go back to my list of questions here. So you talked about the emissions scandal. Did that change your perception about VW at all?	Speaker 1	not-edited
00:47:34.210	00:48:26.500	00:00:52.290	No, it did mine. I mean, listen, good companies have bad people that do bad things. I mean, that happens, right? I'm not going to hold it against the company personally because a couple of people make some poor decisions on behalf of you. I mean, if we look at VW because they've never done anything like that before and I seriously doubt they'll ever do that again. But, you know, it's I mean, every company under the sun has skeletons in the closet. Companies started. It didn't bother me. I do know that some people that that I associate with very much their mistake or averse to even looking at me will use these options forward, at least at least for the short term. I don't have a long term thing, but I didn't impact me at all.	Speaker 2	not-edited
00:48:28.750	00:48:35.859	00:00:07.109	I remember what I was going to ask. Electric vehicles. Yes. What what's your what are your thoughts on on campus?	Speaker 1	not-edited
00:48:36.190	00:50:50.440	00:02:14.250	So I want a Porsche taken. My wife says no, that's their that's their performance electric vehicle. So I love electric vehicles. I think they are the way of the future or maybe not the immediate future, but the longer term future. I certainly think they're going to become more and more mainstream. I like experience. I know, although Tesla is an up and coming brand. I mean, there are a lot of all of those vehicles. I know people. I know the problems that they caused. And I also know with warranty work and being denied. So they're stuck with a five or six figure bill. So what were the issues that supposedly they violated anyway? It said, I believe the Porsche. I believe the VW and that Audi as well as Lexus, especially Cadillac. I mean, from my understanding, Cadillac, I think it's twenty twenty four for their entire fleet. It's going to be able to buy GM. But that being said, there is there is, I think, of a bright future for electric vehicles, as evidenced by the fact that your factories are going that route. I think Porsche did it the right way. I think they released it later than Tesla. But no problems for the taking. Right. Like Microsoft Windows. Release it early and send out a thousand patches. Well, that doesn't work, right? Or do it like Apple does release it right the first time. And so that's I think that's worth noting mentality. I think it's out of the mentality. And I would like to say that's probably Lexus. And I think once they get mastered the technology, I mean, Toyota came out with the Prius with a really innovative design which actually charge the battery. When you broke, you applied the brakes so that in the charging and things like that, those are highly innovative. And I think that manufacturers are trying to figure out how to incorporate all of that technology into an electric vehicle to make sure it is sustainable. Right. And it goes back to our definition of sustainability.	Speaker 2	not-edited
00:50:52.900	00:50:55.179	00:00:02.279	What do you do? You own an electric car right now?	Speaker 1	not-edited
00:50:56.020	00:51:41.929	00:00:45.909	No, no, I do not in electric cars, mostly because we only elect fully electric Porsche that I would want to figure if it's too expensive. But outside of that, we've looked at them. Our problem here is we don't have a lot of charging stations yet, so we've got to have an electric vehicle like a hundred, one hundred fifty miles in between charges at all. Different ventures in and even in Kentucky. The you know, obviously, you know, there aren't a lot of charges. I think as those become more valuable, they become a more viable option for for the hillbilly Sally out here in West Virginia.	Speaker 2	not-edited
00:51:41.930	00:52:02.539	00:00:20.609	She's got an OK. All right, so we have about seven minutes left. I'm going to move to our final section in our hour time together. If I say better car, what does that mean to you?	Speaker 1	not-edited
00:52:03.880	00:52:13.750	00:00:09.870	Well, again, that is kind of subjective, but to me, a better vehicle is something that has a better return on investment than other.	Speaker 2	not-edited
00:52:16.100	00:52:21.679	00:00:05.579	And and remind me again what constitutes a better return on investment,	Speaker 1	not-edited
00:52:22.220	00:53:55.229	00:01:33.009	so the way I calculate our allies basically over the period of a vehicle, so let's say the war period is five years and it's it's bumper to bumper for four years or three years, you want to try and then you take the price of the vehicle and the maintenance required and you add those together as you extrapolate that comes out to number thousand dollars per year. Right. And then you look at other vehicles and you look at the maintenance and you look at the Moorthy and you look at note issues on the extrapolate that out. I kind of look at those numbers. Once you've determined that what I call the financial Honouliuli, that happens a lot. Right. So, I mean, like like, let's say Porsche versus the Beast on. Right. So the Porsche has the best line there. And it's cool to see it as a refrigerated glove box. But no, I really need that. I do. I really need a cold. So you have to start to look at what you need versus what you really want to price the fiscal arlott and then somewhere in between that feeling like, OK, I really don't need a refrigerated glove box, but, you know, extrapolated over a number of years, it's only a thousand dollars for a year for this glove box. And I get a Porsche. So there we go. So that's kind of what I mean by a better vehicle is the better it is over another.	Speaker 2	not-edited
00:53:57.230	00:54:06.559	00:00:09.329	So it feels like there is like very specific features of the car that could make it a more enjoyable experience.	Speaker 1	not-edited
00:54:06.740	00:54:51.590	00:00:44.850	Absolutely. Absolutely. So one of the big things that I like, especially from my wife and if she with your tell you she's not a driver, is the the lane change. Like if you have something in your blind spot that lines or goes off and tells you, hey, there's something there that's just a fantastic thing, like like we we want to have that right. But there are other things like I don't necessarily need air conditioned seats, I like heated seats. So I think that's really specific to the individual family unit as what's important. It's not like Back-Up cameras. You know, I don't know why she looks so happy. Wife, happy life.	Speaker 2	not-edited
00:54:54.080	00:54:58.269	00:00:04.189	What if I said everyone deserves a better car? What do you think?	Speaker 1	not-edited
00:55:00.490	00:55:01.959	00:00:01.469	Now, I wouldn't necessarily agree.	Speaker 2	not-edited
00:55:03.820	00:55:04.449	00:00:00.629	Tell me why.	Speaker 1	not-edited
00:55:05.110	00:55:53.079	00:00:47.969	Well, I think everyone deserves a better car. I think everyone earns a better car for themselves is is probably something that deserves kind of just gets it deserved. What's a better car does. I don't know. Right. And I can tell you that most people don't earn or I don't know Ferrari. And so do I deserve a Ferrari. I don't think so. I haven't done anything that would allow me to earn a Ferrari. So I don't think I deserve it, but. I think people. To earn or the opportunity to earn what they get in life, including better, because I would agree that I don't think everyone deserves a better class of that, I would agree, OK.	Speaker 2	not-edited
00:55:55.080	00:56:08.480	00:00:13.400	Earlier, I asked you about what are things that are bigger than yourself. And you talked about like family. Do you think it's possible for you to drive something that represents something bigger than yourself?	Speaker 1	not-edited
00:56:09.870	00:56:13.350	00:00:03.480	Yeah, I would think that I think an electric vehicle is good.	Speaker 2	not-edited
00:56:14.790	00:56:19.659	00:00:04.869	Yeah. Are there any other things that might fall into that category of driving something bigger than yourself?	Speaker 1	not-edited
00:56:20.370	00:57:13.469	00:00:53.099	You know, I'll tell you, this is interesting. So I don't know how many automakers out there really advertised, how much of that was made out of recycled material. I mean, like a real analysis, OK, price, not like most of our parts, which is kind of into that stuff. But I mean, I want to break up. I think that would be something where I could say, yes, that is and is bigger than myself, what I would be more at to be. You purchase a vehicle if I knew that it was made with either sustainable products of this title or some type of renewable resources. I mean, I play baseball on. I mean, I don't get out of college, but like, if I had a plant based on a vehicle that was derived from something that wasn't relative to the steel industry, for example, that would be interesting to me.	Speaker 2	not-edited
00:57:14.410	00:57:29.189	00:00:14.779	All right. We are we're just about out of time, Mike. This was really a lot of fun. It was fun for you to ask. Were there any questions that I could try to answer for you or anything you wanted to leave with, leave me with?	Speaker 1	not-edited
00:57:29.640	00:57:42.889	00:00:13.249	I don't think so, but I really appreciate it has been super interesting. But certainly you guys have any questions and using animals certainly get a hold of me and I'm all about the vehicle, so I'll be happy to do awesome.	Speaker 2	not-edited
00:57:42.930	00:57:45.780	00:00:02.850	Well, thank you so much and I hope you have a great long weekend.	Speaker 1	not-edited
00:57:45.990	00:57:47.489	00:00:01.499	Thank you. You too. Take care.	Speaker 2	not-edited
00:57:47.880	00:57:49.210	00:00:01.330	Take care. Bye bye.	Speaker 1	not-edited