In	Out	Duration	Text	Speaker	Status
00:00:04.840	00:00:08.920	00:00:04.080	All right. Let me know when you're ready,	Speaker 1	not-edited	RECORD START	Nathalie
00:00:09.190	00:00:10.210	00:00:01.020	I'm ready when you're on.	Speaker 2	not-edited
00:00:11.260	00:00:21.309	00:00:10.049	Let's do this. All right. We'll start with the basics. Just for the record, can you please let me know your name age and relive	Speaker 1	not-edited
00:00:23.250	00:00:28.869	00:00:05.619	the rules for ages fifty eight. I live in New York.	Speaker 2	not-edited	Background	Nathalie
00:00:30.470	00:00:33.949	00:00:03.479	Awesome, and how did you pick that town to live in?	Speaker 1	not-edited
00:00:35.690	00:01:13.430	00:00:37.740	Well, the I was looking for a house. I used to live in the city and I wanted to be in the suburbs. And so before I got married, we my wife and I, we'd look for a place that would provide good schooling for our kids and some land so we could venture out and be comfortable, because the city, as you probably know, is a little tight speech wise. So we were like looking for suburban life and so we got it. So that's why we moved out here like 1990 to.	Speaker 2	not-edited
00:01:15.680	00:01:19.489	00:00:03.809	And what is your household look like? Do you have family pets?	Speaker 1	not-edited
00:01:21.990	00:01:51.579	00:00:29.589	Three boys, one still live with us, the other one's collected, he does, but he's he's in school and he comes home. So the we take vacation together. We typically travel and go places. We drive places a lot. But we like we like to drive. We like to take family trips. So that's that's what we had no pets. We use our pets with more.	Speaker 2	not-edited	Background	Nathalie	Background	Nathalie	Background	Nathalie
00:01:52.660	00:01:59.290	00:00:06.630	Oh, well, sorry to hear that. Can you tell me what you do for a living?	Speaker 1	not-edited	Background	Nathalie
00:01:59.950	00:02:07.549	00:00:07.599	Oh, yes, I'm a variety for for a company, obviously an I.T. department staff that oversees staff of 30.	Speaker 2	not-edited
00:02:08.560	00:02:12.499	00:00:03.939	Well. How did you get into that line of work?	Speaker 1	not-edited	Background	Nathalie
00:02:13.020	00:02:34.169	00:00:21.149	I went to college for computers and computer science and graduated and I also have a finance background. So Finance and I.T. got married to get together. And I've been liaison between reality and finance for a while until I became a head of I.T. So I had a basic, pretty good understanding of finances.	Speaker 2	not-edited	Background	Nathalie
00:02:35.670	00:02:39.479	00:00:03.809	Amazing. And what do you love about your job?	Speaker 1	not-edited
00:02:40.140	00:02:59.520	00:00:19.380	Oh, I love to implement new solutions. And the technology keeps changing using IT technology to to advance the business. We I just love to see the technology being used and implementing it and watch people actually take advantage of it.	Speaker 2	not-edited	Background	Nathalie
00:03:00.780	00:03:11.759	00:00:10.979	That's so cool to see your work in action. Absolutely awesome. And can you tell me a little bit about your your neighborhood and what your community is like?	Speaker 1	not-edited
00:03:12.930	00:03:52.819	00:00:39.889	Well, suburbia, you have to drive everywhere. You can't walk anywhere you register. There's no there's no such thing as I go downstairs, the corner store, you have to drive to Costco or BJ's and gas stations and and the restaurants and parks, beaches, everything is driven. So it's a suburban life. You know, those houses are spacious and there's lots of land between them. I like I don't think I've changed. I miss the excitement of the city because I work in the city. But I enjoy going home.	Speaker 2	not-edited	Background	Nathalie
00:03:54.440	00:03:58.340	00:00:03.900	So you I mean, maybe pre pandemic, how are you getting to work?	Speaker 1	not-edited
00:03:59.330	00:04:09.889	00:00:10.559	People thought I was taking the train, the railroad outworked everyone drives to the railroad and they take the train. Into the city.	Speaker 2	not-edited	Background	Nathalie
00:04:11.290	00:04:20.889	00:00:09.599	Got it. And can you tell me a little bit more about personal hobbies outside of work, like what is really like to do on his time off?	Speaker 1	not-edited
00:04:21.140	00:04:42.889	00:00:21.749	Oh, I really love to play golf, really loves to play basketball. I was a soccer coach for 13 years. I love I love camping mountains and beaches. What am I missing? Bicycling. I like I like all those activities.	Speaker 2	not-edited	Background	Nathalie	Background	Nathalie	Background	Nathalie	Background	Nathalie	Background	Nathalie
00:04:43.980	00:04:45.290	00:00:01.310	How do you find all the time?	Speaker 1	not-edited
00:04:47.120	00:05:04.189	00:00:17.069	Well, I want to Reagan in 95, so my weekends are belongs to me and I am entitled to a lot of vacation time, which I take advantage of. And I take my you know, we go to Pocono's, Poconos, we go the Appalachians. I mean, we go we go places, our family and I.	Speaker 2	not-edited	Background	Nathalie
00:05:05.990	00:05:17.029	00:00:11.039	And what do you what is it about these particular hobbies that attracted you to them, like what is it about traveling and the sports? Well, coaching,	Speaker 1	not-edited
00:05:18.470	00:06:20.029	00:01:01.559	I'm a very well. We I should say we're pretty active, so I can't imagine staying idle given point. We like to do things. We like to go out. We love outdoors. I think we outdoorsy people for for that reason. We love to travel. We like to experience new new cities and towns, new cultures. We love to hit the road to see how people from other outside the states live. And we love to take trips. You know, we will drive as far as North Carolina and we have done that. And so. We are outdoorsy. We like to stay busy. We love sports, and I used to because I'm a soccer coach. I travel. We have a lot of games on the road. So we travel a lot and with a whole bunch of kids in the car. So we take advantage of that. So we we have to travel.	Speaker 2	not-edited	Background	Nathalie	Holy shit!	Michael	Background	Nathalie	Background	Nathalie	Background	Nathalie
00:06:21.150	00:06:33.880	00:00:12.730	Amazing of the trips that you've taken. What's what's the number one trip that stands out in your mind? And why?	Speaker 1	not-edited
00:06:36.880	00:07:18.920	00:00:42.040	Well, we drove all the way to North Carolina and we'd made stops in between, so we stopped them and we stopped in Virginia, you know, we stopped and knocked down. So we we had that on the way there. We experience a lot of other cities. We drive through the cities and we in addition to that, we also like to drive up the mountains. And and so it's. We like to experience these types of these types of nature. Call it what nature has to offer.	Speaker 2	not-edited	Background	Nathalie
00:07:20.750	00:07:44.679	00:00:23.929	So I love that that trip, because you talked about seeing other cities and getting nature and at the same time, so it sounds like both are important to you. That's awesome. And. What if I say the word sustainability? How would you define it, sustainability? Yes.	Speaker 1	not-edited
00:07:47.280	00:07:59.779	00:00:12.499	How do you define sustainability? Keeping things within reach. Keeping things together and within reach and manageable.	Speaker 2	not-edited	Background	Nathalie
00:08:03.020	00:08:13.410	00:00:10.390	Got it. OK, cool, and. What parts of your life do you think are sustainable versus not sustainable?	Speaker 1	not-edited
00:08:16.920	00:08:40.059	00:00:23.139	Everything is sustainable to some degree. I mean, creating health, but you have no say over what may happen. I mean, if you come down to some illnesses or something like that. But aside from that intact, everything is controllable within the victims, within my reach. If I. You could tweak things to make and sustain. OK.	Speaker 2	not-edited
00:08:43.490	00:08:53.330	00:00:09.840	So if you think about life in general, what do you think are makes a good life, like, what are the most important things to you in life balance?	Speaker 1	not-edited
00:08:55.840	00:09:26.250	00:00:30.410	Work life, family balance, you have to make sure you. Allocate enough time for all three, if you could cheat a little bit and take away from work and apply it towards a family and. And Joy, in having fun, you do that. And of course, having a healthy habits works, too. I mean, that's part of the life cycle of.	Speaker 2	not-edited	Background	Nathalie
00:09:28.590	00:09:43.740	00:00:15.150	Got it. Maybe on the on the flip side, what what keeps you up at night in terms of being able to live a good life? Are there things that worry you or. Worldly concerns?	Speaker 1	not-edited
00:09:44.950	00:10:38.849	00:00:53.899	Oh, yeah, a pandemic pretty actually brought things into perspective. This is outside of your control. And if you could. If you don't. If you don't like what you're doing or where you're going, where you interact with, you could possibly come down with a virus and that was pretty scary. I had no control over that. And that that bothered me because it kind of restricted me from traveling and doing things I enjoy doing as many as much as I do. I try to stay safe and take precautions. You know, you just know you couldn't be overcautious. And I think everyone was being overcautious, but there was no guarantee even that unless, of course, you stay and travel and not interact with others.	Speaker 2	not-edited	Background	Nathalie
00:10:39.740	00:10:52.840	00:00:13.100	Got it. OK, so let's let's shift gears a little bit and start talking about cars. Can you tell me what cars you have at home right now that you use for personal reasons	Speaker 1	not-edited	Car Ownership	Michael
00:10:53.860	00:11:00.080	00:00:06.220	on wheels right before the Honda Odyssey and those where I grew? See.	Speaker 2	not-edited	Car Ownership	Nathalie
00:11:01.300	00:11:04.929	00:00:03.629	And which order did you buy those cars in?	Speaker 1	not-edited
00:11:07.180	00:11:12.100	00:00:04.920	Our policy first the Tiguan and then the.	Speaker 2	not-edited
00:11:13.580	00:11:21.009	00:00:07.429	She went on the. And the the the Pursat you bought how long ago, again,	Speaker 1	not-edited
00:11:21.460	00:11:31.780	00:00:10.320	about a couple of months ago it was for my son, so I need to give him something reliable, something that's going to break down, because I think this is his fourth car.	Speaker 2	not-edited
00:11:33.100	00:11:36.210	00:00:03.110	Oh, yeah. Can you tell me more about this, that that history?	Speaker 1	not-edited
00:11:36.880	00:12:06.579	00:00:29.699	Yeah. My son has a tendency to run from cars, so you never have a new car, which is a good thing because he probably was elected, but he's he's really good. So I had to give him something and not extremely expensive, but something that is reliable that that will not break down on him. That's going to last him for a while.	Speaker 2	not-edited	Car Ownership	Nathalie	Holy shit!	Michael
00:12:07.840	00:12:21.100	00:00:13.260	And the thought was that a used car that you got for your son and so for the big one, what was the inspiration to buy that one?	Speaker 1	not-edited
00:12:22.180	00:13:35.859	00:01:13.679	That was pretty interesting, actually. A Crossharbour anapolis. It was right. That yeah, so after one year, all the kids got grown and they all got their own cars and I told my wife, what do we do with this big car? And we bought with the intention of, oh, you know, we're going to take trips with all three or five of us, as usual. And my oldest handing hand end up going away and living in the city. And he's no longer with us. So there's no need for a five car passenger. Not to mention the atlas was pretty huge. And my wife is tiny and. And even she was uncomfortable with that car because it was pretty big. I mean, I remember we bought we drove my son to Buffalo because he goes to the University of Buffalo and that car was huge. It's just big. So I thought trying to look, we love the Volkswagen one. We downsized to 81. It's it's iguana's sportier and more manageable, more within size. And she and she agreed. And we ended up getting a tip on.	Speaker 2	not-edited	Car Ownership	Nathalie
00:13:37.370	00:13:46.580	00:00:09.210	So you you own the Atlas and then you traded it in for a big one. Amazing. And how are you going with the table right now?	Speaker 1	not-edited
00:13:47.060	00:14:09.620	00:00:22.560	Oh, I love it. It's everything. It's it's wrapped up to be it's fortunately, it's actually bigger than the previous ones because the previous ones were smaller in size and they were not very attractive size wise. You couldn't put anything in the trunk. There was no trunk space whatsoever. And you take a perfect it's perfect size handles well. I have no complaints.	Speaker 2	not-edited	Car Ownership	Nathalie
00:14:11.270	00:14:17.749	00:00:06.479	So are we. Were you considering any other models or brands when you're downsizing from the Atlas	Speaker 1	not-edited
00:14:18.170	00:14:42.109	00:00:23.939	at the time when I know we were focused on those because we like we like the world's wagon, but yeah, we like the rolls. Right. And I mean and my wife basically will not touch another car. So so she goes and now I need to buy a car and because the car drive has got to be replaced. So I'm considering it. Condo.	Speaker 2	not-edited
00:14:43.320	00:14:49.019	00:00:05.699	Oh, yeah. OK, before we talk about that one, how did that Honda Odyssey get into the mix?	Speaker 1	not-edited
00:14:49.520	00:15:37.399	00:00:47.879	Oh, that was our first car. But we knew when the kids were young and bothered to try it's minivan. It's it's a million. And so that's three hundred thousand miles on it, by the way. I'm still driving it and I drive it because I can haul pretty much anything in it if I take the seats out. And I'm able to dump stuff, get sheetrock by sheetrock, I mean, I'm able to do a lot of stuff, hence why I drive it, but it's not. My car, it's not the car I want to drive. I want to go somewhere, you know, it just takes me a pointed point being I do things around the house and and for my business, I carry stuff out of my vehicle like the team wants to my wife.	Speaker 2	not-edited	Car Ownership	Nathalie
00:15:38.930	00:15:39.980	00:00:01.050	Got it so	Speaker 1	not-edited
00:15:41.180	00:15:45.639	00:00:04.459	that we can you know, we can call if we need to go somewhere, we're not going to get them anything, right?	Speaker 2	not-edited
00:15:46.220	00:15:53.719	00:00:07.499	Mm hmm. Mm hmm. So now that you're thinking of a car for yourself, what what are you looking at? What brands are you considering?	Speaker 1	not-edited
00:15:55.430	00:16:57.880	00:01:02.450	There lies the problem and there lies the challenge. I'm looking at everything. I am I'm looking at I tell you what I'm not looking for is a specific. Manufacturer or car company? Right now I'm looking at the conference and now we're down to more of the features I'm looking for. And it seems like pretty much everyone else's features, but performance is huge for me. Performance, comfort and looks. A key. I want I want to call it I'm going to be comfortable and I'm not the one to get rid of in a year or two, so it's going to be it's going to last me for a while. It has to be when it has to be able to perform at will like. Almost. Immediately, if I demand something, it responds and it's got to look.	Speaker 2	not-edited	Car Ownership	Nathalie	Car Ownership	Nathalie	Car Ownership	Nathalie
00:17:00.530	00:17:16.729	00:00:16.199	So it sounds like pretty clear, you know, what you want out of a car and you're almost starting from scratch to see what cars today are going to meet those needs of yours. Are there any top contenders right now?	Speaker 1	not-edited
00:17:21.190	00:18:11.410	00:00:50.220	I don't want to say money is not an issue, but I'm willing to pay for the formula for the future. I'm looking for. So for that reason, pretty much all the cars are. I want to drive. That's not a thing I want to drive them, I just want to like I want to be able to walk away and say I drove this car and I don't like X, Y and Z. I like this, but I don't like that. So I want to be able to say that to all the cars I plan to test drive. And the contenders are pretty much all of BMW, Mercedes, Lexus, you know, that's where I get an Audi, I'm willing to test all of them.	Speaker 2	not-edited
00:18:13.150	00:18:14.920	00:00:01.770	When do you think you're going to make a decision?	Speaker 1	not-edited
00:18:16.510	00:18:17.380	00:00:00.870	About six months.	Speaker 2	not-edited
00:18:18.190	00:18:18.799	00:00:00.609	Six months.	Speaker 1	not-edited	Holy shit!	Michael	Buying a Car	Michael
00:18:19.090	00:18:31.540	00:00:12.450	I'll start the process, by the way, towards the year end. That's when they have great deals, by the way. I know that. So I'll I'll I'll start the process and	Speaker 2	not-edited	Car Ownership	Nathalie
00:18:33.670	00:18:52.359	00:00:18.689	try to formulate this question in my head. Do do you think you'll make the decision and I'm asking you to predict the future, do you think you'll make the decision solely on specs? Are you doing like a pro con list or how much of your feelings about the car of the brand are going to be in the decision?	Speaker 1	not-edited
00:18:55.520	00:19:30.709	00:00:35.189	So one aspect of my decision is going to be based on do I want hybrid electric? That's another that's another consideration. So I'm going to also have to look into that as well, because it looks like the trend is going towards electric vehicles. So I want. I want to make sure that. If I if I'm if that trend is going to be replacing the current trend that I want to have that option available.	Speaker 2	not-edited
00:19:32.780	00:19:43.609	00:00:10.829	So that's interesting. You would go like you tell me more about your motivation for considering hybrid or electric electric. Like what's really driving it.	Speaker 1	not-edited
00:19:44.090	00:20:40.730	00:00:56.640	What's really driving is I know this the all the car companies, including the regulators, are such a moving towards electric cars, electric vehicles. So if that is a trend and they say buy in about five years, maybe 50 percent of cars on the road might be electric, then I don't want to buy a sold gas car and stuff and be stuck with it. If I'm ovei, if I'm if I'm getting a car, I want to I want to get a car that's going to be like I said earlier, it's going to last me. I'm I also totally aware that you're never going to be satisfied two or three years down the road. There's always going to be another car coming out, you know, and I want to be able to at least do what I did with the Atlas. I was able to appreciate it and get something I really want, you know.	Speaker 2	not-edited	Car Ownership	Nathalie	Buying a Car	Nathalie	Buying a Car	Nathalie
00:20:43.030	00:21:01.909	00:00:18.879	So as you're going through this. Did the country of manufacture, does that influence your opinions on the brand like German versus American versus Japanese versus Korean? Are there are there any perceptions you have about those those brands?	Speaker 1	not-edited
00:21:03.140	00:21:46.369	00:00:43.229	Well, the they seem to be pretty well right now, let's be honest, this is Japanese, right? This German and Tesla's American, right. So there's a lot there are a lot of car manufacturers that fall under those three, with the exception of the American. I would I would consider Tesla for the American car. And, you know, you probably said, but what about the fourth in the service and and GMC? I'm not saying they're. Based on my evaluations, they don't they don't compare well with the other ones I just mentioned.	Speaker 2	not-edited	Buying a Car	Nathalie
00:21:49.160	00:22:13.010	00:00:23.850	Now, let's say you land on like an Audi or a Lexus. Do you do you think the brand itself is important to you? Like, do you think like an Audi has a different perception than a Lexus as you as a customer, aren't there?	Speaker 1	not-edited
00:22:13.040	00:22:36.530	00:00:23.490	I think they're are. Actually, the short answer to your question is all those brands and I'll name them BMW, Audi, Mercedes, Tussler, they on the same level. So Brand ask me for brand differentiation. There wouldn't be any for me because I think they all equally leveled.	Speaker 2	not-edited	Buying a Car	Nathalie	VW Perception	Michael
00:22:38.340	00:22:54.119	00:00:15.779	I noticed that Volkswagen was not in that in that list is. OK, OK, got it, but there are in the same parent company, correct? Yeah. Would you consider Volkswagen? Audi is just like, synonymous?	Speaker 1	not-edited
00:22:55.410	00:22:55.859	00:00:00.449	Yes.	Speaker 2	not-edited
00:22:57.400	00:23:27.960	00:00:30.560	OK, let's see. I want to kind of go back to the cards that you have right now. You talked about your Honda Odyssey is just kind of being like a tool. It gets you from point A to point B and I go home like like I'm falling for you. So the take one for your wife, if you could predict what you would say. Is it more like a tool for her or is it maybe like a pet or is it like a friend?	Speaker 1	not-edited	Holy shit!	Michael
00:23:28.060	00:24:02.659	00:00:34.599	That was just my wife is just that's the car. I mean, if I'm if I'm hauling see, I drive the minivan because I could throw garbage in there for stuff that could scratch it up. It doesn't matter. I'm doing that. I'm not doing that to the T.. Well, I'm sorry. You know, I draw the line, but I'm the one that drives if we go places. Right. So that's the reason. I just want to make sure you understand that that's that's the reason I say, you know, I keep it if we going out, that's a that's a luxurious goal for us to go out.	Speaker 2	not-edited
00:24:04.550	00:24:14.559	00:00:10.009	So you like to take care of working on. Yes. Yeah. Is it do you have like a nickname for your Jinchuan. You have like a name for it.	Speaker 1	not-edited
00:24:15.590	00:24:22.599	00:00:07.009	Oh no, no. We don't go that with them as far as naming the car.	Speaker 2	not-edited
00:24:23.710	00:24:33.180	00:00:09.470	OK. And you talked about how driving is really important your in your life. Can you tell me a little more about that? Like, do you like to drive?	Speaker 1	not-edited
00:24:35.140	00:25:10.729	00:00:35.589	I prefer doing the driving and I think my wife would not disagree with me because you enjoyed being a passenger. I feel safer if I'm driving. I'm in control. I know I'm not going to be, you know, the backseat driver or. And comment on people driving, so which which I have a tendency to probably doing so I don't mind driving eight hours, I don't mind driving to work for a long time. I'm driving to Virginia, North Carolina. I don't I do not mind driving at all.	Speaker 2	not-edited
00:25:12.830	00:25:16.309	00:00:03.479	All right. Do you talk about your car with other people?	Speaker 1	not-edited
00:25:17.900	00:25:33.289	00:00:15.389	Oh, yeah, we talk about features, you know, lane assist and things like that. You know, we talk about how the car handles around cornering and stuff. Yeah, guys do that. I'm pretty sure we. Yeah.	Speaker 2	not-edited
00:25:34.190	00:25:43.880	00:00:09.690	All right. All right. And tell me tell me one more time. Like, why does it that you chose that the VW like why is it the VW part of your your lineup.	Speaker 1	not-edited
00:25:47.800	00:26:13.690	00:00:25.890	Well, one hour we have one I know, I know what to expect, so, I mean, I talk much about this because I seem to know the basic features of it and any improvements to it. I would I would know. I would find out. So if I didn't mention that, because I already have one, I know it, but I. When I decide to get one in your car, I'm definitely going to look at all my options, including now.	Speaker 2	not-edited	VW Owners	Michael
00:26:17.770	00:26:21.479	00:00:03.709	And your first was the Atlas. Did you have one before that?	Speaker 1	not-edited
00:26:22.500	00:26:24.509	00:00:02.009	No doubt this is my	Speaker 2	not-edited
00:26:25.620	00:26:30.799	00:00:05.179	first one, and you picked it really based on like features of the car,	Speaker 1	not-edited
00:26:31.170	00:27:02.369	00:00:31.199	I looked at cars that were equivalent to it, which is pretty ballsy because I picked it the first year it came out. So that pretty much tells you I did my research and thought and thought highly of the car because no one buys a car. The first the first model of a car, the first year, you know, so you have to you have to be very knowledgeable about the car itself and trust it enough to be able to do that.	Speaker 2	not-edited
00:27:04.640	00:27:18.710	00:00:14.070	It might be asking a lot, but do you remember like what like what did that feel like, if that's like a tall order to get the Atlas's the first year it was released? Like what? What was it about the car that really sealed the deal for you?	Speaker 1	not-edited
00:27:18.950	00:27:58.630	00:00:39.680	OK, I looked at all the other cars, the Hondas of the world and these songs and and they just and I even went to the Mercedes is just the size. And the way the car looked was very look firm. It looked like well built. And when that drug test drove it, it drove as expected. It felt like a car. Now the truck and. But the way if if I had to really pinpoint one thing that really struck me about that car immediately was the looks.	Speaker 2	not-edited	Buying a Car	Michael
00:28:00.880	00:28:06.520	00:00:05.640	Do you think that's the same for like all the all other purchases that you make in your life? Big and small.	Speaker 1	not-edited
00:28:08.270	00:28:26.839	00:00:18.569	I would say yes. I would look even I mean, it's not just looks along, but it's what else is is under the hood, what else is is being considered about the product, but looks definitely is on the list.	Speaker 2	not-edited
00:28:27.680	00:28:34.130	00:00:06.450	Got it. And what do you think your VW says about you to other people?	Speaker 1	not-edited
00:28:36.410	00:28:59.480	00:00:23.070	That's a pretty good question, because I thought about that before I bought it. I said, you know, as soon as I said, you know what? That car is definitely me. It's the way the grill looks, the way the front looks, it's it's it's attractive enough for me to say it's almost like a mirror image of who I am or who I project to be to people.	Speaker 2	not-edited	VW Owners	Nathalie	VW Owners	Nathalie	VW Perception	Michael
00:29:01.670	00:29:07.910	00:00:06.240	And can you can you like what is it about the girl, the girl looks like sleek or does it look authoritative,	Speaker 1	not-edited
00:29:09.110	00:29:26.660	00:00:17.550	not just sleek but impressive and not futuristic, but has that look of a well-built and stylish at the same time? I think the word I would use to describe it is very stylish.	Speaker 2	not-edited	VW Owners	Nathalie	VW Owners	Nathalie
00:29:27.740	00:29:36.220	00:00:08.480	What color is your take on white? Are you proud to drive your take one	Speaker 1	not-edited	VW Owners	Nathalie
00:29:36.670	00:29:37.200	00:00:00.530	of my one	Speaker 2	not-edited
00:29:37.960	00:29:39.430	00:00:01.470	proud, proud to drive it?	Speaker 1	not-edited
00:29:39.700	00:29:41.569	00:00:01.869	Oh, yeah, yeah, yeah,	Speaker 2	not-edited
00:29:41.800	00:29:44.710	00:00:02.910	yeah, yeah. How do you feel when you're driving it?	Speaker 1	not-edited	VW Owners	Nathalie
00:29:46.120	00:29:54.099	00:00:07.979	I feel it. It's it's completely it's it's part of it's become it's part of me. It's it's an extension of me.	Speaker 2	not-edited
00:29:55.860	00:30:01.800	00:00:05.940	And do you think all your cars that you've owned have been like that, or is there something special about your take on	Speaker 1	not-edited	VW Owners	Nathalie	Holy shit!	Michael
00:30:02.190	00:30:24.599	00:00:22.409	the day was different. It's the other ones just. At all, yeah, the was just to get you from point A to point B, on the other hand, is something like if you're pulling up to a wedding and you pulling up to a dinner, you know, it's you know, you step out of it well dressed. It's it's an extension of you.	Speaker 2	not-edited	VW Owners	Nathalie	VW Owners	Nathalie
00:30:27.420	00:30:37.829	00:00:10.409	I think it's interesting. You know, you take care of your car, you're still willing to take it on these, like, long road trips and like take it up into the mountains and drive like. Are you ever worried about your car?	Speaker 1	not-edited
00:30:39.060	00:31:10.380	00:00:31.320	Yeah, I'll be cleaning it. Aside from that, yeah. Yeah. I try to park away from people like I might do. Other people like to open the door and think, oh my God. So I don't mind walking an extra, you know. Twenty five. You park away from people. I mean I, I know that sounds silly. I apologize for that. But I, you know you have to protect what you have.	Speaker 2	not-edited	VW Owners	Nathalie
00:31:11.670	00:31:31.380	00:00:19.710	Yeah. And your take on it has like a special place in your heart it sounds like. Yeah. Yeah. You kind of touched upon this already, but I'll phrase the question anyway, can you think of a time when you're particularly proud to talk about your your VW or like to be driving your VW, your take on?	Speaker 1	not-edited	VW Owners	Nathalie
00:31:35.740	00:32:14.560	00:00:38.820	If I'm going to function a wedding or somewhere, where are family members or friends are also gathering, it's it makes a certain statement. When you step in when you pull up with my mom, it's again, it's a reflection of who I am. Again, we're well dressed. We step out of it. It's a country. It's really like you dress just like the cars, just just like you are, so to speak. It's so I would say that is that is the time I look at the car as a with admiration.	Speaker 2	not-edited	VW Perception	Michael	VW Owners	Nathalie
00:32:16.930	00:32:26.140	00:00:09.210	I you know, personally, I'm I guess the way you talk about your take on, I'm a little surprised now that you're getting another car, that you're starting from scratch.	Speaker 1	not-edited	VW Owners	Nathalie
00:32:27.490	00:32:33.549	00:00:06.059	What you mean by scratch, we mean like looking at other other countries. You call that scratch.	Speaker 2	not-edited
00:32:34.070	00:32:38.380	00:00:04.310	Yeah, maybe like your start, you're starting from like what you want and then you're like a Tesla.	Speaker 1	not-edited
00:32:38.530	00:33:44.950	00:01:06.420	You would you would have to because otherwise, you know, I mean, imagine if I just like, oh no, no, I'm just getting another team or perhaps another color per or even a single, which by the way, I've seen people do. But I think that you would kind of shortchange yourself if you didn't look at other manufacturers like them and say, you know what, I try others and they just don't do it for me and. I'll be honest with you, there are some that I just even though I. I name them like the Mercedes Benz doesn't do anything for me for some reason, I'm trying to convince myself that, you know what, bye. By maybe half the time I'm looking, I'll see one that, you know, really piqued my interest. But right now, I do not see that. And but but I do. I did put it in the. On my short list, persay, but that doesn't mean that I don't have concerns or mixed feelings about.	Speaker 2	not-edited	Buying a Car	Michael	VW Owners	Nathalie
00:33:47.800	00:33:59.079	00:00:11.279	So let's let's pause on the Mercedes Benz, like, why why do you you said you want it to do something, you're trying it out. You kind of what? Like why is it that you were trying so hard with the Mercedes Benz?	Speaker 1	not-edited
00:33:59.110	00:34:11.939	00:00:12.829	Because they had other models previously of previous years, I should say, that looked like they dropped the ball or you saw something on the. But that's that's basically what I'm saying.	Speaker 2	not-edited
00:34:12.760	00:34:22.829	00:00:10.069	Got it. OK, ok. OK. What's. And forgive me if I'm repeating myself, but what is your favorite thing about the brand, VW, Volkswagen?	Speaker 1	not-edited
00:34:30.429	00:35:02.409	00:00:31.980	Reliability or consistency that you're not going to regret? If you were to purchase one, that would drive one. That's and I'm saying that because I have one, I I've had no. In other words, if I had other cars that I had the same experience, maybe I'd feel differently, but right now I'm very content with them.	Speaker 2	not-edited	VW Perception	Michael	VW Perception	Nathalie
00:35:04.130	00:35:07.939	00:00:03.809	Are there any low points about the Volkswagen brand for you?	Speaker 1	not-edited	VW Perception	Nathalie
00:35:16.310	00:36:10.030	00:00:53.720	Well, you always you always have not low points, but as technology keeps evolving. Remember, that's my field. You can't simply want these technologies to be and implemented into your existing car when it's not necessarily possible. At the time it was built, there has, you know, what whatever technology was available at the time, but you keep wanting to add new things and new features that don't necessarily they might they might very well like add these new features in your newer models. If you're asking me right now, what do I wish my teeth when I bought, like a year or two ago with what would I like it to have in it? Of course, I want I'm going to say, oh, this technology.	Speaker 2	not-edited
00:36:11.980	00:36:27.339	00:00:15.359	OK, if you think about. Or maybe maybe I'll start with this question first. Do you think like a quintessential Volkswagen person exists in your mind? Like is there somebody you imagine in your head?	Speaker 1	not-edited
00:36:28.450	00:36:57.549	00:00:29.099	Yeah, I have a friend. That's what you buy goes where you are, in fact. In fact, I bought my my son from him for four months, so he's got a reality. Gwon you also have Trig so he is in love with. What was right and. So because I spent a lot of time with him, I kind of understand where he's coming from and.	Speaker 2	not-edited
00:37:00.830	00:37:04.219	00:00:03.389	Can you tell me a little bit about your friend, like what are his hobbies?	Speaker 1	not-edited
00:37:05.270	00:37:14.780	00:00:09.510	He actually has a flower business. He does wood floors, he's into cars. He used to be a mechanic. So that kind of helpful.	Speaker 2	not-edited
00:37:16.580	00:37:19.040	00:00:02.460	Do you think your. Oh, sorry to finish your thought.	Speaker 1	not-edited
00:37:19.230	00:37:25.739	00:00:06.509	He swears by those lines. In fact, to the point where he actually buys Volkswagen stocks,	Speaker 2	not-edited
00:37:26.640	00:37:40.639	00:00:13.999	oh, look, he's our super fan. If you can recall conversations you had with them, like what is it what is it about Volkswagen that he's just like he's always talking about, like why why Volkswagen for him,	Speaker 1	not-edited
00:37:41.970	00:38:14.869	00:00:32.899	he feels that Volkswagen will last a lifetime if you take care of it, requires minimal maintenance and very dependable. He said they're very easy to to work on the mechanics of replacing those parts and doing work on them is very simple. They require much, but he's not shy. He said they never they never break down for some reason, they said they aren't they don't break down.	Speaker 2	not-edited
00:38:16.920	00:38:19.800	00:00:02.880	Do you think you're a quintessential person?	Speaker 1	not-edited
00:38:21.480	00:38:31.130	00:00:09.650	I'm not there yet. You know, the the floor is still open, you know, but so far I'm convinced.	Speaker 2	not-edited	VW Perception	Michael	VW Perception	Nathalie
00:38:32.010	00:38:39.130	00:00:07.120	All right. What is the first time you. Can remember hearing about Volkswagen.	Speaker 1	not-edited
00:38:42.180	00:39:21.340	00:00:39.160	Oh, that was a bug. The Volkswagen Bug. That. It was kind of. The because the engine was in the wrong place, at the wrong place, but it was the truck. It was kind of interesting and I think that's how they do that. Yes. And that always came in my head in German engineering. And so that car was so dependable and. Never break down. As you know, I was a kid back then, but I still remember that.	Speaker 2	not-edited	VW Perception	Nathalie
00:39:22.540	00:39:30.969	00:00:08.429	Do you think you feel the same or differently about Volkswagen from that moment when you learned about the Beetle?	Speaker 1	not-edited
00:39:32.430	00:39:59.669	00:00:27.239	No, because it never. It can't keep improving and it never the thought of. And that was it kept, Wolf, I kept evolving and it never fail, never went down like American Motors, you know, they disappear Pontiacs for that matter, you know, to disappear. No, it was always consistent and making it bigger and better cause and and always competitive.	Speaker 2	not-edited	VW Perception	Nathalie
00:40:01.980	00:40:07.869	00:00:05.889	Well, you said bigger and better cars. Like what? What does that mean? Is it always the incise that always means on the	Speaker 1	not-edited
00:40:08.520	00:40:14.749	00:00:06.229	outside being back on the sense that, yep, improving on the existing technology and then performance scores?	Speaker 2	not-edited
00:40:18.150	00:40:26.439	00:00:08.289	Do you think you're part of a Volkswagen community and directly. What do you mean by that,	Speaker 1	not-edited
00:40:28.240	00:41:06.650	00:00:38.410	right, by default? We are, you know, whether I like it or not, just now that you mention it. Oh my God, I got to know. Right. I mean, you can say that, like, I didn't even I wasn't intentional. I don't even know it's why not go buy another Pursat? I mean, why why not go out and buy another way? Why not buy something else? I mean, I could be the Honda, Nissan, you know, afford anything, but I bought those red. So indirectly, I think I am I'm becoming a, you know, part of own community without realizing it. Uh.	Speaker 2	not-edited	VW Perception	Nathalie
00:41:08.030	00:41:13.670	00:00:05.640	Do you think that driving a Volkswagen means you're part of a larger movement?	Speaker 1	not-edited
00:41:16.760	00:42:09.960	00:00:53.200	When you say movement, I would I take movies looking at the environment, OK, we can care the environment and making sure that it's not polluting the air and doing it's doing more than just, you know, so it would. To me, if they had made claims about how they better how the atmosphere and the communion, what have you, I guess I would say that I have not heard that. And they were working on something they really should want to really voice and and put out there, because it is particularly now that everyone's actually looking at these things now, whether a company is doing it for the community and not just making a profit.	Speaker 2	not-edited	VW Perception	Nathalie
00:42:14.600	00:42:29.729	00:00:15.129	So that's a question that I also wanted to ask was if we think about sustainability in cars like like what does that mean to you? And is it. Is it like a big part of your life or what you're thinking about?	Speaker 1	not-edited
00:42:30.690	00:42:45.599	00:00:14.909	Well, I want to be able to say I'm driving something that's not just for the environment. You know, that's that actually takes care of the environment. Hence why I would look at a hybrid car or something that we're not going to pollute or contribute to pollution.	Speaker 2	not-edited
00:42:47.090	00:42:53.979	00:00:06.889	Yeah, and so you said right now you don't you're not aware of any Volkswagen cars that are electric.	Speaker 1	not-edited
00:42:55.190	00:43:12.260	00:00:17.070	I know I've seen it before. I've seen a commercial. I like a commercial, like for you to sneak the car out. And the guy was like before I used to not have control of it. See, when she takes the car out. Well, you know, it's kind of.	Speaker 2	not-edited
00:43:14.490	00:43:46.440	00:00:31.950	Got it. OK. All right, last section of our of our of our session together. I'm just going to ask you some different phrases and some words and just tell me what your first opinion of it is. And like your first perceptions, like I said, no, no, right or wrong answer. If I were to say you deserve something. What? How does that make you feel? What do you what do you think about that?	Speaker 1	not-edited
00:43:49.480	00:44:01.320	00:00:11.840	Ah, that makes me feel like I think you're right on point, because as high as I work, as much energy I put into what I do to be to be where I'm at, I deserve. Oh, yeah.	Speaker 2	not-edited
00:44:02.400	00:44:07.619	00:00:05.219	Yeah, OK, so you think it's like it's tied to the amount of effort you're putting into your life,	Speaker 1	not-edited
00:44:07.950	00:44:08.869	00:00:00.919	your whole life?	Speaker 2	not-edited
00:44:09.060	00:44:16.610	00:00:07.550	Yes, absolutely. OK. If I say better car, what does that what does that mean to	Speaker 1	not-edited
00:44:17.920	00:44:55.820	00:00:37.900	better car to mean? Has it maybe. I mean, has I if I were if I were to say that or if someone were to say that to me, a better car would mean that the car is doing something better than what it used to do or what its intent or what normally does. Better, better in the sense that performance wise, the way performance performance and also the carbon footprint. And. You get more out of that car. That, you know.	Speaker 2	not-edited	Stimuli	Nathalie	Stimuli	Nathalie
00:44:57.890	00:45:06.019	00:00:08.129	OK, OK, if somebody said to everyone deserves a better car, what do you think?	Speaker 1	not-edited	Stimuli	Nathalie	Holy shit!	Michael
00:45:07.310	00:45:30.010	00:00:22.700	That's great. Everyone deserves a better car. That is not one polluting the environment and or a gas guzzler. I think that's that's where I think. Everyone that I know complains about, you know, having to pay at the pump. As a number one complaint.	Speaker 2	not-edited	Stimuli	Nathalie	Stimuli	Nathalie
00:45:32.720	00:45:38.820	00:00:06.100	Do you think that everyone deserves a better car, has an association with Volkswagen in your mind?	Speaker 1	not-edited	Stimuli	Nathalie
00:45:40.120	00:45:54.570	00:00:14.450	Not necessarily Volkswagen, but the light like a Volkswagen cost similar that pretty much does the same thing that was Reagan. It does. I don't think it's brand. It's being agnostic.	Speaker 2	not-edited
00:45:56.250	00:45:59.400	00:00:03.150	You so you think everyone deserves a better car, could be for anybody.	Speaker 1	not-edited	Stimuli	Nathalie
00:46:00.450	00:46:02.999	00:00:02.549	I think that's that's a blanket statement that would be made.	Speaker 2	not-edited	Stimuli	Nathalie
00:46:05.550	00:46:10.650	00:00:05.100	And what if somebody said to you, you deserve a better car? How would that make you feel?	Speaker 1	not-edited	Holy shit!	Michael
00:46:10.840	00:46:19.880	00:00:09.040	Well, that's true. I deserve better than that. The Honda Odyssey, you know, I'm driving. That's for sure.	Speaker 2	not-edited	Stimuli	Nathalie
00:46:22.130	00:46:33.469	00:00:11.339	Tom, do you think it's true? OK, what if I said. Bigger, bigger than yourself. What does that make you think of?	Speaker 1	not-edited	Stimuli	Nathalie	Stimuli	Nathalie
00:46:36.420	00:46:54.550	00:00:18.130	Bigger than myself. Again, I go back to the car being more than just a vehicle to drive. It does, it does it contributes less carbon footprint than. That's something more than just, you know, driving the.	Speaker 2	not-edited	Stimuli	Nathalie
00:46:58.510	00:47:07.189	00:00:08.679	Now, I'm going to change gears a little bit. The car that you're looking at now for yourself, it's not an SUV, it's your you're getting a sedan. You're thinking of a sedan.	Speaker 1	not-edited	Stimuli	Nathalie
00:47:08.290	00:47:22.539	00:00:14.249	Not necessarily. Now, I want I want something on the ground. If I go to the beach, if I go the mountains, if I'm driving in and rough roads, I want to be a little elevated. I yeah, I think it's almost screams SUV.	Speaker 2	not-edited
00:47:23.580	00:47:36.929	00:00:13.349	Oh, OK, I misunderstood apologies. So as to be all right. I actually think we got through all of our questions pretty quick. Any questions that you have for me?	Speaker 1	not-edited	Buying a Car	Nathalie	Buying a Car	Michael
00:47:38.640	00:48:03.500	00:00:24.860	Yeah. So. What is the what do you look for and like if someone is looking for a car, how does I know you don't work for Volkswagen, but what is the goal? What is their intent on attracting someone like myself to look at that car? Were they were they were they proposing to offer?	Speaker 2	not-edited
00:48:05.740	00:48:37.920	00:00:32.180	Oh, boy, that is a really good question. I think there can be a lot of different answers, depending on, you know, making the car, innovating the car, the technology in the car. Making sure that it's made in a way that fits your life. Those are those are some answers that I have of the top of my head. But like I said, I don't I don't work for Volkswagen. They want you to be happy and confident in your car for sure.	Speaker 1	not-edited
00:48:40.000	00:50:29.170	00:01:49.170	All right, because I've seen commercials I've seen in. The commercials lack one thing they talk about. So the commercials and just I don't mean to step on any one of those here now as a consumer, when I watch something, these are what I'd like to see. The commercials, for example, the the guy was that went to Vegas and that his accountant kept telling me, what do you know? What are you doing? He's like, OK, I was real good. Good. At least on these sensible. Right. OK, you will. But they did not. I think they need to really stress some of the features of the car as opposed to, oh, it's a sports model of the T one type of thing. You know, it's designed that they need to say more about. And it's OK to just list them out, hey, guess what, I could do this, I could do that with this car, I could do this. And believe it or not, those little statements mean the world to someone that's listening, because sometimes when they're looking for other features and other car manufacturers, those are some of the things that they want to hear. And if it rains often, then maybe not always. That's great. I know that like the iPhone, like the like the mom embrace the light ambiance in the car to let the sun sleep in the back. You know, things like this. Those are the types of features people want to know about. And there are so many more that they could be sharing to a commercial. Don't be shy. Don't don't lose sight. How how valuable and how important these little features and stating them are. Because people that's what people remember.	Speaker 2	not-edited	Holy shit!	Nathalie	Holy shit!	Nathalie	Holy shit!	Nathalie	Holy shit!	Nathalie	Holy shit!	Nathalie
00:50:30.750	00:50:47.770	00:00:17.020	Now, I'm really glad that you brought this up. Look, let's let's talk about this for a little bit longer. So when you say features, the one example you gave was like the ambient lighting. Can you think of other features, like maybe if you made your own commercial for the big one, like what are some of the.	Speaker 1	not-edited
00:50:48.180	00:52:02.090	00:01:13.910	Absolutely one that all the car companies or electric car companies are struggling with, which is range? Range is huge. This is the first thing everyone looks at the range, and I think I think that's a maybe winning that that that fight, because they've been in there like a nine year jump. But there's no reason why. You're you can't just say, hey, you know, we offer and you could say in such a way where, hey, you know what with, what, 400 or 400 mile range, you know, you could go from here to stay, you know, from New York to say something like that and say, hey, you could go from New York to Virginia and or Pennsylvania and back, you know, say something like that. I mean, obviously, you put a little like disclaimer on the bottom and say, depending on your driving habits. True. But believe it or not, those things mean a lot because if the car if when you go. When you go to a dealership and find out the car, he gives you 200 miles range on a full charge. Oh, really? This is you know, this is such a hardware, you know.	Speaker 2	not-edited	Holy shit!	Nathalie	Holy shit!	Nathalie
00:52:04.510	00:52:15.309	00:00:10.799	So it sounds like you have some VW ads or commercials that you've seen in your head. Can you can you recall some of those? Like what do you remember saying?	Speaker 1	not-edited
00:52:15.700	00:52:30.609	00:00:14.909	Well, I just recall that the I for one, the. Yeah. And the one about the people, the sport, the sporty guy going to Vegas and merging. And until his accountant found out it was where I. Oh, OK.	Speaker 2	not-edited	Holy shit!	Nathalie
00:52:30.610	00:52:40.670	00:00:10.060	At least of this year I got the. Got it. So they seemed memorable, though, to those two commercials,	Speaker 1	not-edited
00:52:42.140	00:52:55.010	00:00:12.870	because there are. They're memorable because they wanted him hit home and also make sense, and what I'm saying is they need to share more about yeah, so just looks.	Speaker 2	not-edited
00:52:55.720	00:53:05.429	00:00:09.709	Yeah, OK. Yeah. So kind of like maybe like the Las Vegas quirky humor thing caught your attention, but you also wanted to back up with facts	Speaker 1	not-edited
00:53:05.960	00:53:06.170	00:00:00.210	that	Speaker 2	not-edited
00:53:07.010	00:53:20.989	00:00:13.979	got it. Actually, one last question that I'm thinking about this car buying process that you're going through, this research, is this fun for you? Do you enjoy like doing all this work? Finding the car	Speaker 1	not-edited	Buying a Car	Michael
00:53:21.290	00:53:49.810	00:00:28.520	is fun, comparing features between car companies. It is from. Yeah, it comes out also price, you know, based on the features, because we have to compare apples with apples, you know, you can't you have to stay within that range of features that you want. And that's that's the challenging part because as you add, features the prices of Lestrange.	Speaker 2	not-edited
00:53:51.180	00:53:55.799	00:00:04.619	Do you think Volkswagen stacks up like apples to apples with other cars?	Speaker 1	not-edited
00:54:00.150	00:54:37.159	00:00:37.009	Yes, it does with where I find a little difficulty in challenging is when you when you look at Volkswagen and Audi. Because they also have a more similar cause. But are you know, the price difference is really price, that's the challenging part, and I think they need to I don't know how to really address that, you know, like BMW didn't have doesn't have another type of car and Mercedes doesn't have, like, another car. You know, I mean, so it's out in those wagon. Have that.	Speaker 2	not-edited
00:54:40.980	00:54:53.290	00:00:12.310	Well, listen, this is really this has been a lot of fun. I've learned a lot and I really appreciate your time. If there's anything else that you want to ask me, I can. We can end a few minutes early.	Speaker 1	not-edited
00:54:54.250	00:54:59.500	00:00:05.250	Oh. Now that you cover that pretty much hot and.	Speaker 2	not-edited
00:54:59.850	00:55:06.670	00:00:06.820	Yeah, yeah, this was fun. Thank you so much, Rudy. I hope you have a great rest of your evening and take care	Speaker 1	not-edited
00:55:07.220	00:55:08.200	00:00:00.980	of you tonight. Thank you.	Speaker 2	not-edited
00:55:08.830	00:55:09.239	00:00:00.409	Bye bye.	Speaker 1	not-edited