[
  {
    "id": "model_6_5",
    "topics": [
      {
        "name": "vw-hippie-frisco-texas-brand",
        "tags": ["vw", "hippie", "frisco", "texas", "brand"],
        "topic_num": 0
      },
      {
        "name": "deserve-thank-sleep-deserves-care",
        "tags": ["deserve", "thank", "sleep", "deserves", "care"],
        "topic_num": 3
      },
      {
        "name": "community-family-neighborhood-school-home",
        "tags": ["community", "family", "neighborhood", "school", "home"],
        "topic_num": 4
      },
      {
        "name": "volkswagen-beetle-mercedes-german-bug",
        "tags": ["volkswagen", "beetle", "mercedes", "german", "bug"],
        "topic_num": 9
      },
      {
        "name": "deserve-car-want-ferrari-brands",
        "tags": ["deserve", "car", "want", "ferrari", "brands"],
        "topic_num": 10
      },
      {
        "name": "beautiful-clean-kind-love-cozy",
        "tags": ["beautiful", "clean", "kind", "love", "cozy"],
        "topic_num": 11
      }
    ]
  },
  {
    "id": "model_8_5",
    "topics": [
      {
        "name": "vw-hippie-frisco-cabriolet-texas",
        "tags": ["vw", "hippie", "frisco", "cabriolet", "texas"],
        "topic_num": 0
      },
      {
        "name": "volkswagen-german-cars-american-beetle",
        "tags": ["volkswagen", "german", "cars", "american", "beetle"],
        "topic_num": 1
      },
      {
        "name": "audi-porsche-honda-bmw-toyota",
        "tags": ["audi", "porsche", "honda", "bmw", "toyota"],
        "topic_num": 2
      },
      {
        "name": "sustainability-cars-environmental-horse-hybrid",
        "tags": ["sustainability", "cars", "environmental", "horse", "hybrid"],
        "topic_num": 3
      },
      {
        "name": "deserve-thank-important-deserves-care",
        "tags": ["deserve", "thank", "important", "deserves", "care"],
        "topic_num": 6
      },
      {
        "name": "community-school-family-neighborhood-home",
        "tags": ["community", "school", "family", "neighborhood", "home"],
        "topic_num": 7
      },
      {
        "name": "driving-drive-love-drives-mind",
        "tags": ["driving", "drive", "love", "drives", "mind"],
        "topic_num": 9
      },
      {
        "name": "deserve-cars-car-ferrari-brands",
        "tags": ["deserve", "cars", "car", "ferrari", "brands"],
        "topic_num": 10
      }
    ]
  },
  {
    "id": "model_8_10",
    "topics": [
      {
        "name": "sustainability-environment-cars-horse-environmental-electric-hybrid-sell-planet-gasoline",
        "tags": [
          "sustainability",
          "environment",
          "cars",
          "horse",
          "environmental",
          "electric",
          "hybrid",
          "sell",
          "planet",
          "gasoline"
        ],
        "topic_num": 0
      },
      {
        "name": "deserve-thank-good-sleep-important-hope-deserves-work-care-great",
        "tags": [
          "deserve",
          "thank",
          "good",
          "sleep",
          "important",
          "hope",
          "deserves",
          "work",
          "care",
          "great"
        ],
        "topic_num": 2
      },
      {
        "name": "community-love-neighborhood-school-family-live-our-awesome-together-jersey",
        "tags": [
          "community",
          "love",
          "neighborhood",
          "school",
          "family",
          "live",
          "our",
          "awesome",
          "together",
          "jersey"
        ],
        "topic_num": 3
      },
      {
        "name": "atlas-warranty-space-trunk-price-bought-buy-yukon-denali-mercedes",
        "tags": [
          "atlas",
          "warranty",
          "space",
          "trunk",
          "price",
          "bought",
          "buy",
          "yukon",
          "denali",
          "mercedes"
        ],
        "topic_num": 4
      },
      {
        "name": "volkswagen-brand-german-american-engineering-cars-never-other-beetle-mercedes",
        "tags": [
          "volkswagen",
          "brand",
          "german",
          "american",
          "engineering",
          "cars",
          "never",
          "other",
          "beetle",
          "mercedes"
        ],
        "topic_num": 5
      },
      {
        "name": "audi-porsche-honda-lexus-hyundai-never-cars-toyota-bmw-wood",
        "tags": [
          "audi",
          "porsche",
          "honda",
          "lexus",
          "hyundai",
          "never",
          "cars",
          "toyota",
          "bmw",
          "wood"
        ],
        "topic_num": 6
      },
      {
        "name": "vw-hippie-frisco-sporty-cabriolet-theyre-texas-people-echelon-sophistication",
        "tags": [
          "vw",
          "hippie",
          "frisco",
          "sporty",
          "cabriolet",
          "theyre",
          "texas",
          "people",
          "echelon",
          "sophistication"
        ],
        "topic_num": 7
      },
      {
        "name": "deserves-everyone-deserve-ferrari-car-earn-cars-everybody-why-brands",
        "tags": [
          "deserves",
          "everyone",
          "deserve",
          "ferrari",
          "car",
          "earn",
          "cars",
          "everybody",
          "why",
          "brands"
        ],
        "topic_num": 11
      }
    ]
  },
  {
    "id": "model_10_5",
    "topics": [
      {
        "name": "deserve-thank-sleep-deserves-care",
        "tags": ["deserve", "thank", "sleep", "deserves", "care"],
        "topic_num": 0
      },
      {
        "name": "community-neighborhood-school-family-together",
        "tags": ["community", "neighborhood", "school", "family", "together"],
        "topic_num": 1
      },
      {
        "name": "hippie-frisco-cabriolet-texas-convertible",
        "tags": ["hippie", "frisco", "cabriolet", "texas", "convertible"],
        "topic_num": 2
      },
      {
        "name": "atlas-warranty-bought-buy-mercedes",
        "tags": ["atlas", "warranty", "bought", "buy", "mercedes"],
        "topic_num": 3
      },
      {
        "name": "audi-honda-toyota-cars-bmw",
        "tags": ["audi", "honda", "toyota", "cars", "bmw"],
        "topic_num": 4
      },
      {
        "name": "volkswagen-german-cars-beetle-mercedes",
        "tags": ["volkswagen", "german", "cars", "beetle", "mercedes"],
        "topic_num": 5
      },
      {
        "name": "tesla-volvo-cars-porsche-havent",
        "tags": ["tesla", "volvo", "cars", "porsche", "havent"],
        "topic_num": 6
      },
      {
        "name": "sustainability-cars-environmental-horse-hybrid",
        "tags": ["sustainability", "cars", "environmental", "horse", "hybrid"],
        "topic_num": 7
      },
      {
        "name": "purchases-purchase-spend-buyer-buying",
        "tags": ["purchases", "purchase", "spend", "buyer", "buying"],
        "topic_num": 8
      },
      {
        "name": "better-driving-drive-car-cars",
        "tags": ["better", "driving", "drive", "car", "cars"],
        "topic_num": 9
      }
    ]
  },
  {
    "id": "model_10_10",
    "topics": [
      {
        "name": "vw-hippie-frisco-cabriolet-theyre-brand-texas-people-sophistication-ill",
        "tags": [
          "vw",
          "hippie",
          "frisco",
          "cabriolet",
          "theyre",
          "brand",
          "texas",
          "people",
          "sophistication",
          "ill"
        ],
        "topic_num": 0
      },
      {
        "name": "community-love-neighborhood-school-family-our-kids-awesome-home-together",
        "tags": [
          "community",
          "love",
          "neighborhood",
          "school",
          "family",
          "our",
          "kids",
          "awesome",
          "home",
          "together"
        ],
        "topic_num": 1
      },
      {
        "name": "purchases-purchase-spend-costco-depends-item-buyer-railroad-buying-pick",
        "tags": [
          "purchases",
          "purchase",
          "spend",
          "costco",
          "depends",
          "item",
          "buyer",
          "railroad",
          "buying",
          "pick"
        ],
        "topic_num": 2
      },
      {
        "name": "deserve-thank-good-sleep-important-hope-deserves-everyone-care-great",
        "tags": [
          "deserve",
          "thank",
          "good",
          "sleep",
          "important",
          "hope",
          "deserves",
          "everyone",
          "care",
          "great"
        ],
        "topic_num": 3
      },
      {
        "name": "tesla-electric-manufacturers-vehicles-volvo-vehicle-future-porsche-havent-isnt",
        "tags": [
          "tesla",
          "electric",
          "manufacturers",
          "vehicles",
          "volvo",
          "vehicle",
          "future",
          "porsche",
          "havent",
          "isnt"
        ],
        "topic_num": 4
      },
      {
        "name": "sustainability-environment-cars-horse-environmental-electric-hybrid-sell-planet-gasoline",
        "tags": [
          "sustainability",
          "environment",
          "cars",
          "horse",
          "environmental",
          "electric",
          "hybrid",
          "sell",
          "planet",
          "gasoline"
        ],
        "topic_num": 5
      },
      {
        "name": "volkswagen-brand-german-cars-never-american-engineering-other-beetle-theyre",
        "tags": [
          "volkswagen",
          "brand",
          "german",
          "cars",
          "never",
          "american",
          "engineering",
          "other",
          "beetle",
          "theyre"
        ],
        "topic_num": 7
      },
      {
        "name": "atlas-big-warranty-space-trunk-price-bought-buy-denali-yukon",
        "tags": [
          "atlas",
          "big",
          "warranty",
          "space",
          "trunk",
          "price",
          "bought",
          "buy",
          "denali",
          "yukon"
        ],
        "topic_num": 8
      },
      {
        "name": "driving-drive-beautiful-mind-love-interesting-kind-cozy-enjoy-thousand",
        "tags": [
          "driving",
          "drive",
          "beautiful",
          "mind",
          "love",
          "interesting",
          "kind",
          "cozy",
          "enjoy",
          "thousand"
        ],
        "topic_num": 9
      },
      {
        "name": "better-deserves-everyone-deserve-ferrari-earn-car-brands-yourself-class",
        "tags": [
          "better",
          "deserves",
          "everyone",
          "deserve",
          "ferrari",
          "earn",
          "car",
          "brands",
          "yourself",
          "class"
        ],
        "topic_num": 10
      }
    ]
  }
]
