In,Out,Duration,Text,Speaker,Status
00:00:00.500,00:00:09.710,00:00:09.210,"Very good. Awesome. So just for the record of you, just tell me your name, your age or occupation where you live.",Speaker 1,not-edited
00:00:10.520,00:00:21.620,00:00:11.100,"Yes, my name is David Siebold. I'm thirty four. I live in Austin, Texas. Currently, I am a lot of things, but I guess the main one, the systems engineer for a consulting firm.",Speaker 2,not-edited
00:00:22.370,00:00:23.960,00:00:01.590,Very cool. How long you been doing that for?,Speaker 1,not-edited
00:00:27.170,00:00:34.370,00:00:07.200,"February, huh, interesting time to transition to that, I work for Apple for ten years before that, so very cool.",Speaker 2,not-edited
00:00:35.630,00:00:38.149,00:00:02.519,And so can you describe what your household looks like?,Speaker 1,not-edited
00:00:39.020,00:00:47.179,00:00:08.159,"Sure. It from what for? From what capacity, buddy? Oh, no, just me.",Speaker 2,not-edited
00:00:48.230,00:00:49.399,00:00:01.169,Any any pets,Speaker 1,not-edited
00:00:50.540,00:00:51.490,00:00:00.950,I want to plants.,Speaker 2,not-edited
00:00:52.640,00:01:03.020,00:00:10.380,"Those are living things too. Yes, very good. And just so I can get a sense of what you're kind of like, your activities and hobbies are like. Like what? What do you do on a typical weekend?",Speaker 1,not-edited
00:01:05.090,00:01:13.489,00:00:08.399,"I do, I train, I'm an aerial artist and circus performer as well. I listen to records.",Speaker 2,not-edited
00:01:16.540,00:01:17.650,00:00:01.110,"I cook, yeah.",Unidentified,not-edited
00:01:18.580,00:01:22.300,00:00:03.720,"Yeah, has that changed at all since the pandemic started?",Speaker 1,not-edited
00:01:24.240,00:01:46.310,00:00:22.070,"I cook, I mean, I went to culinary school, so I cook just as much. I still enjoy it just as much. But I had to buy an aerial rig for outside my house because I can't know the gyms are open anymore. So that certainly changed, but. That's about it. I work remotely, so I get to hang out at home with the music all day, not a bit, not a bad deal.",Speaker 2,not-edited
00:01:47.440,00:01:49.719,00:00:02.279,So were you working remotely before the pandemic?,Speaker 1,not-edited
00:01:50.230,00:01:56.050,00:00:05.820,"No, I was an Apple technician, so I was never home. It's not like. Yeah.",Speaker 2,not-edited
00:01:57.150,00:02:25.110,00:00:27.960,"All right, so, yeah, a lot of the questions that I'm going to ask today might be like comparing life post pandemic, like pre pandemic. Just just so we're clear, there's no right or wrong answer. I don't work for Cho, so, like, you could just be as honest as you want. And if any of these questions don't make sense, just let me know. OK, so shopping and this is like shopping in general. How is that been like since the pandemic started?",Speaker 1,not-edited
00:02:28.210,00:03:18.199,00:00:49.989,"I. Don't do a lot of. Shopping other than groceries and food, and I've always enjoyed that go multiple times a week even still, I've always gone during the very, very early morning or very, very late. So there's not many people there. And barring the change of available open times for those places is that I still do that I. Not much change there, I guess, for that kind of shopping, but for other. Does that include online shopping and just like stuff, I guess? Yeah, I mean, that's still the same. I still have to buy more records than I should showing up every week in the mail and. Yeah, I'd say save",Speaker 2,not-edited
00:03:19.070,00:03:26.240,00:00:07.170,"a lot of a lot of the same, so it hasn't changed too much. Yeah, that's the same with groceries. You're just kind of going at those off hours.",Speaker 1,not-edited
00:03:28.130,00:03:33.480,00:00:05.350,Yeah. Same amount. Same same stuff I'm buying. Nothing changes.,Speaker 2,not-edited
00:03:34.280,00:03:38.659,00:00:04.379,Have you been trying like online groceries since,Speaker 1,not-edited
00:03:39.830,00:04:10.719,00:00:30.889,"I did once I signed up for Insta Cart and it was prohibitively expensive and prohibitively. But it was it's expensive. And I mean, I love going shopping and seeing what's there and trying new things. And so there was no magic to me. No enjoyment is mainly convenience based, because here in Austin, at least there was a link. It was pretty rough when people started to hoard things. So it's. But did it a few times, but I prefer to go myself.",Speaker 2,not-edited
00:04:13.100,00:04:19.279,00:00:06.179,"Can you describe to me the last time you went grocery shopping, like what did that look like? How did you plan for it?",Speaker 1,not-edited
00:04:21.560,00:04:42.529,00:00:20.969,"That was a little bit different. I got back from Colorado, so I had to go get my essentials four for breakfast and everything. So it was 7:00 in the morning. It was very cold. On Monday, I had bundled up and went into the grocery store with nobody there. It was beautiful. And I got all the things I needed",Speaker 2,not-edited
00:04:44.390,00:04:49.490,00:00:05.100,"and the usual stuff. Were you like, did you have, like, your hitlist or something?",Speaker 1,not-edited
00:04:49.490,00:05:22.940,00:00:33.450,"Now, that was kind of just back from a trip restocking of perishable things. Yeah, I sometimes in this may come up eventually, but there's a a shopping app called Ibota and you get like promotions and coupons for buying new things. And usually it's a bunch of stuff that I don't care about. But there are some new products and it's buy one, get one free. And I'm like, sure, I'll try it. I mean everybody it again but. And at the gamification of shopping for groceries is.",Speaker 2,not-edited
00:05:26.050,00:05:26.949,00:00:00.899,"Now, it's like fun,",Speaker 1,not-edited
00:05:27.610,00:05:31.059,00:00:03.449,"it's weird, but, I mean, I get money back, so",Speaker 2,not-edited
00:05:32.040,00:05:41.110,00:00:09.070,"so maybe that's an interesting app. I haven't heard of it. What, so it's convinced you to try new things? Well, it looks like some of the things that you've tried because of that app,",Speaker 1,not-edited
00:05:42.370,00:06:32.700,00:00:50.330,"it seems to me as the consumer, is that it's larger companies that have a. I don't know, more handcrafted type product that they're putting out there and this is the way that they're doing it for a promotion, it seems. I'm trying to think of one of the most recent ones. They'll have zany names as well. There's like a pip corn, I guess, is like a it's like a snack food type thing that I normally wouldn't try, but I think they a buy one, get one free. And then Sprouts also had a promotion. So I was like, I'm almost getting paid to try this, so. Stuff like that, and nothing that really stuck, obviously. So it's not really working for them, I guess.",Speaker 2,not-edited
00:06:34.770,00:06:40.079,00:00:05.309,So that's interesting. What was you shop at Sprout's or what other places do you usually go get your groceries?,Speaker 1,not-edited
00:06:41.370,00:06:47.710,00:00:06.340,"Trader Joe's, Whole Foods. And then there's a co-op here called Whitesville, where I go most frequently for for for produce.",Speaker 2,not-edited
00:06:48.480,00:06:55.050,00:00:06.570,Got it. So so you go to Waitstill for produce. Like what are some of the reasons why you might go to the different stores?,Speaker 1,not-edited
00:06:55.560,00:07:32.970,00:00:37.410,"Um. Trader Joe's has some frozen berries and frozen greens that have been buying for a few years, and it's with my cost analysis of how many bags of frozen berries I go through. They are still have the best deal. They haven't changed their price in 10 years. Sprouts is kind of just a convenience. Due to location, I stop in there and then Wholefoods as if I had to go by. I don't like fish or something that I wanted to. Treat myself and get like a nicer quality product.",Speaker 2,not-edited
00:07:33.840,00:07:45.689,00:00:11.849,"All right. All right. So you've mentioned twice now like there's like the Ibota app. And then you did a cost analysis, like how much does price and value weigh? And you're like your grocery shopping habits",Speaker 1,not-edited
00:07:47.730,00:08:37.589,00:00:49.859,"for most of what I buy and consume is is is just like produce veggies. But if I'm buying like a yes, I like to call a product like Trader Joe's Frozen or any frozen berry, I guess it's usually something I buy frequently, like for instance. I mean, that's that's a very unique example because I buy four bags a week and I have for 10 years. So when it comes something like that, cost analysis is pretty was pretty important to me and quality factored in there as well. The balance that I always try to be cognizant of that because. I don't know, I care about what's going into my body and I care about how much I'm spending on it",Speaker 2,not-edited
00:08:38.940,00:08:40.759,00:00:01.819,makes sense to important factors.,Speaker 1,not-edited
00:08:41.159,00:08:42.389,00:00:01.230,"Yes, to some.",Speaker 2,not-edited
00:08:45.150,00:09:02.520,00:00:17.370,"So I want to ask some quick questions about brands and companies that you purchase from, and it doesn't have to be just about food. It can be just like anything in your life, clothes, hair products or whatever. What are some of your favorite brands are the ones that you go to a lot nowadays.",Speaker 1,not-edited
00:09:04.310,00:10:28.889,00:01:24.579,"Mm. That's a tough one. I tend to not totally subscribe with all. Of that, um. I guess I just looking in my pantry, bare naked, I guess the granola. Yeah, they have eaten a lot of granola for years and used that for my breakfast. And so I have. A large double digit number of bags that I have. If I'm not buying fresh almond butter, the Maranatha. But Jahed Nut Butter Company. Clothes, I don't really have any sort of. It's like tied to any of them, I buy I of Volcom clothes just because I can buy them online. I know how they fit consistently. Cohon, I guess, would be another close brand that's just like consistent, easy, simple. I can get for a good price. Uh. Yeah, I think that's it's pretty general smattering,",Speaker 2,not-edited
00:10:32.820,00:10:39.799,00:00:06.979,can you think of any brands that maybe you stop shopping with or you stop being a customer of recently or like.,Speaker 1,not-edited
00:10:53.870,00:10:55.969,00:00:02.099,I can't think of one in particular offhand.,Speaker 2,not-edited
00:10:56.510,00:11:05.870,00:00:09.360,"OK, yeah, and so you like bare naked, you like the granola, there's a lot of granola out there like why do you like being naked specifically",Speaker 1,not-edited
00:11:06.890,00:11:30.510,00:00:23.620,"cost cost analysis. It's OK. Again, it's really specific products that I buy a lot of it. And so I had to figure out what was worth it for what goes into it, because I made granola myself for a long time. But the amount of time that it took and was actually quite expensive. But if you're that big of a company, then you can make a lower cost product, so that one we come me in that regard.",Speaker 2,not-edited
00:11:31.650,00:11:41.820,00:00:10.170,So I'm going to ask you a hypothetical question. You have two granola bars. They taste about the same. They cost about the same. What would be the next reason why you would like you would make a decision?,Speaker 1,not-edited
00:11:43.500,00:12:06.539,00:00:23.039,"Um. If they're that close, maybe. I guess just the branding like online. Presentation, packaging. General just motif, I guess, of the the branding company.",Speaker 2,not-edited
00:12:07.400,00:12:16.259,00:00:08.859,"Yeah, cool. And last question about brands, I promise, is, are there any brands out there that you think are problematic and you kind of stay away from.",Speaker 1,not-edited
00:12:18.310,00:12:59.480,00:00:41.170,"Oh, probably a lot of them, I have probably too strong opinions on things like that. Uh. Yeah, I mean, for for a lot of things going on the grocery path, is that. There are the large, like Procter and Gamble that has everything under its umbrella, so. I don't know, I was a very blanket statement, but I try to support a person more than an entity. It's impossible nowadays, but, you know, I have to try.",Speaker 2,not-edited
00:13:01.630,00:13:09.440,00:00:07.810,"Of course, yeah, now I get it. I do the same thing. So it's like Procter Gamble is like it's too big and, like, almost amorphous.",Speaker 1,not-edited
00:13:09.980,00:13:34.520,00:00:24.540,"Yeah. It's just I feel like there's very little human quality to that. Like, there's I don't feel cared for. Not that like when I'm buying cutups, I need to be cared for but cared for the people that are buying the product. Like if you go to the farmer's market. Right. And you get to talk to the person, the old lady made the pickles and you're like, those are going to be pretty good pickles. I know there's like a disconnect.",Speaker 2,not-edited
00:13:35.560,00:13:46.799,00:00:11.239,"It's called Yeah, yeah, but you're kind of answering my next question is like maybe what is it about, like knowing that you're buying from one person that is drawing you to them?",Speaker 1,not-edited
00:13:49.500,00:14:25.519,00:00:36.019,"And it's probably the same reason why I like making and selling food products is it's just it's a way to connect. I probably would draw a connection to that with with the record industry now, with websites like Bandcamp, where you're buying it directly from the artist and it feels like a you're supporting them directly, which is good, but it just feels more authentic. The experience that you have a in purchasing it and B is consuming it would apply to music as well. And I know it's. I feel like brands should have more fun with their customers.",Speaker 2,not-edited
00:14:27.210,00:14:30.509,00:00:03.299,Do you think that there's like a brand out there that is having fun with their customers?,Speaker 1,not-edited
00:14:32.610,00:15:20.019,00:00:47.409,"On the large mass media scale, I know on Twitter there, like fast food brands that have like weekly quips and they talk to each other and that is engaging and that helps some people. And that's a good step in the right direction. I mean, a lot of it might just be. Puppetry anyway, right, because it's still a brand and that's not really genuine, but I mean local, I guess, since it's sort of a chill interview, they're local. There's a local chocolatier here who has chocolate events where you go and he like shows you how to do be in the bar and these these type of things. And I guess that is where I find a lot of value. But obviously in a large corporation, it's difficult to to do that",Speaker 2,not-edited
00:15:21.310,00:15:32.470,00:00:11.160,"or I get it. So my next set of questions, I'm going to start with like a pretty broad question. What is your relationship to food and eating?",Speaker 1,not-edited
00:15:36.260,00:15:56.529,00:00:20.269,"I think it's very important it has brought cultures and humans together for many, many, many, many years. It's how we survive and it's also how we can take care of ourselves. So I put a. And in high regard, food, eating and all of the above.",Speaker 2,not-edited
00:15:58.850,00:16:11.179,00:00:12.329,"So would you say, like the first role that food plays? Is it about connection? Is it about sustenance? Is it about culture? For you and your everyday life,",Speaker 1,not-edited
00:16:11.540,00:16:31.590,00:00:20.050,"that's a tough one, um. I'm going to probably be a jerk and say it's it's a healthy tie because, yeah, I think I think they all have equal importance. I couldn't prioritize one.",Speaker 2,not-edited
00:16:32.580,00:16:40.049,00:00:07.469,"OK, and so you graduated from culinary school? I don't know this one graduate from culinary school or you completed culinary school.",Speaker 1,not-edited
00:16:40.890,00:16:43.749,00:00:02.859,"And the one that I went to, you don't really graduate. You just regret.",Speaker 2,not-edited
00:16:46.170,00:16:49.379,00:00:03.209,Can I ask what brought you to that decision?,Speaker 1,not-edited
00:16:50.760,00:17:44.310,00:00:53.550,"The time that I was going, it was at least in my purview that health was becoming more for food as medicine, I guess in particular was becoming more prominent than I wanted to be. A part of that and the school said that they could help, which any for profit school would. Shocking. Yeah, but I still want to do that. And at this point, it's. My passion for food is medicine has grown into food as history as well in using heritage ingredients that have been around for a very long time that people forgot about, don't know about like the like Mesquite, for instance, being from Arizona and Texas, currently utilizing that in baked goods or whatever it may be.",Speaker 2,not-edited
00:17:45.960,00:17:56.209,00:00:10.249,Let's really enjoy. I like that concept of like the heritage of our food. Are there other examples like in addition to the skite that kind of help explain this idea?,Speaker 1,not-edited
00:17:58.540,00:18:56.439,00:00:57.899,"Well, you can take it the other direction from. Just locality to, I guess. Factor in Health is the book the third plate discusses wheat and how wheat has been around and been native to the Americas for a very long time. And if you compare the root systems of a native wheat where maidenly, they would have like 15, 10 foot root systems. And now the commercialized wheat is six inches maybe, and it's just cleared every year. And there's no longevity, I mean, for the soil in general to get into different topic. But it's and it's the commoditization of food. Hmm. Has. Drawn people away, I kind of lost what your exact question was, but that is another example.",Speaker 2,not-edited
00:18:56.740,00:19:07.690,00:00:10.950,"We thank you. So you still cook now or are you eating out? Are you, like, doing taken? Like, what does that mix look like nowadays?",Speaker 1,not-edited
00:19:09.760,00:20:00.000,00:00:50.240,"Sometimes it's convenient space, just depending on the day. And there are a few local places that it's just easy to get food from. Are not not to us, and there are few places here that are that are open and that are another new factor to think about with with restaurants and food and businesses. Are they? Irrespective of the times that we're in and are they adapting and there are some that are taking it very seriously and taking their patrons health very seriously, and that's another thing to to think about when supporting someone is being like, well, they're doing a really good job. I'm happy to go there. So there are like some breweries as well that do that type of thing. You're.",Speaker 2,not-edited
00:20:01.810,00:20:07.729,00:00:05.919,"Were you eating out and doing takeout more like before the pandemic, or is it kind of similar nowadays?",Speaker 1,not-edited
00:20:08.170,00:20:23.040,00:00:14.870,"Yeah, I mean, like once a week maybe. And if that was that was beforehand as well. Just because I am I get some like. People distress in many different ways. One of mine is to to cook. I just enjoy the process.",Speaker 2,not-edited
00:20:24.590,00:20:31.489,00:00:06.899,"And when you do go and dine out, is it what's the occasion like? What's your biggest motivation to do that?",Speaker 1,not-edited
00:20:31.990,00:21:21.500,00:00:49.510,"Uh. In Arizona, it was to support a lot of friends in the food industry, and so that was a big one just to the social. Supporting friends here. Similar, there are smaller businesses that are just trying new things and maybe they have a new menu item, maybe there's a collaboration with a different chef from a local restaurant. I guess the a good reason would be. What's the term now, famo fear of missing out, so if they're doing something they're like just for tonight only and never again the desire to to go try that item, whatever it may be.",Speaker 2,not-edited
00:21:23.010,00:21:25.139,00:00:02.129,That must be really nice to have a lot of friends in the industry.,Speaker 1,not-edited
00:21:26.580,00:21:28.049,00:00:01.469,I miss Arizona. Yeah.,Speaker 2,not-edited
00:21:33.020,00:21:38.299,00:00:05.279,"So talk me through your kitchen, what does your does your kitchen look like right now? What kind of equipment do you have?",Speaker 1,not-edited
00:21:39.220,00:22:24.609,00:00:45.389,"Um. That's a good question. I mean, I have the normal items, I guess. Blender, toaster oven, those kind of things, but as far as. Tools that I have, my most prized possession that's used every day multiple times as a truffle shaver, but for garlic I go through a lot of garlic and it's easy to just go through to a clove. And I last season harvested. I think 30, 30 heads of garlic that I planted from the harvest the prior year or so.",Speaker 2,not-edited
00:22:25.600,00:22:26.730,00:00:01.130,You're doing your own garlic.,Speaker 1,not-edited
00:22:27.190,00:22:46.390,00:00:19.200,"Oh, yes, amazing. I got a lot of things, but garlic is the one that I'm like treat myself because it's it stays good for so long. Other tools I make mead. So I have a bunch of gear for that coffee stuff, cold brew stuff.",Speaker 2,not-edited
00:22:48.540,00:22:52.009,00:00:03.469,Did you say you make your own meat mead made.,Speaker 1,not-edited
00:22:52.840,00:23:09.819,00:00:16.979,"Yes. That is a common conversational occurrence. I had to call grocery stores, try to find one particular need one time and that was challenging because of that constant need. Yes.",Speaker 2,not-edited
00:23:10.510,00:23:12.339,00:00:01.829,How long have you been making need for?,Speaker 1,not-edited
00:23:13.760,00:23:16.610,00:00:02.850,"Five years, four years now.",Speaker 2,not-edited
00:23:16.820,00:23:17.609,00:00:00.789,What do you like about it?,Speaker 1,not-edited
00:23:19.760,00:24:17.569,00:00:57.809,"To go onto the path of the history of food as I value honey very, very high for the historical purpose and also the fact that it never goes back. But I think that the coffee, tea, chocolate as well, which kind of why I got into show in the first place, the natural terroir of those items comes through with honey as well. So I think 60 different types of honeys from all around the world. And I like to take people on honey tours and show them what different flowers and nectars, how that impacts the flavor. And so bringing that into honey and alcohol and then. There's a more social aspect to that, and there is fear just like here, try my honey. Yeah, and also the historical portion of that, I think that's probably the one with no way to know for sure, but the earliest known ethanol based and toxicant meat",Speaker 2,not-edited
00:24:18.260,00:24:19.720,00:00:01.460,I am learning so much.,Speaker 1,not-edited
00:24:21.220,00:24:22.589,00:00:01.369,World is the world is fun.,Speaker 2,not-edited
00:24:24.500,00:24:30.930,00:00:06.430,"So I actually meant to ask this a bit earlier. Are there any, like, dietary restrictions or observances that you follow?",Speaker 1,not-edited
00:24:32.540,00:25:12.559,00:00:40.019,"No. No, I just like to eat. Helpfully, I guess, Michael Pollan. I don't know if he coined the term, but author Recchia, which is like the desire to eat good and healthy. I'd say I have some of that, but not to the point where it's crippling, where I can't go out and be social. And but if people go somewhere, I can find something to eat. But I don't eat fast food and I apply the same thing. I like to like someone should have cared when they made my food. I a simple, simple way about it,",Speaker 2,not-edited
00:25:13.820,00:25:28.220,00:00:14.400,"yeah, it's not so not too much to ask, you know, what was the what was the last thing you made in your kitchen? Can you, like, kind of walk me through, like, how you decided what to cook, how you got the ingredients?",Speaker 1,not-edited
00:25:29.470,00:26:18.960,00:00:49.490,"For when I cook for myself for like the week or for multiple meals, I do I'm fairly utilitarian where I take an item and make it go a long way, but also try to make it exciting. So I'll enjoy it. But I made a. Muja Dhara Rizzotto. Ingredients. Nothing special, just two different types of lentils, Arborio rice, lots of garlic for my garden, naturally local onion and then spices from. Fresh spices, all ground. I got those at Pansy's. Yeah, and Lemann's and. Greek yogurt, so.",Speaker 2,not-edited
00:26:20.240,00:26:24.240,00:00:04.000,"I was going to ask how you made it exciting, but you talked about all the different things you did and",Speaker 1,not-edited
00:26:24.810,00:26:40.809,00:00:15.999,"yeah, and also I don't think I don't know if those those cultures come together, the the Rizzotto portion of DHARA, but. It's also takes a lot longer shift to sit there and keep stirring it for a very long time and introducing the broth, but yeah, I enjoyed it",Speaker 2,not-edited
00:26:41.440,00:26:44.559,00:00:03.119,so that the first time you made that or have you been working on that recipe,Speaker 1,not-edited
00:26:44.860,00:27:09.279,00:00:24.419,"and working on it? Because the the timing of that, to cook them all at once, depending on the type of lentils. I wouldn't say it is complicated, but it wasn't straightforward. You can't just be like, oh, it's ten minutes. Let's do this. You can have the baby. But again, since I enjoy it and it's. Relieve the stress reliever for me to cook because that I'm always happy to spend more time in the kitchen.",Speaker 2,not-edited
00:27:13.680,00:27:22.589,00:00:08.909,"Now, when you first came up with that meal, did you come from that? Were you inspired by a recipe or did you come like was it organic, something that you made up?",Speaker 1,not-edited
00:27:24.270,00:27:35.950,00:00:11.680,"That particular one, I think was just by happenstance because I don't think I had any other sort of race besides. Arborio seems like, you know what, I bet this would work.",Speaker 2,not-edited
00:27:39.580,00:27:43.839,00:00:04.259,"Are you do you look at recipes online, like how do you get inspired to try something new?",Speaker 1,not-edited
00:27:44.530,00:28:33.519,00:00:48.989,"Um, I do a lot of the times I end up combining them or I just use them as kind of a guide. The joke with most of the recipe websites nowadays that you have to go through the person's story before you even find the recipe. So I'm just like that much time. But the the techniques. I definitely look up and I have much of like books and also the the chefs that are popular nowadays, at least in my world. I feel are doing a lot of good and they are pushing the. Like history and culture and family and. Exciting portions of food. So I have like their cookbooks and utilize those.",Speaker 2,not-edited
00:28:34.350,00:28:37.020,00:00:02.670,"What's what's an example of one of these chefs,",Speaker 1,not-edited
00:28:38.010,00:28:45.910,00:00:07.900,"Rene Redzepi from from Noma? He does a lot of fermentation stuff, and that's that's my world.",Speaker 2,not-edited
00:28:46.870,00:29:07.280,00:00:20.410,"All right, I'm learning how to make kimchi. Yeah, it's very. All right, last question and kind of like this section here is what, across dining, out, cooking, whatever. What are some of the top three eating memories that you have and why?",Speaker 1,not-edited
00:29:09.360,00:30:38.609,00:01:29.249,"Um. I think any time it's. I, uh. I think they all have to do with the same concept of the like the SOMO, like that was the only time that will happen. There are some farm to table restaurants in Arizona that just do tasting menus, so 200 bucks, 10 courses and those items, those dishes may never come around again. Yeah, I think it's more memorable to me when that meal was an event, not necessarily in the the reason for why that meal existed, like someone's birthday or whatever it may be. But the actual presentation of the meal was the event or omakase. If I go to like a nice sushi restaurant and then whatever they have that's there, they make and I didn't get to choose it. And I think that's. Letting someone else decide. What you are about to enjoy, I think, is the most memorable, just like because of made because I like to cook so much, I just like I can sit back and relax and be like, you do all the work. OK. I think that was the most memorable ones.",Speaker 2,not-edited
00:30:41.150,00:30:50.390,00:00:09.240,"Go OK, chocolate with now on the topic of chocolate to talk to me about your relationship to chocolate.",Speaker 1,not-edited
00:30:55.350,00:32:24.880,00:01:29.530,"With me learning about wine initially at school, Terry was just learning about how where it's from and how it's made can influence the flavor. I think it was two thousand. Nine to 10, I forget how it happened online, but Cho was actually the one that introduced me to that. Type of world with chocolate. They were doing beta testing back then and these little little brown bags and they would ship it to Arizona with a bunch a bunch of ice packs so it wouldn't melt too much. And then I would respond and tell them what I thought about that particular flavor. I think that was when they were launching like Wired magazine or something, whenever I heard about it at the time. And then it grew to tea. I started to work in the tea industry in the same thing. And so. With chocolate, is that deeper and deeper than chocolate became, I guess it's called third wave chocolate, just like coffee became more popular and people started. That's I carrying more, but Hubo seems like publicizing more where it's from and what the story is the farmer and making sure that the farmer got taken care of. Yeah.",Speaker 2,not-edited
00:32:27.420,00:32:37.920,00:00:10.500,"And so you it's you said in your survey that you're still eating chocolate, like on a weekly basis. How do you shop for chocolate now?",Speaker 1,not-edited
00:32:43.620,00:34:03.140,00:01:19.520,"There's a place here called Central Market, which is similar to and Arizona is I guess is the closest thing, but it's a. I guess you could consider to the higher tier grocery store and they do a very good job with even with Honey and the other types of things that I enjoy with chocolates, they have a very, very large selection of. Kraft chocolate, I would guess, say I don't actually think they have chill there, but they do have. 50 different brands, like it's a very large selection, so sometimes I see what's new if I haven't heard of it before, if it's on sale. I mean, a dollar off whatever may be off of the 15 dollars that it is the packaging. Yeah, and I do look at some companies online that do like very, very limited shipping and. That kind of product, which makes sense, because if it's from a very small farmer, how can you have it? How can you stock stores all around the world with a. Yes, I'm don't to answer your question",Speaker 2,not-edited
00:34:04.070,00:34:12.739,00:00:08.669,"very much so, yes, OK, before I want to ask a couple of follow ups, is the limited edition chocolates? Do you know what that company is called?",Speaker 1,not-edited
00:34:14.090,00:34:28.370,00:00:14.280,"There are a few S.A.C. and I never had to say the word before. If I can find out. Askhat Ashkenazy,",Speaker 2,not-edited
00:34:29.120,00:34:31.369,00:00:02.249,"yeah, I think I know how it's spelled.",Speaker 1,not-edited
00:34:31.699,00:35:00.400,00:00:28.701,"Yeah, that's a weird word. Yeah. Yeah, they're one of them. There's a local company called Seriously Chocolate Espresso, so. There are a few that I have seen that have done those like I have a goat's milk, white chocolate from that Ashkenazy, and it was all the the bags were made by monks and there's like four hundred and twenty seven and they're numbered.",Speaker 2,not-edited
00:35:01.520,00:35:01.940,00:00:00.420,Wow.,Speaker 1,not-edited
00:35:01.950,00:35:06.449,00:00:04.499,"That's really nerdy, but I enjoy it.",Speaker 2,not-edited
00:35:07.510,00:35:26.219,00:00:18.709,"Sounds very cool. So you gave me like this really clear image of like that shelf. It's like 50 different chocolates. And you talked about price and then what's on like some new stuff. So when you're talking about, like, packaging, like what? What's drawing your eye? What do you like? What turns you off?",Speaker 1,not-edited
00:35:30.400,00:36:52.400,00:01:22.000,"There's the I can't what's called. There's a very cartoony to me type grand with the colors and the fonts that are used. I can't even remember the name. I guess they're their marketing isn't that good. But that kind of stuff I tend to stay away from for whatever reason. I can actually grab one real quick. This is one of the ones I got most recently. It's called. Mucho chocolate, and they were all singular colors. They were all different colors, depending on the type. They all have their like awards that they won for that particular type. And it has a pretty detailed information in the back of where it's from. There is another one that actually had very ornate packaging, very crisp and clean and on the back had a map of that where the particular farm was and gave a little more information about the farmers themselves. So I guess. Information like the very small amount of information you can get. Obviously, we went to the website, you can read so much about the product, but the fact of. I think it's important to include that on the packaging as nice.",Speaker 2,not-edited
00:36:53.500,00:36:58.829,00:00:05.329,Would it be like a requirement to have that type of information on packaging for you?,Speaker 1,not-edited
00:37:01.930,00:37:04.870,00:00:02.940,I'd be much more inclined to to purchase it if it did.,Speaker 2,not-edited
00:37:06.880,00:37:15.570,00:00:08.690,You mentioned earlier on that sometimes you look at chocolate brands online. Like what? What are the times that you do that that you check out their website?,Speaker 1,not-edited
00:37:16.560,00:37:48.479,00:00:31.919,"Oh. I'm trying to think I guess if I. If I have an inkling when I'm online doing whatever I'm like, I should buy some chocolate, should treat myself in order some instead of just getting like one bar and to see if someone is doing a special promotion or special limited edition, whatever it may be. It's just kind of random. When I think about it,",Speaker 2,not-edited
00:37:49.060,00:37:56.110,00:00:07.050,"it's usually like going to brands that you know about and ordering from them, or is there times where you're like trying to discover new chocolate online?",Speaker 1,not-edited
00:37:56.570,00:38:35.510,00:00:38.940,"Oh, yeah, I'm always looking. I just don't know what I'm looking for. I forget how I found the. I can I can see whatever that was and there was another one, I probably at some point. When I wanted to to order something and get a big batch of whatever it may be just to to try it out, I think I looked up like. Best craft chocolatiers kind of thing, and like did did my little dig and research and found ones that I liked out of whatever that list may have been.",Speaker 2,not-edited
00:38:37.880,00:38:42.929,00:00:05.049,Yeah. What percentage would you say you buy at the store and then online?,Speaker 1,not-edited
00:38:46.440,00:38:47.369,00:00:00.929,"By volume,",Speaker 2,not-edited
00:38:49.680,00:38:52.050,00:00:02.370,"let's talk to my boss,",Speaker 1,not-edited
00:38:53.370,00:39:26.109,00:00:32.739,"usually if I buy online, I'm going to buy a good amount just because shipping isn't cheap, because obviously they have to ship it quickly and at a good temperature at the store, it's mean at the store. I'll get like one bar every few weeks, every month, depending on how much I enjoy it or how much I have from the online order. Bedsits. Pretty split, but I'm spending obviously more at one time with an online order.",Speaker 2,not-edited
00:39:27.940,00:39:36.079,00:00:08.139,"Would you say that you're buying a lot of the same brands of chocolate or are you or is like you're like, what's your strategy? What's your taste in?",Speaker 1,not-edited
00:39:39.010,00:40:36.070,00:00:57.060,"Or. Sometimes I guess I would purchase the same brand. The the local brands, I usually do just again support them, I've met them in person, so to me, I feel there's more value in that. But other times I like this one. This is the only one I've had from from that company. And if I go back and. I wouldn't. Necessarily need to try one of their other ones. But I'd be happy to just depending on what else I find, so I always like to try new things, I guess would be the best way I could give an answer. But if I enjoyed it enough, I appreciate the packaging and the love that went into it, then I'd be happy to buy it again.",Speaker 2,not-edited
00:40:37.430,00:40:45.289,00:00:07.859,"And are you when you're buying chocolate, is it all just for enjoying, like just like straight or are you baking with it? Cooking with a.",Speaker 1,not-edited
00:40:47.190,00:41:23.270,00:00:36.080,"I'd say 95 percent of the time, it's just to enjoy straight and really bake too much, but I do spice and every once in a while, just in case, I do make some sort of dish with chocolate, but similar to the honey and coffee, as I like to taste exactly what the product is without any sort of I appreciate the the food item. For what it is, and I want to focus on it, I guess. Mostly just pass the.",Speaker 2,not-edited
00:41:24.380,00:41:40.999,00:00:16.619,"So you talk about how you go back to local brands because you know the people behind it, what are there other reasons why you might come back to a chocolate brand? Is it Tarar? I don't think I'm saying that right. Is it the flavor? Is it like the mouthfeel.",Speaker 1,not-edited
00:41:42.620,00:42:37.659,00:00:55.039,"All all of the factors plus local, it's also availability, so if I am, let's say, not at Central Market, the place that has all those bars, and I do go to Wheatfield, the local co-op, they're going to have one of the local places. And so that's that's a big one. There are. I think the only place that has to go, I think Whole Foods does a of sprouts does. But they just have like the flavored ones, because I'm sure that's what sells best at sprouts. So I think availability would be the answer to the question, but also. Limited versions are a little bit easier to get if it's local, because you can get it directly from them at Farmer's Market, whatever it may be.",Speaker 2,not-edited
00:42:40.240,00:42:54.159,00:00:13.919,"Yeah, so I want to ask again, maybe ask you to expand on why is it so important for you to know where the chocolate came from and like the stories about the farmers,",Speaker 1,not-edited
00:42:59.030,00:44:23.550,00:01:24.520,"the part for me. To two positions, the first one is just the continuation of the continuation of the appreciating the food and the history and what the item is and what it takes to make that particular good, in this case, chocolate, because it's not just a simple process, like with my garlic where I harvest it and then I've got it. There's a lot of people that are involved in that. So it's nice to know that. Which is the second part, it's nice to know that the. Someone's being taken care of for their work because a lot I mean, still at this point, I'm sure, sadly, is that a lot of farmers are just being taken advantage of because of the climate that they have on their land, which has been utilized before and. The in the chocolate world, specifically, the. It's it's been nice to see that some of the companies have cared that much to to a talk about their farmers, but obviously be to pay them a fair wage so they can survive and actually thrive in some cases. So there's a there's a humanitarian portion of that. That, to me is important to know. That that person's being taken care of.",Speaker 2,not-edited
00:44:27.690,00:44:51.079,00:00:23.389,"So if all things another hypothetical, if all things were created equal and you saw different chocolates that showed you were the the chocolates coming from and the farmers are being taken care of with there, would there be something a brand could do above and beyond to show that they have? A sense of care about the industry",Speaker 1,not-edited
00:44:56.210,00:44:57.440,00:00:01.230,with the product itself,Speaker 2,not-edited
00:45:00.410,00:45:06.130,00:00:05.720,doesn't have to just be about the product. Maybe just different initiatives that they do.,Speaker 1,not-edited
00:45:16.720,00:46:04.059,00:00:47.339,"Yeah, I mean, if there were in that situation, if there was. I guess more press on whatever the the initiative is for that one particular company for it, then if they are the same. I guess marketing would be a big factor there. Not with just the bar itself, but online. I. I think focusing on. The product of or. Again, like one particular flavor or one ingredient that's special. I would kind of be something that would sway me in one direction or the other.",Speaker 2,not-edited
00:46:06.140,00:46:10.940,00:00:04.800,"So you said that you're in the beta program, how did you join that in the first place?",Speaker 1,not-edited
00:46:12.080,00:46:48.309,00:00:36.229,"I don't know that I am anymore. I don't know if they still do that. And if they do, I should look back into that. But that was. I was an I.T. manager at a civil engineering firm, and I just. SAT around all day being very bored, and I think it was must have been Wired magazine or Boing Boing or one of the websites I used to visit back then, I'm sure there was just like a way to sign up. And I and I did. And I loved it. I think that was, you know, 2009 or 2010. So when they were just starting to to build.",Speaker 2,not-edited
00:46:50.230,00:46:54.190,00:00:03.960,And how are you are you. When's the last time you had Joe?,Speaker 1,not-edited
00:47:00.200,00:47:33.179,00:00:32.979,"I think that two months ago, um. I still have some of the I forget what it's called, the sign maker, serious when they do something unique and special. One of them was a. They were moccia. Chocolate. So those are the limited ones that I don't find in stores here. Those are the ones I still try to to purchase because the ones that I do find in stores are just not ones that I particularly enjoy.",Speaker 2,not-edited
00:47:34.200,00:47:37.230,00:00:03.030,What are the ones that you see in the stores that aren't your thing?,Speaker 1,not-edited
00:47:38.520,00:48:01.510,00:00:22.990,"The like cookies and cream and salted caramel, just like chocolate bar varieties, I guess is what I would say. It's less like a. And it's like a truck, it's more of a chocolate product than like a. I don't know how to word it, but it's not it's not natural.",Speaker 2,not-edited
00:48:02.300,00:48:03.969,00:00:01.669,"Yeah, it's kind of like candy.",Speaker 1,not-edited
00:48:04.770,00:48:06.179,00:00:01.409,"Yeah, got",Speaker 2,not-edited
00:48:06.180,00:48:14.519,00:00:08.339,"it. All right. Sweet. Too sweet. So are you more into, like, dark chocolates or do you mess around with milk and",Speaker 1,not-edited
00:48:15.120,00:48:39.570,00:00:24.450,"usually dark chocolate? I think actually from show they did that very, very small batch of something like ninety, ninety six percent. Ninety seven percent or something really. Like how about this. And I was like, I like it. So, yeah, I think you get to taste more of the and the terroir like. You can taste where that's from, the taste like the dirt that came from.",Speaker 2,not-edited
00:48:41.170,00:48:44.659,00:00:03.489,"Fascinating. I thought I like dark, but 90 is too much for me.",Speaker 1,not-edited
00:48:45.120,00:48:52.679,00:00:07.559,"It's not something I definitely gravitate towards. Like most of it's 70, 80 some around there, the healthy range.",Speaker 2,not-edited
00:48:54.450,00:49:04.150,00:00:09.700,"All right, what this is good, the pop quiz, what do you think the word chill means? There is a culture.",Speaker 1,not-edited
00:49:07.950,00:49:09.660,00:00:01.710,I don't remember.,Speaker 2,not-edited
00:49:13.970,00:49:41.690,00:00:27.720,"I don't remember. That's the that's fine, you still get you still get the gift card at the end of this. Oh, all right. So done with chocolate in the last I think we have like a few minutes left. I'm going to, like, totally change topics overall. You've talked a lot about like what's good to you, like what's quality means. Can I just ask you to try to articulate that for me one more time. Like what is quality to.",Speaker 1,not-edited
00:49:44.190,00:51:01.949,00:01:17.759,"In food products. Sure. Something that. Hits on a few different subjects, I guess healthy. Could be one, even a chocolate. Care that someone hopefully everyone along the process of making that particular item cared and had some sort of pride, I guess, about making it, presenting in whatever may be. I guess I used the word. Genuine. Or. Non flavored, I guess, and in regards to like the like the flavor candy bars, something that you can just focus on, whatever that one particular item is in this case, chocolate or tea? Coffee. Wine, honey. The head of Health, Paschen. I guess those are the main ones. Health passion.",Speaker 2,not-edited
00:51:03.140,00:51:16.769,00:00:13.629,"Oh, I like that. And all right, so that's do you think any of the brands, maybe a chocolate otherwise, just like whatever you can think of, like they really nail that for you, the definition of quality.",Speaker 1,not-edited
00:51:32.430,00:53:00.610,00:01:28.180,"Yes, I'm sure there are more than I can even. Name, but I mean, a lot of them are. Smaller local companies like hot chocolate, like local coffee or other local roasters, those type of things from a like product standpoint. Yes, we'll take bare naked, for example, in the back of my mind to know that there a very, very large company and I'm sure they haven't checked into a bunch of they're owned by another larger company at this point. See, I don't I don't. Yes, but I'll add the word value into my previous list that sounded good, the healthy pride, passion value, because if I bought a local. And some of that makes granola, I guess some of that makes granola, if I bought a local person that did that, I'd probably be spending, what, 10 times the price for how much that I that I go through. So, yeah, it's a balance, yes, there are there are brands that fit that check all the boxes.",Speaker 2,not-edited
00:53:02.260,00:53:22.959,00:00:20.699,"OK, just a couple more, I promise. So in a post pandemic worlds, it's different. It's much harder to be connected with people and to have to travel. How and what ways has the pandemic affected your life in those than your ability to connect and and explore?",Speaker 1,not-edited
00:53:28.400,00:54:33.590,00:01:05.190,"I was in a touring band for a very long time, and so I made a lot of friends all across the country and have used technology to to keep in touch with them for. Before well before the pandemic, but now that we have zom. Yeah, just online, I still talk to the same people, I don't see them as much, potentially less troubling. Yeah, I think I probably keep in touch even more now because. People are losing their jobs, people are concerned for their health and. It is a and I feel like the world is. Besides just the pandemic, I feel like there's a large. Break that's being pumped a little bit, which is good, and people are kind of looking around being like when things are not good right now. So I feel like taking that connecting is. We're reconnecting to connecting as as a as a people.",Speaker 2,not-edited
00:54:34.280,00:54:38.449,00:00:04.169,So that sounds like maybe one of the good things that has come out of this.,Speaker 1,not-edited
00:54:39.260,00:54:42.079,00:00:02.819,Yes. The very silver lining.,Speaker 2,not-edited
00:54:43.970,00:54:50.479,00:00:06.509,"Are there any ways that you're feeling that sense of like, let's say, exploration or adventure differently now?",Speaker 1,not-edited
00:54:55.900,00:56:14.159,00:01:18.259,"I guess so I've always I mean, I one of my taglines that I do when I make food posts on some of my things is travel with taste or travel with your tongue. That's towards literally you're tasting what the environment smells or tastes like. So with honey, I do those type of things. And even with with music, I am a bottom on eBay. Made a very weird purchase from someone that was obviously getting rid of a lot of records from like a state and there's a but what I'm telling you this, but there's a label called Folkways and they do recorded field music. So I got a lot of like early 60s Senegalese percussion music. That's amazing. So I still being able to travel even with, like reading about history, food history, music history, and I don't think I ever stop. Traveling even before or now during incorporeal, corporally, yes, less bad, I'm always reaching.",Speaker 2,not-edited
00:56:15.880,00:56:32.280,00:00:16.400,"I love and I'm really glad you told me that story about the Senegalese music, I think it's a perfect example of what you're talking about. Yeah, cool. Well, that's that's it. That's all the questions I have for you. Thank you so very much. Do you have any questions for me as well?",Speaker 1,not-edited
00:56:33.640,00:56:50.909,00:00:17.269,"Yeah. What? So obviously, I saw that there were there probably a lot of people that responded to this and you don't work for Cho. So what what will this be used for? Like how how can you get data points out of the ramblings that I just made? That will help.",Speaker 2,not-edited
00:56:51.790,00:57:07.179,00:00:15.389,"Oh, that's a very that's a very good question. I don't know exactly how much I can actually reveal about the project that I'm working on, but will find out very soon. OK, yes. So keep your ear close to the ground when it comes to Joe.",Speaker 1,not-edited
00:57:07.720,00:57:28.670,00:00:20.950,"OK, I will. I just. From a from someone that is not in any of that type of industry with a marketing research, whatever may be particularly, is that that's really interesting that so I've done surveys online in those type of things. And I don't know if this is it's more fun, but it's more fun for you as well.",Speaker 2,not-edited
00:57:29.170,00:57:51.730,00:00:22.560,"Yeah. I mean, the surveys don't tell the stories, you know, like they'll kind of give us the rankings or like what's ranking high ranking low. But the stories that we hear from people, it's really where we get, I think, some of our best ideas. So thank you again. Enjoy the rest of your evening, David, and, yeah, take care.",Speaker 1,not-edited
00:57:52.270,00:57:53.000,00:00:00.730,Thank you. You too.,Speaker 2,not-edited
00:57:53.910,00:57:54.199,00:00:00.289,But.,Speaker 1,not-edited