In,Out,Duration,Text,Speaker,Status
00:00:00.060,00:00:49.890,00:00:49.830,"So watch your head. All right, so let me get that go in the term cool. So we will talk about a lot of stuff today, not just chocolate. I would like to talk about life, you know, as we all our life before the pandemic, like after the pandemic will cover kind of like a broad range. I'm hoping to be done within like forty five minutes, but we might take up to an hour. But none of this is like I don't work for Cho and whatever or whatever you say, like just be as honest as possible. If any of the questions are confusing, you don't really have an answer to just let me know. That's, that's, that's interesting for me too. So here we go. Just for the record, can you please tell me your name, your age or occupation where you live?",Speaker 1,not-edited
00:00:50.700,00:01:09.059,00:00:18.359,"Yeah, absolutely. My name's Joanne Pack. My preferred pronouns. Are she her hers? I live in Berkeley, California. My occupation is I am I work at a nonprofit. I'm the senior manager of membership at the Fine Arts Museums of San Francisco. Yeah, I did. I miss anything but you.",Speaker 2,not-edited
00:01:09.210,00:01:11.339,00:00:02.129,You got it. How long are you doing that for?,Speaker 1,not-edited
00:01:11.850,00:01:17.840,00:00:05.990,I've been at my current position and company for about four years now.,Speaker 2,not-edited
00:01:18.600,00:01:22.319,00:00:03.719,Very cool. And can you describe what your household looks like?,Speaker 1,not-edited
00:01:23.890,00:01:36.910,00:00:13.020,"My household, I you know, I'm in a relationship other than that, like it's just me, I live in beautiful San Francisco, like San Francisco Bay Area. It's wonderful. Yeah.",Speaker 2,not-edited
00:01:37.240,00:01:41.980,00:00:04.740,Yeah. I see you have plants back there. You caring for other living organisms?,Speaker 1,not-edited
00:01:42.220,00:01:54.189,00:00:11.969,"Yeah, I'm a big plant person. I love. I feel like I like a cliche in a way we love. I love plants. I love mid century modern furniture. Yeah.",Speaker 2,not-edited
00:01:55.180,00:02:02.110,00:00:06.930,"Very cool, and just so I can get a flavor of, like, the stuff that you're into, like what did you what do you do on a typical weekend?",Speaker 1,not-edited
00:02:03.070,00:02:23.310,00:00:20.240,"On a typical weekend? You could I love to practice yoga. I've been taking I've been utilizing, you know, virtual because my studios are all closed down for now, going on walks, going on bike rides, enjoying, you know. So let's just take out food cooking, yeah,",Speaker 2,not-edited
00:02:23.940,00:02:29.279,00:00:05.339,"yeah, and did that look differently before the pandemic?",Speaker 1,not-edited
00:02:30.510,00:02:52.919,00:00:22.409,"Yeah, totally. I think my life looked totally different. I would be. Not working as much remotely, I would be in the city, I would go out to different gallery or museum openings or be working them, shopping in person, lots of eating out, hanging out with different groups of friends.",Speaker 2,not-edited
00:02:54.280,00:03:04.270,00:00:09.990,"Yeah, so like galleries and like has has that transferred post pandemic very well, is are you getting that you scratching that itch?",Speaker 1,not-edited
00:03:05.350,00:03:24.680,00:00:19.330,"I think it's not quite scratching the itch of, like, being in person and seeing, like, you know, exhibition, but it is helpful. I think a lot of people are pivoting their virtual events. So I feel like I'm working on Zoome all day and then I'll do my social things on Zoome as well.",Speaker 2,not-edited
00:03:24.840,00:03:30.369,00:00:05.529,Yeah. Yeah. What's can you describe like one event that you did on Zoome recently.,Speaker 1,not-edited
00:03:32.110,00:04:00.969,00:00:28.859,"Yeah, I actually attended like this talk by this indigenous artist, this Intuit artist named Chuda, who is based in the Bay Area, and he talked a little bit more about what those Indigenous Day look like for an indigenous artist or an indigenous community and how we could honor our land better and acknowledge our land better. And he also did a fantastic dance and sing, which was really lovely.",Speaker 2,not-edited
00:04:01.360,00:04:04.270,00:00:02.910,Very cool. That sounds great. And how did you hear about this?,Speaker 1,not-edited
00:04:05.200,00:04:07.840,00:00:02.640,I heard about this from my colleagues. Hmm.,Speaker 2,not-edited
00:04:08.740,00:04:19.160,00:00:10.420,"Cool. OK, so, yeah, life assume I'm doing a lot of yoga and zoom now to just out of curiosity, do vinyasa like what's your style.",Speaker 1,not-edited
00:04:19.779,00:04:46.170,00:00:26.391,"I love vinyasa one of my favorite studios' like just flowing is really nice. I've been taking a lot of like sound bath meditation classes. My favorite studio that I would visit when I'm on the east coast of New York is skiting. So I bought I immediately bought up there like one year membership when we started the virtual membership, when we got into covid shelter in place. So I've been enjoying all of those.",Speaker 2,not-edited
00:04:46.180,00:04:59.920,00:00:13.740,"Yeah, I'm going to have to check that out. Thank you for the recommendation of OK shopping. So how does that look like now? Like are you still shopping as much as you did before or are you shopping in different ways? Less.",Speaker 1,not-edited
00:05:00.610,00:05:24.279,00:00:23.669,"Yeah, shopping I, I love to shop. I really do miss like being in person. I'm like it's a lot of online. I like streamlined to like all online. Like if I don't, if it's not essential then I'm buying it online. Yeah. So a lot more groceries are delivered a lot more. Everything is you know delivered. Yeah.",Speaker 2,not-edited
00:05:25.090,00:05:29.199,00:00:04.109,What was it like other than groceries. What was the last thing you were shopping for online.,Speaker 1,not-edited
00:05:31.000,00:05:43.839,00:00:12.839,"Oh, you know what, I just was shopping for bags. I love, like, little sun bags. Yeah, I got little, like, reusable bags that were really cute and adorable. Yeah.",Speaker 2,not-edited
00:05:44.440,00:05:49.629,00:00:05.189,"Are you getting where are you finding that, like, on the bag website or like another retailer.",Speaker 1,not-edited
00:05:51.390,00:06:03.959,00:00:12.569,"Yeah, I I got it directly from back to back, it was based in San Francisco, so I think they're always around and I think my friends always have a cute bago. So that's that's where I got it. Yeah.",Speaker 2,not-edited
00:06:04.830,00:06:08.070,00:00:03.240,Do you use Amazon at all for any of your shopping needs?,Speaker 1,not-edited
00:06:08.670,00:06:39.199,00:00:30.529,"I I've stopped using Amazon just like. Yeah, I mean, it's really convenient, and I do Miss Prime a lot, but I'm trying to find other ways, like other other retailers that I could get things from and supporting my local bookstore and. Yeah, but I guess I have to use in Stuckart or to get groceries delivered, so I'm just going right back in anyway, or I shop at Whole Foods, so it just goes back in a way.",Speaker 2,not-edited
00:06:39.240,00:06:43.610,00:00:04.370,"So, yeah, you're you're consciously trying to reduce it sounds like.",Speaker 1,not-edited
00:06:44.190,00:06:54.569,00:00:10.379,"Yes, definitely. I'm trying to consciously reduce. But I, I was like a hardcore prime user before where I'm just like swipe, swipe. Let's buy it. Let's get it. Yeah.",Speaker 2,not-edited
00:06:55.440,00:07:02.549,00:00:07.109,When do you think you started to make that shift in your mind about away from Amazon?,Speaker 1,not-edited
00:07:03.210,00:07:19.500,00:00:16.290,"I think I saw I mean like this is influenced by like the group of friends that I have. Right. Like my community basically is shifting away or like we're recognizing. In the past year or two, like even before the pandemic, like how problematic Amazon can be.",Speaker 2,not-edited
00:07:20.040,00:07:26.100,00:00:06.060,"Mm hmm. Can you I totally feel you, but what are some of the ways that Amazon is problematic?",Speaker 1,not-edited
00:07:26.970,00:07:40.769,00:00:13.799,I think like the use of labor and like abusing like not taking care of their. Their employees is like No one flag. Yeah.,Speaker 2,not-edited
00:07:42.810,00:07:54.759,00:00:11.949,"Yeah, there's some pretty pretty big horror stories coming out of the urban centers. Grocery, so now you'd buy all your groceries online?",Speaker 1,not-edited
00:07:56.280,00:08:07.920,00:00:11.640,"Yeah, so it's like split like good eggs. Everything is online, wherever I could find that I'm exploring different options, different things that I hear from folks around me.",Speaker 2,not-edited
00:08:07.960,00:08:10.560,00:00:02.600,"Yeah, you said Good Eggs is one.",Speaker 1,not-edited
00:08:10.960,00:08:27.060,00:00:16.100,"Yeah. And I actually am going back occasionally, but not as often. I am going back to my, like, natural food store. Like I live right next to Berkeley Bowl, which is like an amazing local locally owned grocery chain. Yeah.",Speaker 2,not-edited
00:08:29.180,00:08:35.210,00:00:06.030,"And so were you were you are you doing online mostly because of the pandemic or was that something you were doing before, too?",Speaker 1,not-edited
00:08:36.110,00:09:04.959,00:00:28.849,"I did it. I like totally shifted during, like, the Hardcore Times and March, but I was doing it every once in a while and I'm busy and would just want groceries like at home when I didn't have time. But yeah, the shift happened with the pandemic to go like full online. And then in the past couple of months I was like, things have started to open a little bit more, I think going back to the grocery store like. Yeah, has been happening",Speaker 2,not-edited
00:09:05.650,00:09:21.710,00:00:16.060,"so before the pandemic, and when you're doing mostly like physical shopping, what did you what did it look like when you were shopping for groceries? Are you going to like Berkely Ball all the time or was it like split between other places?",Speaker 1,not-edited
00:09:22.060,00:09:53.669,00:00:31.609,"Yeah, it would be it would really be split because I feel like I'm in that camp of, you know, you can't just go to one grocery store to get all your things that you need, like. So I'm going to my local Korean grocer to get my Korean items. I'm going to buy right is near my work. So I'll go to like a specialty like buy. Right. Shopping I'll go to. I'll go to like you have to go. I hit, like, quite a lot of different grocery stores. I think that's what's fun, like getting all the different ingredients that I need.",Speaker 2,not-edited
00:09:57.000,00:10:17.759,00:00:20.759,"So I'm going to ask some questions about, like all the different brands that you shop with or companies that you spend money with, what are like what are some of your favorites out there? And it can be across like anything, not just food or or your diet, just like your whole your full range.",Speaker 1,not-edited
00:10:18.820,00:11:04.389,00:00:45.569,"What am I like? I love. I was recently looking at some Rachel Cumi clothing online love. Rachel Comi. I love No.6 clogs. That's great. Food is a big thing for me. Food culture and things like that. So buying different cookbooks. From our local bookstore, Pegasus, I'm going to Berkeley, but I already mentioned Berkeley Bowl supporting my plant stores like getting getting new plants from our local cactus jungle, which are their succulent experts. Yeah.",Speaker 2,not-edited
00:11:06.010,00:11:14.139,00:00:08.129,So you talked about how you're moving away from Amazon. Are there other brands or companies that you've consciously moved away from?,Speaker 1,not-edited
00:11:15.800,00:11:25.690,00:00:09.890,"I think I can't think off the top of my head anybody other than like Amazon at this point, but yeah, Amazon is number one.",Speaker 2,not-edited
00:11:26.880,00:11:35.999,00:00:09.119,"I totally get it. Maybe another way to ask it, and if you don't have an answer, that's fine. Are there any brands you think out there that are problematic?",Speaker 1,not-edited
00:11:42.860,00:12:07.970,00:00:25.110,"Oh, one that comes to mind is like altar voice says, I would love to get like, you know, leggings from outdoor voices, but then they let go of their CEO, who is a female who founded it. And like an unsavory way, which I was like, oh, well, not going to buy leggings from them anymore. I could just move on to. Any other place truly right? Yeah, I can't think of anything else off the top of my head,",Speaker 2,not-edited
00:12:08.370,00:12:19.139,00:00:10.769,"that's a that's a great example, though. I didn't know that about our voices on the flip side, or you think there's brands out there that are doing, like, really cool stuff in the world or exciting things.",Speaker 1,not-edited
00:12:21.120,00:12:54.320,00:00:33.200,"Very exciting things. Oh, we have a local chain called Sports Basement that's similar to RPI, but they always have like community events and free community things, you join and you get like a cashback like RPI. But they have like recreational things, but they have meditation classes, they have yoga. They have a really kick ass email newsletter that's like has a really great voice and like personality. That's something that I really like.",Speaker 2,not-edited
00:12:55.150,00:13:00.109,00:00:04.959,So it's like this local like events and and products. And there's like a like a mix of it.,Speaker 1,not-edited
00:13:00.550,00:13:02.039,00:00:01.489,"Yeah, totally. Yeah.",Speaker 2,not-edited
00:13:02.620,00:13:11.080,00:00:08.460,"Cool. All right. We're going to switch gears a little bit. What is your relationship to, like, food and eating?",Speaker 1,not-edited
00:13:13.040,00:13:29.600,00:00:16.560,"I love it, I think it's such a big part of my joy and pleasure, like eating and finding new things to eat and enjoy with people that I love and it builds community. It's something that I do with my colleagues. It's something that I find common ground with a lot of people.",Speaker 2,not-edited
00:13:29.770,00:13:35.869,00:00:06.099,"Yeah, yeah. I love that. How has that been affected? Because of the pandemic.",Speaker 1,not-edited
00:13:37.340,00:14:01.640,00:00:24.300,"It's been affected, like, so intensely, right, like so it's I can't have, you know, dinner parties, I can't go to dinner parties or I choose not to. At this point, I'm not dining out. I used to dine out like three to four nights a week. Yeah, it's just has affected everything, I mean. Yeah.",Speaker 2,not-edited
00:14:03.010,00:14:07.000,00:00:03.990,What are some of the ways that he's been able to fill that void?,Speaker 1,not-edited
00:14:10.130,00:14:36.409,00:00:26.279,"I mean, some way, like, I guess sume comes into play again, right, so we're having I'm having a drink with a friend or like we go to we attend like a virtual zoo event together and chat while we're, like, attending it or, you know, I'll send people gifts and stuff like because I'm thinking of them or like it's like, enjoy this. Yeah. I think it's affected the way that I dine and share food completely.",Speaker 2,not-edited
00:14:37.520,00:14:41.469,00:00:03.949,Did you say gifts like presents or gifts as in like Meems.,Speaker 1,not-edited
00:14:41.950,00:14:57.910,00:00:15.960,"Oh, both. I feel like gifts and gift gifts. Yeah. So I think like sending them a little like gift is really nice. Love, love. The constant gift on slack keeps you keeping the dialog alive and fun.",Speaker 2,not-edited
00:14:59.240,00:15:02.299,00:00:03.059,"If you don't mind me asking, what was the last gift that you gave a friend.",Speaker 1,not-edited
00:15:03.190,00:15:27.650,00:00:24.460,"Oh, it was it was like cookies delivered, we have a hot cookie in the Castro and they deliver hot cookies so the cookies are warm and you know, one of my friends was having a hard day at work and I sent them a dozen cookies and they said that it was very luxurious. And I'm like, which everyone deserves a little bit of luxury every day.",Speaker 2,not-edited
00:15:28.780,00:15:34.659,00:00:05.879,"Man, I want to be your friend. So you also said you do some cooking.",Speaker 1,not-edited
00:15:35.740,00:15:36.399,00:00:00.659,Yeah.,Speaker 2,not-edited
00:15:36.730,00:15:40.309,00:00:03.579,Yeah. What how does how is cooking entered your life? Where did you learn how to cook?,Speaker 1,not-edited
00:15:41.500,00:16:00.869,00:00:19.369,"I you know, I subscribe to the New York Times cooking app and just like trying out new things. Buying like little milk kits you get trying to get inspiration elsewhere and learning new skills has been really fun.",Speaker 2,not-edited
00:16:01.860,00:16:08.580,00:00:06.720,"So is that something that you learned like for the pandemic, or is that something that's been part of your life for longer?",Speaker 1,not-edited
00:16:09.810,00:16:19.649,00:00:09.839,"I think it's always something that I've been interested in, but I think the pandemic really kicked it up a notch to look for me to get really into it.",Speaker 2,not-edited
00:16:20.890,00:16:24.820,00:00:03.930,So The New York Times cooking up what meal kits have you tried?,Speaker 1,not-edited
00:16:27.330,00:16:31.580,00:00:04.250,The Good Eggs one. Blue apron.,Speaker 2,not-edited
00:16:33.260,00:16:41.090,00:00:07.830,"Yeah. Have any of them stuck to you, like are you like converted loyal fans of any of these?",Speaker 1,not-edited
00:16:41.900,00:16:44.899,00:00:02.999,"You know, I would say the good one is pretty solid.",Speaker 2,not-edited
00:16:45.820,00:16:50.120,00:00:04.300,Hmm. What is what does the market look like from good? I've actually never heard of them.,Speaker 1,not-edited
00:16:51.090,00:17:18.640,00:00:27.550,"Yeah, I think they're based in the Bay Area or they started here. Their headquarters are here. It's fairly simple. And I think that they it's like all organic or the kits that I get. And it's just simple. I think it's simple and clean. Nothing too complicated. It's delicious. It's things that you would want like pasta or like pizza like. But very delicious and simple. Yeah. Mm.",Speaker 2,not-edited
00:17:19.490,00:17:26.479,00:00:06.989,"Do you, do you have any like dietary restrictions or do you do like any observances with like your food.",Speaker 1,not-edited
00:17:27.380,00:17:29.119,00:00:01.739,"No, not at all I.",Speaker 2,not-edited
00:17:31.490,00:17:32.589,00:00:01.099,"So it's all fair game,",Speaker 1,not-edited
00:17:33.020,00:17:36.940,00:00:03.920,it's all fair game right now to see if we better wait.,Speaker 2,not-edited
00:17:37.000,00:17:46.279,00:00:09.279,"But I love that I'm the same way. All right. So can you tell me about your like what your kitchen, what your kitchen look like?",Speaker 1,not-edited
00:17:48.270,00:18:20.420,00:00:32.150,"It has I mean, it's big, it's a little bit messy at times, lots of things going around. We have lots of pots and pans that I've acquired and served for during the pandemic because I've gotten into cooking some good knives that I got during the pandemic. Big of an. Big refrigerator, lots of cabinet space, it's a dream kitchen, and I'm glad I get to utilize it more. Yeah, this",Speaker 2,not-edited
00:18:20.850,00:18:23.980,00:00:03.130,"was the last thing that you made in that big, beautiful kitchen of yours.",Speaker 1,not-edited
00:18:24.900,00:18:27.130,00:00:02.230,I made a grilled cheese. Yeah.,Speaker 2,not-edited
00:18:28.480,00:18:33.489,00:00:05.009,"Tell me about it. How did you how did you get inspired, like where did you get the ingredients?",Speaker 1,not-edited
00:18:34.090,00:18:59.400,00:00:25.310,"Yeah, there's a farmer's market close by. There's some nice bread. I got some cheese from Berkeley Bowl, just like all the cheeses that I had. And the cheese draw, like all together, made it as gooey as possible with lots of, like, butter on it. Not the healthiest, but super delicious. Took me back to my childhood times.",Speaker 2,not-edited
00:18:59.460,00:19:10.020,00:00:10.560,"Yeah, there you go. So you said you also talked about like you get a lot of cookbooks, like where are the places that you're, like, getting inspiration from and like and coming up with your next recipe idea.",Speaker 1,not-edited
00:19:11.100,00:19:29.730,00:00:18.630,"I think it's because of the community that I'm around, I feel like my friends and colleagues are like the people that vet vet everything for me and it's like, oh, check this out. I really love this cookbook. Or like, have you heard of so-and-so who does this recipe, you know? And. Yeah.",Speaker 2,not-edited
00:19:31.430,00:19:38.749,00:00:07.319,"What's maybe what's the recipe book or it's the book that you're on right now, that you're going that you're going back to a lot?",Speaker 1,not-edited
00:19:39.290,00:19:56.240,00:00:16.950,"Yeah, I am really into like this book called MIDA Smith is the Artist. It's like the Artist Cookbook. And it's just kind of fun. There's a lot of, like, interesting anecdotes and it's simple and like just a little bit different. Yeah.",Speaker 2,not-edited
00:19:58.080,00:20:11.809,00:00:13.729,"All right, so this is kind of like a cross cooking at home across, like dining out like pre pandemic's, just like the whole universe of like eating. Can you tell me your top three eating memories?",Speaker 1,not-edited
00:20:13.150,00:21:07.559,00:00:54.409,"Oh. I have to say. One of the top is like fly, like going to Tokyo and like having a bowl of Robin on a like a fall night and just like being like blown away by, like, just a nice warm bowl. Another is having. Just a perfect scoop of ice cream as like just like just lovely, delicious and like being like having your mind blown by, like, amazing ice cream. And then the third would have to be, I mean. Anything which I feel like pizza, I feel like pizza in New York when I land in New York, I'm like pizza. Get me a slice, get me. They're standing on the corner, like curbing on it and eating a pizza is, like, amazing. Oh.",Speaker 2,not-edited
00:21:08.600,00:21:11.749,00:00:03.149,Where were the pizza places that you're going to in New York?,Speaker 1,not-edited
00:21:12.800,00:21:30.590,00:00:17.790,"There's that one place, Scar's Pizza, which I love. They have that amazing vegan Caesar salad, which I'm not even a vegan, and it's delicious. But yeah. And Prince Street pizza is delicious. They have. Yeah. Yeah. Pretty good.",Speaker 2,not-edited
00:21:30.660,00:21:37.720,00:00:07.060,"Can't go wrong with Prince Street, you know. Oh, man, I'm hungry now. Do you have any cooking aspirations.",Speaker 1,not-edited
00:21:41.060,00:22:06.609,00:00:25.549,"I would love to just continue, like, cooking more and like. I feel like I used to dine out a lot more, and now this has taught me to really continue growing my skills at home and like baking more maybe another territory that I haven't yet quite mastered, but I'm slowly exploring.",Speaker 2,not-edited
00:22:07.110,00:22:14.410,00:00:07.300,Mm hmm. Maybe what's one cool thing that you learn to cook since the pandemic started?,Speaker 1,not-edited
00:22:16.840,00:22:37.720,00:00:20.880,"I really loved I I love soups and like I bean I mean, I guess Alison Roven as somebody who was like kind of canceled during this time, but she has a really great recipe for a pork ginger like and doodle soup that's like delicious. And I can't stop making it all right.",Speaker 2,not-edited
00:22:38.020,00:22:41.170,00:00:03.150,"Yeah, but I have to look for that recipe on the down low",Speaker 1,not-edited
00:22:41.640,00:22:45.729,00:00:04.089,"down, the down. It's great. Yeah, totally. Thumbs up for that recipe.",Speaker 2,not-edited
00:22:46.160,00:22:55.240,00:00:09.080,"All right. All right. So we're going to switch a little bit and we're going to talk about chocolate, finally. Can you tell me about your relationship to chocolate?",Speaker 1,not-edited
00:22:57.890,00:23:17.749,00:00:19.859,"I love chocolate. I do really love Cho. I love a lot of chocolates. I love exploring chocolate. It's like something that gives me a lot of pleasure. So after, like, a hard day's work, like it's like a nice glass of wine and like a little piece of chocolate is like a piece of dark chocolate is great. Like.",Speaker 2,not-edited
00:23:19.910,00:23:21.380,00:00:01.470,Where do you usually buy your chocolate?,Speaker 1,not-edited
00:23:22.980,00:23:54.819,00:00:31.839,"I will usually buy from, like I think Whole Foods has a great selection, I learn about a lot of, like, national brands there, but my local like Berkeley Bowl is a great grocer that I'm bringing up again. That's where I actually first saw Cho and learned about them. Yeah. Or like little specialty gift stores. I think sometimes you'll see, like, little chocolates, like nice little artisanal chocolates, like near the gift register. Like what? I'm purchasing a candle or something. Like I'll be like, let's just get that little chocolate let's that on there.",Speaker 2,not-edited
00:23:54.870,00:24:00.030,00:00:05.160,"Yeah, I've done that before. So have you ever bought chocolate online.",Speaker 1,not-edited
00:24:01.910,00:24:21.180,00:00:19.270,"Yeah, definitely, I feel like I bought I buy Choa online. Yeah. What Tony's chocolate like, what's that other brown with, like the amazing, like, colorful Tony's lowney like it's like Tony's chocolate lonely chocolate cake.",Speaker 2,not-edited
00:24:21.220,00:24:21.789,00:00:00.569,A lonely,Speaker 1,not-edited
00:24:22.090,00:24:25.420,00:00:03.330,"chocolate only. Yeah, always. It's a tongue twister for me.",Speaker 2,not-edited
00:24:25.590,00:24:32.820,00:00:07.230,"I'm like, yeah. What are the like. Yeah. Tell tell me other brands that you've been eating lately.",Speaker 1,not-edited
00:24:34.780,00:25:12.239,00:00:37.459,"I like Theos, I think they're from Oregon. I like. I don't know, I really drawn to, like, packaging, so, like, I feel like I'm a visual person, so maybe I'm not getting the name, but also has like the most easiest names. And it's also funny because everybody's like to see what it's like. And I'm like, no, it's actually pronounced Cho. And that's always like a fun point. But I mean, so many chocolates. But I. I don't. If I see the packaging, I'll be like, yes, I've had thought, yes, I've had that or no, like I have to see the branding. I'm like a huge visual person.",Speaker 2,not-edited
00:25:13.250,00:25:25.900,00:00:12.650,"It's like, yeah, I'd love to learn more about this, so like I'm imagining like an aisle in the grocery store and there's like usually like a wall of chocolate is like, what's drawing your eye? Like where? What are you interested in?",Speaker 1,not-edited
00:25:27.540,00:25:58.349,00:00:30.809,"I I mean, it's like dark chocolate, funky flavors, maybe it's like a weird, like spicy dark chocolate that like I'm like that sounds interesting to try something that I haven't seen before. I'm always like, let's why not try it out. Throw it in there. And then I have like my staples, which is like Choa and like Choko only like I'll take any of those. Yeah. Or Dandelion chocolate and San Francisco. Yeah.",Speaker 2,not-edited
00:25:59.410,00:26:14.930,00:00:15.520,"So it's interesting, it sounds like you have like your your staples, like your your anchors, and then you kind of experiment on top of that. How did. Chocolate, H0 and Dandelion make it to your staples. Why are that? Why are they there?",Speaker 1,not-edited
00:26:17.820,00:26:33.900,00:00:16.080,"They are there because I think overall quality is there. It tastes delicious to me. They have fantastic branding that's all very different and have their own voice. I think that's why. Yeah, but no one reason is because they taste really good.",Speaker 2,not-edited
00:26:34.780,00:26:46.900,00:00:12.120,"Yeah, so you're like looking at like a new brand, they have cool packaging, like, what are you looking at on the package? Like you said, you look at flavor, like, what else are you doing when you're looking at that package?",Speaker 1,not-edited
00:26:47.140,00:27:20.349,00:00:33.209,"I try to make sure I would love to be organic, fair trade, not using any like I know that's a huge thing. And chocolate is like slave labor and child labor, which is not something that I want to support. I love I love it if it's local, but otherwise I think taste trumps all. I mean, and anything bright and interesting or like has a very clear creative direction. I mean, I got to give it crops that I'm like happy to try it out and see what it's about.",Speaker 2,not-edited
00:27:21.200,00:27:33.550,00:00:12.350,"All right, see, so are you when you're buying chocolate. Is it mostly to eat or are you, like, baking with it? Are you cooking with it or giving it as a gift?",Speaker 1,not-edited
00:27:34.480,00:27:48.970,00:00:14.490,"Yeah, I think it's a I mean. It's for me to enjoy, but also I often find like a bar of chocolate is a great gift giving it. You know, passing it on generously is great. Yeah.",Speaker 2,not-edited
00:27:50.340,00:27:53.700,00:00:03.360,And how often do you think your would you estimate your buying chocolate?,Speaker 1,not-edited
00:27:54.630,00:27:55.650,00:00:01.020,I think weekly,Speaker 2,not-edited
00:27:56.100,00:28:06.180,00:00:10.080,"now. Weekly. Nice. What's the trigger? Is it like I'm out of chocolate or you're just like, is it impulse? Like what? Like, tell me the last time you bought a piece of chocolate.",Speaker 1,not-edited
00:28:06.630,00:28:25.190,00:00:18.560,"I think it's like if I remember it, I'm like, yeah, why not? I don't want to run out of it. So I like to keep it in stock and. Yeah, that's I think that's the trigger, it's like, oh, might as well if I'm ordering something or if I'm picking up something and I see it, I'll I'll throw it in there.",Speaker 2,not-edited
00:28:26.230,00:28:32.109,00:00:05.879,"What when are instances where you go to like a chocolate website, like what inspires you to do that?",Speaker 1,not-edited
00:28:34.950,00:28:55.649,00:00:20.699,"I think when I'm really craving chocolate or I get a direct email campaign and I'm like, you know what? I got to order some, I got to go online, I got to check it out, or if there's like something new and it's only available, like on the proprietory website that I'm like, OK, then I'll go order there.",Speaker 2,not-edited
00:28:58.350,00:29:05.580,00:00:07.230,So clearly you get the Cho emails or the other emails that you subscribe to emails.,Speaker 1,not-edited
00:29:06.840,00:29:11.429,00:00:04.589,"I subscribe to Dandelion Chocolates, which is in San Francisco. Yeah.",Speaker 2,not-edited
00:29:13.350,00:29:14.519,00:00:01.169,Have you been on their website?,Speaker 1,not-edited
00:29:16.260,00:29:32.970,00:00:16.710,"Yes, sometimes if I get an email and I open it all, I'll pretty much click through if there's something of interest or maybe they have like a virtual back, but they're offering or it's like they're going to talk about something that I'm interested in or they have a new flavor that I really want to taste and I'll click onto it. Yeah.",Speaker 2,not-edited
00:29:33.870,00:29:36.329,00:00:02.459,So Dandelion does virtual events.,Speaker 1,not-edited
00:29:37.820,00:29:47.809,00:00:09.989,"Yeah, I think that they had invited they had like some event about like tasting notes and things like that, and I was like, Oh, that's interesting. Could be fun.",Speaker 2,not-edited
00:29:48.500,00:29:49.250,00:00:00.750,Did you go?,Speaker 1,not-edited
00:29:50.030,00:29:51.529,00:00:01.499,"I did not go, actually.",Speaker 2,not-edited
00:29:51.830,00:29:55.009,00:00:03.179,Yeah. Yeah. Can I ask why?,Speaker 1,not-edited
00:29:56.560,00:30:04.240,00:00:07.680,"It didn't fit into my schedule otherwise, I think it would have been a fun thing to go to, but otherwise it just didn't quite match up.",Speaker 2,not-edited
00:30:05.150,00:30:07.079,00:00:01.929,Was it a free event or did you have to pay?,Speaker 1,not-edited
00:30:08.060,00:30:09.959,00:00:01.899,"I think it was free, yeah.",Speaker 2,not-edited
00:30:10.960,00:30:17.390,00:00:06.430,"Is that something you would do, like by yourself? Or if it did fit into your schedule, like how would you how would you plan for it?",Speaker 1,not-edited
00:30:18.050,00:30:36.949,00:00:18.899,"Yeah, I think that's something that I would do by myself. But I would also love the option like to like if it is like if it was a tasting, maybe it's like I have it in front of me, like I order something where I'm like following along with this program and like this expert and learning more about this and that. Yeah.",Speaker 2,not-edited
00:30:37.470,00:30:44.720,00:00:07.250,"Oh, that sounds very nice. So maybe you said this already. How did you learn about Cho the first time.",Speaker 1,not-edited
00:30:46.030,00:31:16.779,00:00:30.749,"It was through Berkeley Bowl when I was shopping and I saw show, and I think that you guys had like some really interesting or Cho had it really interesting flavors. And I was like, oh, that sounds great. And it was delicious. And then I had shared it with other people. And and people within my community is like, yeah, they're fantastic. And like had vetted it to like one. And I'm like, how did I not know about this? I and it was and I guess people who are in the know just now. But yeah. They had already known know",Speaker 2,not-edited
00:31:17.290,00:31:22.269,00:00:04.979,"what were the what were the flavors, what are the different types of Cho products that you bought.",Speaker 1,not-edited
00:31:24.100,00:31:56.589,00:00:32.489,"It was like a pretzel and salt one, it was like this mint. Menti, there was like a minute. Chocolate chip kind of looking like ice cream scoop in the front of it. That was delicious. Let's see, just a good dark chocolate with, like, some spice in it. Like, I like the branding. I saw this. It being square is also helpful because a lot of it's we see a lot of rectangular bars. So I thought that kind of stood out to me to.",Speaker 2,not-edited
00:31:59.440,00:32:04.510,00:00:05.070,"And this is a totally random question, what do you think the word Cho means?",Speaker 1,not-edited
00:32:06.170,00:32:19.160,00:00:12.990,"You know what, I have no idea. Is it something to do with, like chocolate making or like some kind of like. I don't know. And why is the tea silent? Do you know? Can you tell me?",Speaker 2,not-edited
00:32:19.480,00:32:28.599,00:00:09.119,I think I think I kind of know. It's just it's like the show. It's like chocolate. Just chill chocolate. And the tea is just for like,Speaker 1,not-edited
00:32:29.230,00:32:37.150,00:00:07.920,"and this flare, OK? Yes, OK, thank you. Now I know.",Speaker 2,not-edited
00:32:37.360,00:32:43.059,00:00:05.699,There you go. Do you know anything else about the Cho brand? Like what else you know about them?,Speaker 1,not-edited
00:32:43.870,00:33:14.099,00:00:30.229,"Well, I actually found out that they're based in Berkeley and I'm like, that's fantastic. I love to support local businesses. And I thought that was great, and I know before the pandemic, they were like offering like tours of like the factory to like in Berkeley and I was like, oh my God, we should go like years ago. And then it never happened because it's just a global pandemic hit or they stopped offering tourists for a while and then.",Speaker 2,not-edited
00:33:14.110,00:33:22.150,00:00:08.040,"Yeah, yeah. It's a bummer. Do you do like factory tours like that a lot in your like like prepend. I'm like let's say.",Speaker 1,not-edited
00:33:23.190,00:33:35.099,00:00:11.909,"I think it interests me, I think it's always interesting to see, like I love that TV show, like how things are made. I think it's very calming to watch that show. And I feel like it would be just an exploration of that. Yeah.",Speaker 2,not-edited
00:33:36.960,00:34:05.150,00:00:28.190,"I love that show. It is fascinating to watch how they make all sorts of things. All right, let me just look at my notes real quick, I think where I think we did it on chocolate. All right. So last couple of questions. Just like a group of questions, quality, the word quality in food. Like what? What does quality mean to you?",Speaker 1,not-edited
00:34:07.100,00:34:39.840,00:00:32.740,"I think it's good ingredients sourcing fairly, uh. Quality is also like labor that goes into it like people being paid fairly for their labor, like I do not mind paying an extra few dollars to make sure that people are being are taken care of for their labor. Organic is something that I think or a small batch is also like quality. I feel like. Yeah, those are the things that stand up to me.",Speaker 2,not-edited
00:34:41.449,00:34:47.570,00:00:06.121,How do you know how are you able to learn about if a company is being fair?,Speaker 1,not-edited
00:34:49.010,00:35:25.049,00:00:36.039,"I think it has to do with transparency, right? Like, I feel like. It's almost like smaller companies are more transparent and the way that their supply chain comes out or like they it's like it's a pride, it's a point of pride, right? Like or like their company feels like it's a family. Like it's like they're really proud of that or they're part of their community and they give back, I think. That's something that's marketed a lot, and I'm happy to hear about it, I'm like, sure, I would love to support, like I rather choose that than, you know, give money to Hershey's or the Mars Corporation, to be honest.",Speaker 2,not-edited
00:35:26.220,00:35:33.270,00:00:07.050,"So if they're like putting that information on the packaging, is that the, like, the most helpful place to learn about it?",Speaker 1,not-edited
00:35:33.540,00:35:38.429,00:00:04.889,"Yeah, I think that's definitely the place that I learned about it. And I'm like, yeah, sounds good.",Speaker 2,not-edited
00:35:39.450,00:35:44.360,00:00:04.910,Do you do you follow brands on social media?,Speaker 1,not-edited
00:35:45.850,00:35:58.210,00:00:12.360,"Yeah, definitely, yeah, or they rotate around me or they're always around through ads when I'm scrolling anywhere on any of the platforms, I feel like they show up.",Speaker 2,not-edited
00:35:59.560,00:36:02.199,00:00:02.639,Yeah. What's your go to platform right now?,Speaker 1,not-edited
00:36:03.370,00:36:11.070,00:00:07.700,I really have become acquainted with Twitter during the pandemic. Yeah.,Speaker 2,not-edited
00:36:11.800,00:36:22.809,00:00:11.009,All right. All right. So you talked about your community and how important like your community is to you. Can you describe your community?,Speaker 1,not-edited
00:36:24.820,00:37:04.400,00:00:39.580,"Yeah, I think that the my community looks like there are people who care, the people who give back their altruistic in their own way as much as they could be, whether it's time or money or the care that they put into other people and their community members, their artistic, usually and passionate and. They also share a love of like enjoying the arts and eating and reading and just like pleasures. I feel like chocolate is a huge thing that brings everybody brings my friends together. Yeah.",Speaker 2,not-edited
00:37:04.880,00:37:17.210,00:00:12.330,"Yeah, I love that. I just love the way that you described, like, what brings you guys together. You gave some examples before, but can you talk more about how you stay connected with your community nowadays?",Speaker 1,not-edited
00:37:18.410,00:37:35.610,00:00:17.200,"Yeah, it's through Zoome or chatting. I think it's like just constant, like it's through the phone or through the computer. That's how I feel connected to most nowadays since I can't see them in person as often or at all.",Speaker 2,not-edited
00:37:35.660,00:37:53.119,00:00:17.459,Yeah. Are there any things that like after the pandemic started and we're started social distancing. Do you think that what do you think has changed maybe for the better in the way that you connect with your community?,Speaker 1,not-edited
00:37:55.160,00:38:24.169,00:00:29.009,"I think that there's more chickens now like to be like, are you OK? How, like just five check how this or like sharing just like joys of like, oh, here's this funny tick tock that I found here. This and like just checking in. I think people have been really might eat, gotten even more mindful during this time of everybody and caring, even if it's through virtual, it feels really like that's that's like an improvement I would say is really nice.",Speaker 2,not-edited
00:38:25.640,00:38:39.260,00:00:13.620,"Yeah, I like that. Did you so you talked about like going to Japan and like Tokyo and getting that like ramen. Well, what it was like traveling what was traveling like for you before the pandemic.",Speaker 1,not-edited
00:38:40.480,00:39:10.659,00:00:30.179,"I think it's like one of the big pleasures and enjoyment of life. It was something that I looked forward to every year, like whenever I did or like whenever I would go to New York or is it and travel around it something that brought people together, like if I'm meeting up with my friends or traveling together with my family or partner, that was really nice. Yeah.",Speaker 2,not-edited
00:39:11.530,00:39:19.059,00:00:07.529,What what are what are some of the things that you're getting out of traveling. Like what? Why is it such a pleasure in your life?,Speaker 1,not-edited
00:39:20.210,00:39:46.510,00:00:26.300,"I think you get I get to learn, like, how much I don't know and just just like the constant like the different things that you get to experience, the cultures that I learn about, different things that I discover like. Like. Great soaps and candles that I'm like, oh, my God, I need to fill my suitcase with this or yeah, things like that, I think it's really fun.",Speaker 2,not-edited
00:39:47.010,00:39:56.910,00:00:09.900,"I love it. And how would you define like, what are some of the top, like ways that you get to know a different culture?",Speaker 1,not-edited
00:39:59.340,00:40:31.139,00:00:31.799,"I love to just I mean, I think the Internet is amazing, I don't know how people traveled without it. People are like reading like little like that blows my mind. But that's the case. Or like scrolling and like seeing things or I learn from my community, like where great spots are or things that I should explore, museums that I should go to or restaurants that I should stop by, or excellent grocery stores or specialty stores that I. That's regional and great. Yeah.",Speaker 2,not-edited
00:40:33.090,00:40:43.020,00:00:09.930,"And in this post pandemic world, what are are there ways that you're able to, like, get a sense of of that exploration and adventure?",Speaker 1,not-edited
00:40:44.290,00:41:06.360,00:00:22.070,"I think it's all through online or like it's through like cooking, to be honest, like it's truly. It's like finding a cool ingredient and like or a cool recipe and like just going for it and trying to source everything and like it is really fun learning new. New ways through cooking, new cultures through cooking is really interesting, you",Speaker 2,not-edited
00:41:07.090,00:41:18.130,00:00:11.040,can you can you excuse me share an example like a cool ingredient or cool cuisine that you're starting to learn about?,Speaker 1,not-edited
00:41:19.030,00:41:53.320,00:00:34.290,"Yeah, I think I Sarmin nostro was talking about Amy, how she is cooking more African cuisine like and how I love to go eat Ethiopian food. Like that's something that I would love to go do, but it's like I've never cooked it. So I've been like looking at different things and like being like, oh my God, what is that ingredient? Where do I get it? How do a sauce that I can't name one single one because I am a complete novice right now and I'm just reading it like trying to absorb to see what's like. Possible, but, yeah, that's like one example.",Speaker 2,not-edited
00:41:56.260,00:42:15.649,00:00:19.389,"And last question is. Maybe it's like a two part question. So that's unfair is what do you think in your life is going to go back to normal and then maybe what do you think has changed? For good, like now that this pandemic has. You know, happened to us.",Speaker 1,not-edited
00:42:16.100,00:42:27.440,00:00:11.340,"Yes, happened to everybody. It's something that we're all in. I think so could you just repeat that one, the beginning part of that question?",Speaker 2,not-edited
00:42:27.830,00:42:49.489,00:00:21.659,"Let's let's say like. One day the pandemic is going to hopefully go away or will things will return back to normal ish. Do you in what ways do you think your life has changed, like permanently and then maybe what ways do you think your life will go back to the way things were before?",Speaker 1,not-edited
00:42:51.330,00:43:27.459,00:00:36.129,"I think being realistic, I think I would I definitely want to keep this like cooking the skills that I've learned is a huge part where I will keep working on and building on regardless of where we're like in a year. Yeah, I think that I become more of a homebody now, so going out a lot less, even if things do open up safely, I think I will be cautious for like the next year or two and permanently. Yeah.",Speaker 2,not-edited
00:43:28.060,00:43:43.349,00:00:15.289,"Yeah, totally. Um, I think I think those are all the questions that I have. Thank you so much. I really enjoyed our conversation. I learned a lot. And do you have any questions for me? I always just like to leave it open.",Speaker 1,not-edited
00:43:45.170,00:44:13.820,00:00:28.650,"Thank you. I feel like it was just like such a fun conversation. You are such a pro. I am wondering how do you like how many of these are you doing? I'm curious because I work with. Like external folks and like I'm also wanting to do similar like testing and things like that, what are what's a pro tip that I should keep in mind if I am like interviewing and doing research and benchmarking with folks?",Speaker 2,not-edited
00:44:14.330,00:44:52.900,00:00:38.570,"Oh, my God, I do this a lot so I could talk for a very long time about this. Usually when we try to do research like this, we want to talk to at least like 10 different people. And I mean, it also depends on the type of person that you're trying to understand. If you're trying to understand, like a big range of like in this case, it's like customers like if you're trying to understand like a big range of customers and of course, you maybe want to go like 20, but ten is usually a pretty good number. Yeah, so that is your question.",Speaker 1,not-edited
00:44:53.680,00:45:00.270,00:00:06.590,"Yeah, I think that's great. I think that's a high level. You kept it, like, really good to know. Yeah.",Speaker 2,not-edited
00:45:00.520,00:45:23.499,00:00:22.979,"I mean, if you have I mean, I'm always open. If you want to email me and you have questions, I'd love to talk more about this, but interviews usually last anywhere between like 30 minutes to an hour. And. Yeah, I don't know, I feel like I'm drawing a blank now, I'm, like, so excited to talk about this now. I'm like, I'm panicking.",Speaker 1,not-edited
00:45:24.280,00:45:40.480,00:00:16.200,"No, no, no, I feel like you live it sometimes. You're like, oh, what do you need to know about it? But I think that's a great start. And I appreciate your generosity. And actually, it was just such a fun conversation. It did not feel like you kept it rolling so smoothly. So kudos. Thank you so much.",Speaker 2,not-edited
00:45:40.690,00:45:51.310,00:00:10.620,"Well, thank you. I you know, I had a great partner to do this with, so I appreciate just like your presence and your honesty and all of this. And it's really great to meet you, Joanne.",Speaker 1,not-edited
00:45:51.910,00:46:01.239,00:00:09.329,"Likewise. Natalie, thank you so much. Please let me know if you need anything else, but it was such a pleasure on my Thursday evening. So have a great night.",Speaker 2,not-edited
00:46:01.540,00:46:03.140,00:00:01.600,"Yeah, you as well. Take care.",Speaker 1,not-edited
00:46:03.140,00:46:04.299,00:00:01.159,Bye. Thank you. I.,Speaker 2,not-edited