In,Out,Duration,Text,Speaker,Status
00:00:00.180,00:00:10.050,00:00:09.870,"That's started and great, so can you please, just for the record, tell me your name, age and occupation?",Speaker 1,not-edited
00:00:11.350,00:00:15.890,00:00:04.540,My name is Jenny Shu. I'm thirty six years old and I work in business.,Speaker 2,not-edited
00:00:16.379,00:00:18.660,00:00:02.281,You were hippies. How long have you been in business for?,Speaker 1,not-edited
00:00:18.990,00:00:39.720,00:00:20.730,"I know it's random. I, I've been at this company since March, so I started during quarantine, which is fun. But I've, I've been doing some various role of like analysis like business analysis and analytics since two thousand six.",Speaker 2,not-edited
00:00:40.560,00:00:46.490,00:00:05.930,Cool. I used to be an analyst so very cool. So where do you live.,Speaker 1,not-edited
00:00:47.280,00:00:52.319,00:00:05.039,"I, I technically live in Dallas but I'm actually in Houston.",Speaker 2,not-edited
00:00:52.940,00:00:55.859,00:00:02.919,Oh OK. How long have you been in Texas for.,Speaker 1,not-edited
00:00:57.180,00:00:57.969,00:00:00.789,Since March.,Speaker 2,not-edited
00:00:58.590,00:01:01.109,00:00:02.519,Oh cool. Well congratulations on Texas.,Speaker 1,not-edited
00:01:01.530,00:01:02.729,00:00:01.199,Thank you. I guess,Speaker 2,not-edited
00:01:04.319,00:01:04.769,00:00:00.450,it's warmer,Speaker 1,not-edited
00:01:04.769,00:01:07.470,00:00:02.701,"down there. It's it's so weird. Right out. Yeah, totally.",Speaker 2,not-edited
00:01:08.140,00:01:10.380,00:00:02.240,"Out of curiosity, what were you where were you living before?",Speaker 1,not-edited
00:01:11.790,00:01:16.369,00:00:04.579,"I'm I'm a little bit of a nomad, so directly before I was in D.C..",Speaker 2,not-edited
00:01:16.830,00:01:22.559,00:00:05.729,Cool. Very cool. May I ask what your household looks like right now?,Speaker 1,not-edited
00:01:23.070,00:01:31.939,00:00:08.869,"Yeah. So I'm cohabiting. I usually live single household, but I'm with my parents because Dallas is really close to Houston.",Speaker 2,not-edited
00:01:32.610,00:01:40.650,00:00:08.040,"There you go. Cool. And just so I can get a sense of like what you do for fun, like what is a typical weekend look like for you?",Speaker 1,not-edited
00:01:42.950,00:01:47.269,00:00:04.319,"I mean, that's a really good question before or after,",Speaker 2,not-edited
00:01:48.140,00:01:53.450,00:00:05.310,"you know, actually, so a lot of the questions I asked today might be about like before covid and after covid.",Speaker 1,not-edited
00:01:54.140,00:02:17.229,00:00:23.089,"So so I think generally, like Frontin going out with friends, like checking out new gallery openings, just sort of your standard, I guess, thirty's stuff. But recently it's been more like Stallard and gardening and like core and all of the indoor stuff that you get to do, inquire into.",Speaker 2,not-edited
00:02:17.900,00:02:19.830,00:00:01.930,What was the last thing you said cottage for.,Speaker 1,not-edited
00:02:20.500,00:02:30.439,00:00:09.939,Yeah. What is its cottage culture like? It literally is like breadmaking and gardening and reading books and just being a hermit.,Speaker 2,not-edited
00:02:31.400,00:02:34.849,00:00:03.449,"Oh, I love that. I feel like maybe that's what I've been doing this whole time then.",Speaker 1,not-edited
00:02:35.830,00:02:38.770,00:00:02.940,"Yeah, that's probably cool.",Speaker 2,not-edited
00:02:38.780,00:03:03.139,00:00:24.359,"So. So just to make sure I heard this right before, it was like hanging out with friends a lot and going out and like doing cultural things. And now it's like it's really homesteading a little bit. Yeah. Oh, OK. Cool. All right. So some more before and after questions. Is just general shopping like all like what type of shopping were you doing before covid and then how is that changed?",Speaker 1,not-edited
00:03:03.140,00:03:05.120,00:00:01.980,"Now we're talking about food, right.",Speaker 2,not-edited
00:03:06.590,00:03:10.940,00:00:04.350,"We will talk more about food, but just like clothes, anything,",Speaker 1,not-edited
00:03:11.300,00:04:31.370,00:01:20.070,"whatever, I. OK, that's that's interesting. I browse a lot. Apparently I buy enough stuff online that I get cookin. So there's a lot of people like just a lot of businesses, small businesses, but also large fashion brands that like target me on social media. So sometimes I'll click into that, sometimes I'll buy probably, which is why they serve me more of those. But normally I do like one or two really big shopping trips a year where I'm shopping for clothes. In terms of like groceries, I, I actually don't there's not a typical week. I'll probably go through months of like. Mostly cooking at home, really making everything from scratch, and then I'll get sick of it and then go through months of like overeats or like going out with friends and I'll switch back and forth. I don't I'm not a routine person at all. It's really hard. Like, what else do I buy? I probably do like club stores once every two to three months when I'm living by myself just because I don't like. Paper products and water, like, I don't need that much of it. And then. Yeah, grocery stores probably like after work on the way home or something.",Speaker 2,not-edited
00:04:32.220,00:04:39.269,00:00:07.049,Yeah. So are you shopping at. It is physically at grocery stores nowadays.,Speaker 1,not-edited
00:04:40.710,00:05:10.879,00:00:30.169,"Yes, now I weirdly now I am I think when I was living by myself, I was doing and it depends on the location and what service I like, but I'll go through phases of like if I do in person, I'll probably go to the ethnically Asian stores versus then I'll go through periods of like I just want American food. So I'm going to like, do Amazon fresh or I don't know if you're on the East Coast, but if you are. Fresh, direct and things like that,",Speaker 2,not-edited
00:05:11.690,00:05:16.339,00:00:04.649,so you'll do like nowadays you're doing a mix of like going in stores and getting delivery,Speaker 1,not-edited
00:05:16.970,00:05:40.970,00:00:24.000,"nowadays because I'm with my parents, my parents do a lot of the shopping. I do some of it, and I'll it'll be all in store just because if I'm picking the it's weird. It's like you're the product. It's I don't know. There is a weird logic that I don't think I can logically explain to you of why we think it's safer to buy in person versus having it delivered. I don't know,",Speaker 2,not-edited
00:05:41.660,00:05:50.820,00:00:09.160,but I still shop in person. So you're safe here with me? Yeah. What's the what are the names of some of the Asian markets or markets that you're going to.,Speaker 1,not-edited
00:05:51.770,00:06:11.540,00:00:19.770,"Honestly, it's developed over the years, but like nowadays, it's all big conglomerates, just like the the normal American grocery stores are so like ninety nine ranch, like they're the big ones. The Great Wall is one of them. I know they have locations in DC and Virginia. I think they have. And then they have them here too.",Speaker 2,not-edited
00:06:12.260,00:06:18.500,00:00:06.240,Mhm. Are there other reasons why you go to some markets over others.,Speaker 1,not-edited
00:06:19.770,00:06:21.119,00:00:01.349,"From an Asian perspective,",Speaker 2,not-edited
00:06:22.260,00:06:22.970,00:00:00.710,any of those in,Speaker 1,not-edited
00:06:23.010,00:07:06.509,00:00:43.499,"general, it really depends on so I know my parents shop based on like I like adverts, so they shop based on what's featured, but I shop literally based on mood. So smart is more of a Korean based or they have better snacks. So if I need to go on a snack run, then I'll go there. But do all of my other shopping versus like ninety nine range I think is more Chinese focused and they have like the vegetables that I'm more familiar with as a Chinese person. So again, like I will switch between them based on like random need. But again it's much more of like what I'm in the mood for than anything else.",Speaker 2,not-edited
00:07:08.040,00:07:12.029,00:00:03.989,And so you said you use Amazon fresh. Are you using Amazon for like anything else?,Speaker 1,not-edited
00:07:14.010,00:07:38.579,00:00:24.569,"I go through periods, so I like fresh direct because I used to live in New York City and they're just like local brands that I prefer. So I like them Amazon fresh. Honestly, I'll go through it like a few times a year. But mostly it's like I'm stocking up on frozen food. You know what I mean? Just like things that I'm going to keep in my freezer on a Tuesday night that I don't want to cook.",Speaker 2,not-edited
00:07:38.620,00:07:46.050,00:00:07.430,"Or would you say you're, like, loyal to any one of these grocery stores?",Speaker 1,not-edited
00:07:47.320,00:08:04.059,00:00:16.739,"No, all of them serve a specific purpose that's personal to me, but I, I wouldn't I wouldn't say I'm loyal to any of them. I think there's always I've moved enough that there's always a replacement, with the exception of Wholefoods because Whole Foods is nationwide.",Speaker 2,not-edited
00:08:04.720,00:08:21.920,00:00:17.200,"Got it. Got it. OK, so I want to ask some questions about. Like brands and companies that you spend money with, and it can be groceries, it could be clothes, it could be it could be anything. Right. What would you say are some of your favorite brands out there?",Speaker 1,not-edited
00:08:24.200,00:09:00.339,00:00:36.139,"I hate this question because it's so difficult. I think clothing wise, for the last year, I bought a lot of Ted Baker. I don't have a favorite electronics company I used to, but it's changing. Food wise, I try not to buy big brands, so I'm actually a. not a. big brand, but I don't specifically reach for name brands. I actually prefer if it's like actually artisanal and not just artisanal on the label.",Speaker 2,not-edited
00:09:00.740,00:09:09.070,00:00:08.330,"Um, how high are some of the ways that you are able to distinguish between just the label and actually artisanal?",Speaker 1,not-edited
00:09:09.770,00:09:19.130,00:00:09.360,"And I, I used to work in KBD and I know all the brands they own, so that helps on the labels where it's manufactured.",Speaker 2,not-edited
00:09:19.400,00:09:31.379,00:00:11.979,"Yeah. OK, that's good. You have insider information. So like the electronic, you said you used to be loyal and now you're not so much anymore. What, what were you loyal to and why are you moving away from it.",Speaker 1,not-edited
00:09:32.030,00:10:29.750,00:00:57.720,"Yeah, sure. So a couple of things. These are my possessions, obviously. I think it's like from an electronics perspective, I will buy whatever laptop I'm using at work just because it has the same UI like user experience. It's easier from a like phone perspective. I think I had I've had almost every single Apple device since the iPhone to launch. But in the recent years I feel like they have been making the step changes and innovation that I expect. And I feel like there there are more in the profit stage than they're in the growth stage. So I just I don't think they're providing the value that I want as a consumer. So I'm looking more at like Droid products, Samsung specifically. And then Amazon is is really funny. I have friends that work in Amazon. So Amazon is there fast and cheap, but not always good. So it's a little bit of a toss, a coin toss.",Speaker 2,not-edited
00:10:30.290,00:10:31.370,00:00:01.080,Good. In what ways?,Speaker 1,not-edited
00:10:32.270,00:10:55.009,00:00:22.739,"Like the quality or like the user experience, like I have a Kindle and it's sometimes when I push the button, it sometimes does what I wanted to do and sometimes it doesn't. But I know I bought it for, like intro's more than twenty dollars, but it wasn't that expensive given the piece of electronic that it is. So it's hard to complain.",Speaker 2,not-edited
00:10:56.810,00:11:09.049,00:00:12.239,"OK, so are there other examples of brands that you're like maybe you're moving away from or you're like choosing to stop being their customer?",Speaker 1,not-edited
00:11:10.890,00:11:23.010,00:00:12.120,Really good question. So I'm really trying to think because it's it's been a few months since I legitimately spent money on things,Speaker 2,not-edited
00:11:23.610,00:11:30.149,00:00:06.539,"that's hey, listen, this is not a quiz or anything. So that's also really good information, too, that you're not spending that much money.",Speaker 1,not-edited
00:11:30.870,00:12:23.600,00:00:52.730,"I'm not, especially because I'm I've been indoors. But I think also very honestly, I spent a majority of my money on if I were to say I spend a majority of my money on experiences. So I'm I know I'm brand loyal. OK, I'll tell you this. Like, I know I will always probably buy new products when it comes to Sharmin County and Tide. It's stupid. It is what it is. I don't think that they're the best product. I think they just know what the consumers want, what they're willing to pay for. And I like it. They've removed all the thinking minus the stupid math about how many toilet bowls, what equals depending on what location, like that's insane. But like that I get. But outside of that, I, I don't know if I'm that loyal to any products.",Speaker 2,not-edited
00:12:24.520,00:12:30.640,00:00:06.120,"OK, yeah. Do you think that there's any brands out there that are like problematic?",Speaker 1,not-edited
00:12:33.140,00:13:08.640,00:00:35.500,"Most of them are around us are. So quick service restaurants, so all the young foods of Chick fil A. But mostly it's because of political affiliation more than anything else, right? I think they get themselves in hot water. I think if I were on the other side of the fence, then Nike would probably be one. But because I abide by the Nike political statements, I'm like, go Nike. Like, I don't buy your products, but go Nike like I support, you know?",Speaker 2,not-edited
00:13:08.640,00:13:14.610,00:00:05.970,That's great. I love that example. Are there any others that you think are doing some good stuff even if you're not a customer?,Speaker 1,not-edited
00:13:16.110,00:13:50.529,00:00:34.419,"That's a good one. I think I've they've been doing a really good job with their Black Friday campaigns of like go outdoors. Patagonia has been doing some really interesting Easter eggs, although I am pretty sure, like, there's been like two years ago, I think when Claire started selling those like eight hundred dollars or two thousand dollar like puff jackets. And since then, I've seen a ton of just like random sports brand pop ups that are more expensive than Patagonia pop up, but I think they're still pretty big and they're like hyper premium space.",Speaker 2,not-edited
00:13:52.780,00:14:02.350,00:00:09.570,"Before I move on to the next thing that you said that you like what Nike's doing, their message like, what can you articulate for me? What what that what's like resonating with you about Nike?",Speaker 1,not-edited
00:14:03.540,00:14:42.830,00:00:39.290,"Yeah, I think they've become a brand like more than their products, they've really been able to separate their brand and say this is exactly what Nike stands for and they've been able to link like the Tabachnick sort of sport that they ended up doing. But it like fundamentally links to who they are as a brand, who they pick to represent them. And it I can't articulate it because I haven't actually thought about this, but that links then to what each of their product lines stand for. You know, I mean, like it it just it flows and makes sense. So I think they've done a really good job of that.",Speaker 2,not-edited
00:14:43.770,00:14:55.919,00:00:12.149,"I love that story. Thank you. All right, so we're going to move on to, like, food. Like what? How does food and like just like eating. How does that fit into your life?",Speaker 1,not-edited
00:14:57.110,00:15:44.349,00:00:47.239,"Yeah, so this is also where I go through periods, I think food is interesting because it's like enjoyment, enjoyment, but it's also sustenance. I definitely go through periods of food as fuel versus food as enjoyment. And I separate foods based on fuel versus enjoyment. So I, I think if I were to be honest with myself, I've definitely gone through periods of time where, like I ate more packaged foods and that was sort of food as fuel versus then I would set specific categories of food or experiences aside and be like, I'm going to enjoy this. It's going to be full fat, full sugar, full, whatever it is, because that's the whole point of it.",Speaker 2,not-edited
00:15:45.540,00:15:53.280,00:00:07.740,"Got it, and so can you give me an example of like what when food is fuel, like what that looks like? Like what are you eating?",Speaker 1,not-edited
00:15:53.940,00:16:02.850,00:00:08.910,"Yeah, like Bird's got it for breakfast as well as like whenever I go hiking, I always have bars in my backpack.",Speaker 2,not-edited
00:16:04.500,00:16:16.429,00:00:11.929,"And, you know, overall, are there any, like, dietary restrictions or like choices that you're making and like your food. Paleo Akito,",Speaker 1,not-edited
00:16:17.570,00:16:35.630,00:00:18.060,"I know I don't. I think they're all fads. I think the whole like I'm like I will continue to have a weight issue for the rest of my life. But my philosophy is basically like move more than you eat. But that is more or less. What you need to do to lose weight,",Speaker 2,not-edited
00:16:37.670,00:16:44.299,00:00:06.629,"simple, simple philosophy, I like that, yeah, cool. No, go ahead. I don't interrupt.",Speaker 1,not-edited
00:16:44.300,00:16:55.940,00:00:11.640,"You know, then I was like, well, it's not just weight management. Then you have to think about health. So lik e colorful things, I think that's like that's like really simple, like very basic nutritionist one on one type.",Speaker 2,not-edited
00:16:57.050,00:17:16.839,00:00:19.789,"I love that sometimes my plate will look just very yellow and just plain gray. Right. All right. So like cooking, dining out takeout delivery. Like how does how do those like rank right now recently.",Speaker 1,not-edited
00:17:17.450,00:18:46.160,00:01:28.710,"Yeah. I think let's take the easy one. I think especially when I'm working 12, 14 hours a day like takeout or is just it's a tool. I know the food is going to be like stupidly expensive for no reason. I know it's going to be greasy. I know there's going to be imperfections, but it'll do. And whatever. I don't care. I think now you add the safety element of it and the fact that I am home all the time. So I do have time to cook it. It just we we probably we don't really do. When I when you say take Adama's means delivery as well, we probably do it like once a month just to change that up because there are foods that I don't know how to cook. So it serves more of that purpose. Cooking from home I think is preferable. It always just ends up being a time equation. And that is where, like, I think cooking is in my mind, cooking is starting from raw ingredients, not boiling pasta and adding a thing of prego, which is totally legitimate. It's just not what I consider cooking. I think dining out, it really depends. Most dining out is about hanging out with friends. So it ends up being much more of the ambiance and bonding versus the specific food. But I do spend money and I'm happy to spend money to actually then enjoy the food or like go out with my friends who I know are pretty as particular about food as I am.",Speaker 2,not-edited
00:18:47.720,00:18:57.890,00:00:10.170,"And so, like pre pandemic, those like did that change for you? They did like those three types of like eating experiences like do they look different",Speaker 1,not-edited
00:18:58.550,00:19:16.369,00:00:17.819,"now then versus now. Yeah, yeah. I don't go out with friends so yes. I don't go out with friends for either the bonding or the the dining out. I think now it's just cooking at home with my parents and then every once in a while we'll get takeout again just to mix it up.",Speaker 2,not-edited
00:19:17.930,00:19:30.500,00:00:12.570,"So I love the way you put it that sometimes food is fuel and then the other times food is enjoyment. Like when when is it that you get to enjoy food? Like, tell me about like like when it's time to do that.",Speaker 1,not-edited
00:19:31.410,00:21:24.849,00:01:53.439,"I think there's a few things. This is a really good question because it gets really complicated. I think there are times because I know what this interview is about, so I like it immediately as saliently to mind, even if we haven't gotten there yet. Right. I think there's food there. It can always be a treat. And so food is enjoyment can be like, I think pre pandemic. I'd go out and spend like many hundreds of dollars of on a really fine dining experience and probably would do that like once every two to three months. Right. Just because it I know it's going to be like an experience. I'm not going to like everything. I don't I don't love goat cheese, but you can serve me anything during those occasions. It's about like the chef's expression of their art, blah, blah. Right. So that is food is enjoyment. I think there's a street element which is much more frequent and depending on how much I'm working, how stressed out I am, more and more frequent, which is comfort foods. Right. So it's interesting because given I think age and dynamic comfort food is less lasagna and more like just food, I enjoy it in college. So it's ethnic food. It's like all your random ethnic foods that just happen to be my favorite. And then I think there's like everyday treats, which it really depends because I'm not a habit forming person, so I will even go through waves with that. But every day treats could mean just something different. Like if I have a moment of pause and I just want to take fifteen minutes to myself or it's like, wow, that was a shit day, I'm going to have a whiskey and whatever it is. And it could be a combination of savory or sweet foods. It's just really whatever I have deemed that I want to try. That's new and interesting at that point. Also, familiar favorites.",Speaker 2,not-edited
00:21:25.940,00:21:33.720,00:00:07.780,"Those familiar favorites that you're talking about, can you name some of those dishes that are like to give you that comfort?",Speaker 1,not-edited
00:21:34.250,00:22:17.460,00:00:43.210,"Yeah, so it spans across the board. I mean, I do like California. I don't eat bologna that much. Normally it ends up being like I'll go through periods of Chinese food, just like American Chinese food, like orange chicken, broccoli, beef type stuff, curries, as it's normally like North Indian curries versus those casseroles. It's normally like chicken tikka masala or like. Like parathas and I don't know, sublinear like that, like familiar Currys, Mexican food is normally just Tex Mex or Burrito's. Now, those are probably the easiest three categories,",Speaker 2,not-edited
00:22:17.910,00:22:23.640,00:00:05.730,"perfect, so if you cook, you cook with your family, do you enjoy cooking?",Speaker 1,not-edited
00:22:24.390,00:22:26.440,00:00:02.050,I do. I like cooking. It's a dish dresser.,Speaker 2,not-edited
00:22:26.850,00:22:29.070,00:00:02.220,Yeah. When did you learn how to cook?,Speaker 1,not-edited
00:22:30.290,00:23:13.079,00:00:42.789,"Out of necessity in college and then. I think it was a necessity out of college and then it was like, oh, I'm an actual adult, I'm going to my mom's not going to always be there for me. Let me learn all of her recipes. And then it's like, hang out with your friends and realizing, oh, you're not insert ethnicity here, but you're still able to cook, insert other ethnicity. Let me learn also how to do that. So then ended up just being like accumulating recipes. And nowadays it's just like. Some bored at home, it's what new thing can I make and can I find a recipe online that doesn't require me to buy like 40 different spices I've never used before.",Speaker 2,not-edited
00:23:14.550,00:23:23.210,00:00:08.660,"So can you tell me a story about like when you tried a new recipe, like where did you find it? Like how did you decide on it?",Speaker 1,not-edited
00:23:24.330,00:24:22.490,00:00:58.160,"Yeah, sure, so I can tell you a really recent one. Well, it's recently in the past and hopefully my future. So apple pie, it's apple pie season. So we all talk about apple puffs because that's what we did make last week. And then I'm, in theory, going to make one tomorrow. But it really was a couple of things. One, it's like I bought Granny Smith apples. So what recipes fit that? Then there was like the tailoring of recipes of like how many reviews does it have? How complicated is it? Did you tell me about your entire life before you gave me the recipe like those websites? It was like going through that and then it was looking at the recipe of like, what's the prep time? How many ingredients are there? Do I have all of the ingredients? What can I sell about if I don't proportion of like. Actual apples, like sugar and fat, things like that, yeah.",Speaker 2,not-edited
00:24:23.540,00:24:28.099,00:00:04.559,"So do you remember which websites you went to, or is it just Google?",Speaker 1,not-edited
00:24:29.010,00:24:30.790,00:00:01.780,"A lot of it is Google, to be honest.",Speaker 2,not-edited
00:24:31.230,00:24:33.579,00:00:02.349,"Yeah, do you have any favorite recipe sites?",Speaker 1,not-edited
00:24:34.260,00:25:06.270,00:00:32.010,"I do like I because I've been on this stupid Salvado journey along with every other 30 year old King Arthur Bread has a lot of his really good recipes and I use their flour. So they've been really helpful. But I'll usually like match that with just I can't remember their names, but I totally know what they look like. Just a few like bread guys on there, all guys but a few bread guys on YouTube that I'll follow it just to be like, wait, how did they do it. How is that different from the recipe and compare.",Speaker 2,not-edited
00:25:06.960,00:25:08.789,00:00:01.829,Do you remember any of these guys names.,Speaker 1,not-edited
00:25:09.330,00:25:13.910,00:00:04.580,"You know, but I can look it up and tell you. Sure. It's that simple.",Speaker 2,not-edited
00:25:17.040,00:25:17.880,00:00:00.840,Do you bake?,Speaker 1,not-edited
00:25:18.710,00:26:03.040,00:00:44.330,"I do I mean, I'm not a baker in the sense that I never got into cupcakes, like I only bake because of Salvado and every single recipe I make is like auto related. Got it. OK, hold on, Benjamin, with that, if he's like every day. Clearly, I subscribe to too many things. Hold on. There's a British bunch of guys like sorted food, so I'll look at some of the recipes sometimes, but again, not baking. I don't know if I can find them.",Speaker 2,not-edited
00:26:05.290,00:26:08.019,00:00:02.729,"Are you looking through, like, your Instagram or email?",Speaker 1,not-edited
00:26:08.590,00:26:10.329,00:00:01.739,I'm looking through YouTube subscription.,Speaker 2,not-edited
00:26:10.990,00:26:20.910,00:00:09.920,Oh. Are there any like. Is it mostly like different personalities or is it like any companies that you follow on YouTube?,Speaker 1,not-edited
00:26:22.140,00:26:51.900,00:00:29.760,"Sorry, one of them is Joshua Weissman. It's like normally people, they're like people. They're influencers. Right. And they happen to bake. And normally, if you look at the people I follow, they've probably been baking like two to three years and then like Instagram, like with more of a thing. And then now they've hopped over to tick tock, but like they've been baking for a while and now they've gotten big enough that their viewership is up. And I don't know if they have sponsorships, they probably.",Speaker 2,not-edited
00:26:52.800,00:26:59.520,00:00:06.720,"So is it because like brand content, it is not good or there's just like no brand content on your tongue?",Speaker 1,not-edited
00:27:00.090,00:27:47.489,00:00:47.399,"I don't know. I don't know that I look at branded content like I know Tastee comes up. I do. I also know that I've seen Tacy videos that are utter bullshit, so I just don't trust them. Yeah, I also I mean, I know this is old, but I'm like, just because you put chives on it does not make this healthy. Like you just put just cheese butter on top of bacon, like get over yourself. Bon appétit. It just like post Blim, I just don't watch them anymore, and it was always like the lifestyle fun thing, it was never like I'm actually going to do these recipes. Got it. So normally, like, if it's recipes, it's like influenza's OK.",Speaker 2,not-edited
00:27:48.270,00:28:06.050,00:00:17.780,"One last question in this category is across dining things that you've cooked, pre pandemic post pandemic, like maybe what are some of the most memorable things that you've eaten or like the like eating experiences.",Speaker 1,not-edited
00:28:06.570,00:29:28.519,00:01:21.949,"Yeah, this I'm really snobby. I immediately have all of them. They're all fine dining and they're like. The moment where I was like, I have never eaten anything like this before, this is so amazing. So there are a few that come to mind. I had like raw scallop scallop crudo in. Brussels, Belgium queen, I've had old Le Bernardin in New York has this like goat's milk. Sorbet. Well, they used to it always that, like, it's so fresh that it tastes like grass. It's so weird. It's like, yeah, I was like, I can I you literally you can taste the like the process. So it would be things like that where I was like, wow, this is absolutely amazing. I had a I had one. This one was interesting to me that it sticks out, but it was like a pretty hipster type of restaurant in Cleveland. It was it massively, massively expensive. But I had this like it's a PB and J except like the bread is just nice bread. The peanut butter was flogger and then the jam was like this lingonberry jam that was really delicious. So it's always like some weird random thing that I try it that just sticks out in my mind.",Speaker 2,not-edited
00:29:29.310,00:29:31.649,00:00:02.339,Cool. I'd like to try that.,Speaker 1,not-edited
00:29:33.450,00:29:34.650,00:00:01.200,Me too. When this is over.,Speaker 2,not-edited
00:29:36.030,00:29:37.079,00:00:01.049,So do you travel a lot?,Speaker 1,not-edited
00:29:38.490,00:29:40.619,00:00:02.129,I travel a lot and I've lived in a lot of places.,Speaker 2,not-edited
00:29:41.070,00:29:46.979,00:00:05.909,Got it. All right. Chocolate. Tell me about your relationship to chocolate.,Speaker 1,not-edited
00:29:48.720,00:30:43.230,00:00:54.510,"I'm not I'm not obsessed with chocolate. I also have an interesting I will separate my chocolate consumption into I just want chocolate right now. And normally it's like milk, chocolate or just shitty chocolate. And then I have the chocolate that I enjoy and I want to be able to savor. That's like higher and chocolate. I'm also a person that theoretically likes chocolate more than I actually like chocolate. And I say this because I will have I will like I won't have that much trouble at home, but I'll have like random bars that I've bought because they were interesting. I've never seen it before, whatever it is. Or like it was interesting, these or whatever, whatever reason I bought it. And then I realized that I haven't eaten chocolate in a while and I have all these random bars laying around in my house. And then I'll go through phases where I'm just like eating shit like Kit Cat and I'm fine with that.",Speaker 2,not-edited
00:30:44.130,00:30:58.739,00:00:14.609,"I do. I did the same thing I like. Yeah. Yeah. So can you remember, like if we focus on more of like the the less Kit Kat, not Kit Kat but more like the Cho stuff. Some of the best stuff that you've had recently,",Speaker 1,not-edited
00:30:59.670,00:31:00.689,00:00:01.019,I mean literally Cho,Speaker 2,not-edited
00:31:02.700,00:31:04.469,00:00:01.769,remember I don't work for Cho so you can talk about it,Speaker 1,not-edited
00:31:04.470,00:32:33.439,00:01:28.969,"and I don't know, I mean I know I get it, but it's Cho. There was a friend that oh my God, I forgot their name. They're based in there's another brand that they're based in Berkeley is. And they had a store in San Francisco when I lived like 10 years ago when I lived there. They were on almost par. It's not a I promise, but they were almost on par with Cho. But it's all my assessment of Cho in this brand, which I cannot remember for the life of me, it's all pre aquisition thoughts. But like they were bought by Hershey's, that company was Hershey's and this one bought by Glaxo because it was like some person really love chocolate and want to like Central America and source these amazing freaking beans and walk you through the process. And he knows Dave, who owns the cow and like, it's the best milk chocolate you've ever had. And then they grow, they get bought. And now like the cow, like the milk is from somewhere in Wisconsin. Davis no longer in the picture. And I don't know, I'm probably reading into this, but like, it changes the quality of the chocolate experience, whether it's actual or perceived. And I'm sure the chocolate formulation has not changed at all. And I just have a bias, whatever reason it is, I just don't think it's the same.",Speaker 2,not-edited
00:32:34.130,00:32:36.170,00:00:02.040,Maybe schaffen burger. Is that what you're thinking of?,Speaker 1,not-edited
00:32:36.200,00:32:37.279,00:00:01.079,Yes. Thank you.,Speaker 2,not-edited
00:32:37.850,00:32:42.460,00:00:04.610,Yes. So you know about acquisitions. How do you know about this stuff?,Speaker 1,not-edited
00:32:44.140,00:33:35.259,00:00:51.119,"Shuffleboard, just because I literally used to live there and I remember I like Hershey's and then I remember trying it and their milk chocolate literally, it just wasn't as fatty like they didn't use the same percentage fat milk or something. And then from there, I started to pay attention because I found out about Cho. I think I don't remember how I found out about Cho, but I found out about them. And it was right around the time that the market had won like the world's greatest chocolate bar or whatever. And I thought it was amazing. And I kept buying it year after year. And then this time when I bought it this year, I realized it was like half the price, like it went from eight ninety nine Abad's like four dollars. And I was like, no, no. Like you didn't change your supply chain magically, like something happened in the mix here. And then I realized that they and then I looked it up and they were bought by the Japanese company.",Speaker 2,not-edited
00:33:36.550,00:33:39.219,00:00:02.669,Does that. How does that make you feel?,Speaker 1,not-edited
00:33:39.820,00:34:03.520,00:00:23.700,"I don't know, because I don't know anything about this Japanese company. You know what I mean? Like, it's different, like. If her she bought it, maybe hopefully they've learned from how much they've messed with short for progress, that they can do better, and they they didn't do a good job of integrating the small company into the behemoth. But I don't know, like I wouldn't have that much confidence in them.",Speaker 2,not-edited
00:34:05.050,00:34:10.959,00:00:05.909,"OK, that's fair. Do you think you're really loyal to Kraft chocolates, different companies?",Speaker 1,not-edited
00:34:11.739,00:34:18.219,00:00:06.480,"I'm not loyal to any company, but I'm loyal to the category. I would say the category.",Speaker 2,not-edited
00:34:18.699,00:34:20.019,00:00:01.320,What do you mean by chocolate?,Speaker 1,not-edited
00:34:20.739,00:34:50.290,00:00:29.551,"I will buy Kraft chocolates, but when or how I buy it, it literally is when it's served up to me. So it's less about me was different. Cho was because I was bored at home and I like went on their website purposefully and bought their chocolate. But normally when I buy chocolate, it's because I'm in a Whole Foods, I'm in a random cool coffee shop somewhere like wherever the hell I am, it comes to me and then I buy it like I'm not purposefully seeking it out.",Speaker 2,not-edited
00:34:51.670,00:34:55.269,00:00:03.599,So is that how you buying chocolate nowadays? Post pandemic?,Speaker 1,not-edited
00:34:55.810,00:34:58.119,00:00:02.309,"I go online and I buy it, yeah.",Speaker 2,not-edited
00:34:58.130,00:35:02.150,00:00:04.020,"Are you buying it like Amazon on the website, like Target Dotcom.",Speaker 1,not-edited
00:35:02.800,00:35:38.680,00:00:35.880,"I normally I try to buy direct wi. First of all, I don't think I knew. I don't know that most of the Kraft chocolates, like I don't know what their distribution is like, and I'm not going to search for different grocery store websites or retailer websites to try and find which one has the brand that I want. Because if I'm quarantined and nothing's getting served up to me, I'm going to go back to my familiar favorites. And second, I know obviously your website is going to tell them it's your website, so it's just it's easier.",Speaker 2,not-edited
00:35:39.250,00:35:52.840,00:00:13.590,"Got it. So I'm now I'm now imagining that island Whole Foods, that has the whole wall of Kraft chocolates. How are you picking like a chocolate to try?",Speaker 1,not-edited
00:35:53.320,00:37:14.459,00:01:21.139,"Yeah, it's pretty. It's so a couple of things. The normal organized process is like, what type of chocolate do I want? What percentage of historic events? Milk, chocolate. And I don't really buy white chocolate butter, white chocolate nuts, no nuts fruit, which is the horrible European thing that I'm glad isn't in here. But if you want free or whatever, then I'm literally buying based on am I familiar with your label? What with your brand? What is on your label like? Is it single source? Is that multi source? Are you like propaganda or whatever? There's so many different, there's so many different designations of like fair trade. There's not there's not very many, there's not like one single one. There's different ways that you can say it or if it's like, yes, chocolate can be vegan, I guess it could be. But like, if it's single source, a fair trade, non GMO, like all the things that you could possibly give a designation to when it comes to food and just looking at. Like, which one stands out or is interesting? Do you have an interesting story to tell? What is your label look like? How corporate view look versus how it does it look like you just randomly threw a label because your printer asked you for one I don't like. Those are all the random vectors and.",Speaker 2,not-edited
00:37:15.510,00:37:23.580,00:00:08.070,What would win like like of the factors that you like? Is it a good. Is it a good logo or is it a sloppy logo or is it like.,Speaker 1,not-edited
00:37:24.700,00:38:05.510,00:00:40.810,"I think it depends. So if I'm in a little bit more of a rush or like I just need to make a decision, I'll probably go to a brand that I'm familiar with literally just because I know I'll like it versus and that that is actually true flavor wise, too. Right. So if I'm going to have some sort of random inclusions in my chocolate, I'm going to do it. I'm going to choose one because. I've had it before and I'm familiar with it, versus if I had a little bit more time, like, yeah, I probably like if your label looks extra shitty, I may give you extra credit for looking extra shitty. I don't know why it's counterintuitive.",Speaker 2,not-edited
00:38:06.390,00:38:11.340,00:00:04.950,"All right. Now that works. Are there any brands that, like you tried and you're like, no, thank you.",Speaker 1,not-edited
00:38:15.850,00:38:24.349,00:00:08.499,"No, I think chocolate is like wine, like there's definitely I know I've had a chocolate bar that was like this isn't my favorite, but do I remember the brand? Probably not.",Speaker 2,not-edited
00:38:24.910,00:38:32.889,00:00:07.979,"Got it. So when you're buying chocolate, are you usually buying it to eat for yourself as a gift? Are you baking with chocolate?",Speaker 1,not-edited
00:38:33.860,00:38:59.900,00:00:26.040,"I want to speak with chocolate. They're like very specific brands that I bake with when I buy it for other people. Actually, they're probably specific brands that I buy for other people, but I'll probably go a little bit more experimental with my flavors. And then when I'm buying for myself, that's when I really get to kind of like explore. And I'm not buying to eat the whole bar right then and there, nor am I buying to eat the whole like I never eat a whole bar in a setting.",Speaker 2,not-edited
00:39:01.910,00:39:06.469,00:00:04.559,"Yeah, what type of what do you what do you relying on when you're baking them?",Speaker 1,not-edited
00:39:10.140,00:39:16.929,00:00:06.789,"They're like. Ay ay ay ay, literally by baking chocolate to bake",Speaker 2,not-edited
00:39:18.430,00:39:19.210,00:00:00.780,"on the website,",Speaker 1,not-edited
00:39:19.810,00:39:59.669,00:00:39.859,"on the website, I think I used to buy from burgers sometimes the deli, there's a new Italian brand that's like chocolate chip. See that? That in the grocery store that I'll buy every once in a while. I think the higher quality chocolate you buy, it drizzles, it melts and drizzles differently. It's not oil, it's actually cream. So like the way that it melts. So if it's chocolate chip cookies, like no one is going fine. But if you're making like. A chocolate drizzle or you're covering madeleines or something like that matters how, because it impacts your end product, then you want to buy the chocolate that has a good melting process.",Speaker 2,not-edited
00:40:01.450,00:40:05.289,00:00:03.839,And so maybe you said this already. How did you hear about Cho for the first time?,Speaker 1,not-edited
00:40:06.380,00:40:12.500,00:00:06.120,"I don't remember I remember when I heard about it, I just don't know how I don't remember how I heard about it.",Speaker 2,not-edited
00:40:13.490,00:40:17.090,00:00:03.600,"What do you do, you know, anything about the show is a brand or the story?",Speaker 1,not-edited
00:40:19.030,00:40:36.039,00:00:17.009,"I think they're based in San Francisco. I think they have a store in the federal building. And I think they I don't know, they make really good chocolate. That's all I know at the assumption about them going to Latin America and hang out with farmers. I mean, probably is true, but I have no idea.",Speaker 2,not-edited
00:40:37.060,00:40:49.330,00:00:12.270,"That's perfect. What do you think the word Choa means? No idea. So if you've tried their bars, you've tried they're baking chips. What other stuff have you tried, frontrow?",Speaker 1,not-edited
00:40:50.140,00:40:51.469,00:00:01.329,I have their lives right now.,Speaker 2,not-edited
00:40:52.020,00:40:54.489,00:00:02.469,"Yeah. Yeah. OK, cool.",Speaker 1,not-edited
00:40:55.670,00:40:58.269,00:00:02.599,"I mean, that's what they taste like and I'm fine with that.",Speaker 2,not-edited
00:40:59.860,00:41:03.900,00:00:04.040,And are you mostly buying online or are you also getting it in stores?,Speaker 1,not-edited
00:41:04.660,00:41:58.329,00:00:53.669,"I don't know where they sell it and I've never bought it in store before. I think I know I was introducing I remember I was I just moved to Cleveland. I was introducing my coworker to Milkha, which hadn't expanded outside of New York. And and so, like, we did this huge Milkha order and he's like, hey, have you tried to go? And I was like, never heard of it. So then we did a huge kill order as well. Like, we just banded a bunch of coworkers together. So we were just like all eating and trying this food. And I really like the Moggridge are. So that is how I I think I'm pretty sure that's how I experience it. And again, I don't know that I've ever seen it in stores. So and I don't buy it that often. I probably buy it once or twice a year like in bulk. But that is the only way that I buy a home.",Speaker 2,not-edited
00:41:58.810,00:42:01.300,00:00:02.490,And then what is it about show that you like so much.,Speaker 1,not-edited
00:42:02.370,00:42:03.099,00:00:00.729,"The quality,",Speaker 2,not-edited
00:42:03.570,00:42:07.710,00:00:04.140,"the quality, what is what does the quality mean to you with this chocolate,",Speaker 1,not-edited
00:42:08.160,00:42:14.520,00:00:06.360,"its flavor mouth feel fat content, fat content for milk chocolate. Yeah.",Speaker 2,not-edited
00:42:15.510,00:42:26.260,00:00:10.750,"Are you are you. So you do a mix of milk and dark or is it all milk. OK, got it. That's the next question is what does quality mean to you, just like in general?",Speaker 1,not-edited
00:42:27.480,00:42:28.309,00:00:00.829,"In food,",Speaker 2,not-edited
00:42:29.040,00:42:30.079,00:00:01.039,"yeah, let's talk about food.",Speaker 1,not-edited
00:42:30.940,00:42:44.400,00:00:13.460,"All sorts of ingredients, manufacturing processed. I guess you can put ingenuity in there, but it's mostly the first two.",Speaker 2,not-edited
00:42:44.920,00:42:48.119,00:00:03.199,Yeah. How are you how do you learn about the manufacturing process?,Speaker 1,not-edited
00:42:49.080,00:42:51.399,00:00:02.319,You watch how it's made because it's really interesting.,Speaker 2,not-edited
00:42:52.140,00:42:57.570,00:00:05.430,"Oh, you're the second person that we've spoken to that loves that show. And I love the show. Yeah.",Speaker 1,not-edited
00:42:58.470,00:43:06.250,00:00:07.780,"So, you know, I was I was just going to say it's like it's really cool to see how food is made or anything, really.",Speaker 2,not-edited
00:43:06.840,00:43:13.980,00:00:07.140,"Yeah. So are you researching, like, different brands? Like if it's like, I don't know, Doritos. Are you looking it up?",Speaker 1,not-edited
00:43:15.130,00:43:39.670,00:00:24.540,"Let's be honest. Everyone knows Doritos is crap and we're OK with the fact that it's crap and it's going to be very processed unnecessarily. I think I definitely short-handed to make assumptions from a trough. I know we're not. I know you're asking in general, but from a chocolate perspective, it literally is from the taste. I will back into it,",Speaker 2,not-edited
00:43:41.360,00:44:02.139,00:00:20.779,"you know what I mean? Yeah, that's that's really interesting. OK, last last category of questions in this post pandemic world, it's really changed, like how we're able to connect with people and then also like how we're able to explore. How do you think of those two topics, how that's changed for you?",Speaker 1,not-edited
00:44:04.890,00:45:26.730,00:01:21.840,"Connecting with people is an interesting one for me. I say this because, again, I literally move a lot. I've moved every two to four years for the last 20 years, so I move a lot. So I'm used to talking to people via text message or video chat or whatever that is. I think I miss the human element of because I normally am also then in a city where I have friends. So I miss I missed that part. But it's also interesting because I had literally just moved. So from a quarantine perspective, I feel like I missed exploring a new city and meeting people. On the other hand, there's nothing to miss because I just moved there. So it's an interesting dynamic. I face time with my friends more. I think I used to just call them. And now it's like we all miss human interaction, so I might as well see you while I'm talking to you. I think in terms of explore, it's just changed what I'm exploring. So it used to be like travel with my friends is normally to travel to a different country to see something interesting or to like it's a cultural experience with my parents, with traveling, to go hiking, and it's much more outdoors focused. And now it's like gardening, making bread and making new things like crosswords, like just other ways to explore.",Speaker 2,not-edited
00:45:28.270,00:45:41.500,00:00:13.230,"I love that. So how would you I get I get the examples that you're using, like gardening and crosswords, but like, what are you exploring now? Like, is it like exploring your mind? Is it exploring?",Speaker 1,not-edited
00:45:43.010,00:46:25.670,00:00:42.660,"I think it's exploring hobbies, it's exploring like another thing that you can learn how to do. Oh, I like that. That's good. I think it's more it's changed from you experiencing entertainment and outside stimulus into you creating your own entertainment and outside stimulus you like. I think quarantine has forced I mean, unless you're just Netflix until all the time, fine, whatever. But unless it's happening like you are, literally the difference is, whereas you are an audience, you're now forced to be a participant.",Speaker 2,not-edited
00:46:26.060,00:46:32.389,00:00:06.329,Mm hmm. Mm hmm. What are some of the reasons why you move around so much?,Speaker 1,not-edited
00:46:34.580,00:46:57.320,00:00:22.740,"Work, boredom. For more, I get bored with the city. Normally, it's like there's a new job opportunity, so I may leave a city I like for the right job opportunity. And then if I'm in a city that I'm like, I don't love it here anymore, then I'll move because like not like with the same company. Right. I'll just be like, hey, can I change locations? Thank you.",Speaker 2,not-edited
00:46:57.720,00:47:04.570,00:00:06.850,Yeah. When do you. What what is it. What's happening when you're getting bored with the city?,Speaker 1,not-edited
00:47:06.500,00:47:53.560,00:00:47.060,"On. I guess it's one of two things. So I'll give you examples, Austin and Cleveland, I literally grew out of because there are only so many things you can do that in that city and not repeat. Over and over again, I could stay in New York forever, but that was a career move. The Bay Area was it was a combination. I mean, I love the Bay Area in theory, but I was also moving for grad school slash, like leaving an X. So there a whole emotional bunch of bullshit. And then like D.C. was because I I thought D.C. was too sterile, so I just actually just didn't like the city.",Speaker 2,not-edited
00:47:59.500,00:48:03.159,00:00:03.659,Do you think the pandemic has made. Anything better?,Speaker 1,not-edited
00:48:06.650,00:48:19.119,00:00:12.469,"Probably, yes, for you. Oh, I was like, I don't know, oh, I, I've saved more money. Yeah, yeah.",Speaker 2,not-edited
00:48:19.370,00:48:21.619,00:00:02.249,What do you what do you think? You're spending less money on the,Speaker 1,not-edited
00:48:22.490,00:48:26.520,00:00:04.030,discretionary stuff going out to eat the big trips.,Speaker 2,not-edited
00:48:26.930,00:48:27.430,00:00:00.500,Yeah.,Speaker 1,not-edited
00:48:27.530,00:48:35.300,00:00:07.770,"OK, I don't have to shop for clothes if I'm wearing the same t shirt and jeans every day. Yeah. Same yeah.",Speaker 2,not-edited
00:48:35.840,00:48:49.780,00:00:13.940,"All right. Last question is. Assuming that this pandemic is going to go away, right, and one day we're going to go back to normal for you. What do you think is going to go back to normal? And what do you think has changed for good?",Speaker 1,not-edited
00:48:51.380,00:49:59.389,00:01:08.009,"That's a really good question. I don't think I would get answer to that, huh? For me personally. I. I don't know, I think probably what will happen during the post pandemic, assuming this magically goes away like from one day to the next, there's not like a transition period is like I will probably go out a ton and just, like, fly to see my friends go hang out with my friends I haven't seen in a while. There's just going to be so it literally will be ditching everything from quarantine and going to a just because I need the change. But I think in the longer term it'll probably be like. Being OK with the fact that, hey, I'm probably going to just spend this weekend with myself and like, go do some random hobby that I picked up during the pandemic just because it's nice. And I don't I don't have another I don't have a good answer for that. That's a really good question.",Speaker 2,not-edited
00:49:59.410,00:50:08.679,00:00:09.269,"You know, it's OK. I love that. I loved what you said. Thank you. So that's it? That's all the questions I've got I. Do you have any questions for me? I always like to leave it open.",Speaker 1,not-edited
00:50:12.430,00:50:14.619,00:00:02.189,I'm curious why you're doing this research.,Speaker 2,not-edited
00:50:16.810,00:50:21.219,00:00:04.409,"It's a good it's a question a lot, yeah, do you do market research?",Speaker 1,not-edited
00:50:22.420,00:50:40.879,00:00:18.459,"No, but I've seen it before. Yeah, I've been I've been I've been the person taking notes right now and taking notes, but I've never I've never been I've never really been the moderator or in this chair. So I always thought it would be fun to experience it from the question answer perspective.",Speaker 2,not-edited
00:50:41.320,00:51:26.210,00:00:44.890,"Yeah. I mean, Charles always looking for ways to. Be better and improve. Right, and so some of the best places, some of the best information that they can understand is what the customers, people that are buying their products, what what do they care about? I can't tell you exactly why we're using it, but I mean, you subscribe to the newsletter, I'm sure, if you like, keep your ears open for the next year or so, then you'll probably find out. That makes sense. Yeah. Hey, Jamie, I really enjoyed talking to you today. This was a lot of fun and I will send you that. That gives cert and you can get yourself all the chocolate you want.",Speaker 1,not-edited
00:51:26.930,00:51:28.959,00:00:02.029,I appreciate it. Thank you so much for chatting with me.,Speaker 2,not-edited
00:51:29.600,00:51:31.219,00:00:01.619,Yeah. Take care. Have a good night.,Speaker 1,not-edited
00:51:31.550,00:51:33.110,00:00:01.560,OK. Have a good night. Bye.,Speaker 2,not-edited