In,Out,Duration,Text,Speaker,Status
00:00:00.510,00:00:08.069,00:00:07.559,"Sue, if you don't mind, just introducing yourself, what's your name, age and occupation?",Speaker 1,not-edited
00:00:08.940,00:00:22.410,00:00:13.470,"Sure, my name is the only one. I'm thirty nine name age occupation. I'm a consultant that works on political campaigns and issue based advocacy.",Speaker 2,not-edited
00:00:23.160,00:00:24.729,00:00:01.569,Very cool. How long you been doing that for?,Speaker 1,not-edited
00:00:26.040,00:00:32.630,00:00:06.590,"I have been in the in the issue advocacy sector for over a decade, but as a consultant more recently.",Speaker 2,not-edited
00:00:33.150,00:00:36.250,00:00:03.100,Very cool. Congrats. And where do you live.,Speaker 1,not-edited
00:00:37.350,00:00:38.470,00:00:01.120,"Oakland, California.",Speaker 2,not-edited
00:00:39.270,00:00:42.749,00:00:03.479,Very cool. And can you describe your household?,Speaker 1,not-edited
00:00:43.590,00:00:56.159,00:00:12.569,"Sure. I live in an intergenerational household. We have my mother, my brother, my husband, and then my two kids who are they're four and seven.",Speaker 2,not-edited
00:00:57.090,00:00:58.950,00:00:01.860,Amazing. What are their names?,Speaker 1,not-edited
00:01:00.420,00:01:03.700,00:00:03.280,The boys names are Jamen and Tim women.,Speaker 2,not-edited
00:01:04.379,00:01:16.709,00:00:12.330,"Oh, cool. That's awesome. And just so I can get a sense of what your hobbies are like, what is a typical weekend look like now nowadays?",Speaker 1,not-edited
00:01:16.720,00:01:45.500,00:00:28.780,"Yeah, they are. I mean. Catching up on work, um, you know, like the basic household management stuff, cleaning, try to take the boys out to get like outdoor some contact with like leaving our household once, if not twice. So once a day. Um, yeah. Just hanging out with all we do is hang out with each other now. So.",Speaker 2,not-edited
00:01:46.500,00:01:47.699,00:00:01.199,And how did that look like?,Speaker 1,not-edited
00:01:49.980,00:02:12.899,00:00:22.919,"I mean, a pandemic, it would say we were just like a lot busier with with. A lot of kids, birthday parties that pretty much like overtook a lot of our weekends and the more recent years, but then similarly, like getting out with a family, also getting together with friends and girlfriends for meals or having people over.",Speaker 2,not-edited
00:02:14.040,00:02:18.739,00:00:04.699,What are some hobbies that maybe you keep for yourself or between you and your husband?,Speaker 1,not-edited
00:02:20.250,00:02:40.919,00:00:20.669,"You know, I. I love reading. I haven't been doing it a lot. But just like historically reading, also a lot of crafts I kind of have been doing, that's still a little bit, but not as much as I should be doing it more. But I don't because I think I've just been like stressed out with work. But yeah, a lot of crafting.",Speaker 2,not-edited
00:02:41.470,00:02:45.030,00:00:03.560,Is that like like needlework or like quilting?,Speaker 1,not-edited
00:02:45.330,00:03:29.879,00:00:44.549,"No, it's more like making like making what? Like my more recent craft project was making Neidl I'm sorry, not Neidl, whether magnet's for my kids, for them to do like their circle time and so like painting different weather depictions or gosh, what else have I done? Yeah, I mean, going into the holidays will probably do a lot of like holiday crafts, like, just like it's more like kid focused crafts and gifts, like trying to teach my son he he did last year, but he'll probably sew ornaments for his family members for gifts.",Speaker 2,not-edited
00:03:30.550,00:03:31.330,00:00:00.780,"That's so nice,",Speaker 1,not-edited
00:03:31.540,00:03:41.139,00:00:09.599,"that kind of thing, and then kind of picking up raising monarch caterpillars, it hasn't been like a passion, but that started during the pandemic.",Speaker 2,not-edited
00:03:42.300,00:03:43.229,00:00:00.929,"Like live ones,",Speaker 1,not-edited
00:03:44.540,00:04:22.249,00:00:37.709,"like we planted milkweed and a girlfriend who is like very into it gave like I fostered some eggs and then they hatched and became caterpillars and then became Chrysalis and then were born as butterflies. And then we just found actually we had we had brought those into an enclosure, but we just found out last week, like caterpillars that are just growing, they're alive and eating the milkweed. It's kind of late in the season, so I'm not sure if they'll survive. But yeah, that's something I'm very passionate about.",Speaker 2,not-edited
00:04:23.010,00:04:28.470,00:00:05.460,That is really cool. I'm going to have to tell my husband about that and maybe we'll we'll copy.,Speaker 1,not-edited
00:04:28.470,00:04:33.209,00:00:04.739,"You know, you should plant where in where in the country are you?",Speaker 2,not-edited
00:04:33.600,00:04:44.249,00:00:10.649,"Oh yeah. Yeah. Sorry, I forgot to do introductions. So I work at a company based out of Brooklyn, but post pandemic where my husband and I are in Woodstock right now in New York.",Speaker 1,not-edited
00:04:44.700,00:05:05.939,00:00:21.239,"Oh yeah. I wonder. I know that they are on the East Coast too. So in the spring. Yeah. If you plant milkweed then I think they've all kind of migrated from the colder climates. Yeah. But they. Yeah. Yeah. It's really, it's a it's, it's actually really amazing to, to like just go through the whole lifecycle.",Speaker 2,not-edited
00:05:06.950,00:05:10.379,00:00:03.429,"They end up in Mexico, don't they, like, migrate to one spot in Mexico?",Speaker 1,not-edited
00:05:10.760,00:05:24.170,00:00:13.410,"They do, but I think because just like conditions are changing, like I I heard yesterday that there might be like a local place where they're going to show over the winter. Cool.",Speaker 2,not-edited
00:05:25.190,00:05:39.680,00:00:14.490,"I'm totally getting off topic, but I'm definitely going to look this up afterwards because I love animals and bugs aren't shopping like and this doesn't have to be just grocery, but like shopping for clothes or like things like what does that look like nowadays?",Speaker 1,not-edited
00:05:40.700,00:06:16.730,00:00:36.030,"And it's all online pretty much. I mean I've gone to before last week, last week I did go to Target like four times, but before that I had only been like maybe two or three times since March. It's pretty much all online grocery shopping. We do Costco like once a month and then we do like kind of grocery trips here and there. But we've also done a lot of delivery because my mom is older. We've just been like, very cautious.",Speaker 2,not-edited
00:06:17.500,00:06:25.449,00:00:07.949,"Totally, and then what did it look like before the pandemic, first shopping and then groceries on groceries?",Speaker 1,not-edited
00:06:25.510,00:07:24.369,00:00:58.859,"I feel like it's like I don't like grocery shopping, but my mom, my husband with grocery shop. So it would be like the like the Korean grocery store, like every other week, if not every week. Oh, we are also right now, we go to the farmer's market to once or twice a week because it's like it's outdoors. So it's like easy. We would go we actually go to the farmer's market more now than we did before the pandemic because it's like we feel like it's safer and we do it like probably a lot of online shopping for clothes and like toys or other things. But also we're definitely like get away to to go out shopping without the kids. But yeah, I haven't been to like a clothing store since this all happened.",Speaker 2,not-edited
00:07:25.620,00:07:32.470,00:00:06.850,"What type of were you at, like malls or like where were you shopping mostly before?",Speaker 1,not-edited
00:07:32.970,00:08:06.769,00:00:33.799,"Yeah, so like the East Bay where we live, we don't really have malls. We have like shopping, like prominent like others like I mean, we would go to go shopping, we would either go to Walnut Creek, which is like a suburb which sounds like an outdoor it's like a mall I guess, but it's outdoor. That's probably the place that I would go most to feel like to go clothing, shopping. And then like we yeah, we would go to Target a lot. Despite their political contributions, we still like to shop at Target.",Speaker 2,not-edited
00:08:07.500,00:08:09.299,00:00:01.799,I think I know about this. What is Target?,Speaker 1,not-edited
00:08:10.440,00:08:30.929,00:00:20.489,"They're conservative. I don't know if they're like Trump supporting conservative, but they were big. They gave a lot of money to like anti-gay marriage campaigns. They're based out of Minneapolis. And yeah, they're just historically a conservative company. They're not like as bought as Home Depot, but they're not great.",Speaker 2,not-edited
00:08:31.920,00:08:33.839,00:00:01.919,Or I know Home Depot either,Speaker 1,not-edited
00:08:34.470,00:08:41.340,00:00:06.870,Home Depots like like basically CEO or like Major Trump supporters like financially.,Speaker 2,not-edited
00:08:41.840,00:08:46.100,00:00:04.260,Hmm. And how are you learning about this stuff?,Speaker 1,not-edited
00:08:47.160,00:09:19.330,00:00:32.170,"I mean, I think it's. I think Target's political contributions were more apparent, like during a lot of the gay marriage fights, and they might become more so now that the Supreme Court has like it, like, I think, you know, gay marriage, abortion, those are all going to be issues that are going to be like have even more attention than they have in Home Depot. I feel like it's like been ah, it's it's been circulating. But yeah, there hasn't been like a big pick up in the media around it. Oh.",Speaker 2,not-edited
00:09:22.140,00:09:29.309,00:00:07.169,"So it's interesting, I'll skip to that question, because that's a question that we have, is like, are there any other brands that you find problematic?",Speaker 1,not-edited
00:09:30.990,00:10:33.269,00:01:02.279,"Oh, well, like in California, I mean, I think Uber, Lyft are like totally tainted in California as brands for like like progressive folks. You know, they're pouring Uber, Lyft, Jordache postpaid. They've poured like two hundred million dollars into trying to pass Prop 22. So I think right now, like, they are very compromised, not for everyone, but for people like in my circle and even in my circle. Actually, I have. A couple of friends who work at those companies, and so that's been yeah, that's just something I think Disney is tainted. It's interesting because I don't think the Star Wars franchises, but Disney itself is because of the 15 fight here, which is around raising commercial property tax to current current property values. So those are some brands that I feel like are really tainted Chick fil A",Speaker 2,not-edited
00:10:34.530,00:10:35.489,00:00:00.959,that I know about.,Speaker 1,not-edited
00:10:37.050,00:11:09.350,00:00:32.300,"Yeah, like bullying. I'm trying to think what else? Yeah. I'm not like I I've definitely become more conscious or interested in, like, clothing brands. But that hasn't been for me, something that has been so like like, yeah, I haven't like I haven't been, like, really aligned on values with clothing brands.",Speaker 2,not-edited
00:11:10.420,00:11:12.580,00:00:02.160,Do any come to mind right now?,Speaker 1,not-edited
00:11:12.790,00:11:42.549,00:00:29.759,"I mean, like all of them, like or like the ones I mean, like everything that's like mass produced, you know, like it's like J.Crew get like all of them. I mean, I feel like I did a lot to recover their like their brand. But I think that all of the larger companies are compromised. But that hasn't kept me from, like, not buying like my kids stuff from like each of them. Mm hmm.",Speaker 2,not-edited
00:11:43.360,00:11:50.290,00:00:06.930,Do you think let's maybe go to the flipside. Which brands do you think are doing some really good things or exciting things?,Speaker 1,not-edited
00:11:51.040,00:12:23.889,00:00:32.849,"Yeah, so I've been really interested in this brand. I haven't bought anything yet because I haven't really shopped for like clothing during the pandemic. But there is this brand called Vata Vita that I'm really interested in buying something from. And then Quiana is a brand that I do like. I really I like the esthetic. Otherwise I feel like the only things that I really bought or like like getting shirts from political campaigns that I donate. Yeah.",Speaker 2,not-edited
00:12:24.000,00:12:29.139,00:00:05.139,So what is it about Vita and Quiana that you think are interesting?,Speaker 1,not-edited
00:12:31.010,00:13:01.839,00:00:30.829,"I think both of them I mean, both of them are about kind of like the the kind of like capsule wardrobe kind of vibe, like they're more expensive, but you know, that it's like sustainable either it's like sourced sustainably and there's definitely like a labor component to it and then it's more quality. So I think generally for like myself, I think I want to move like towards like purchases that are like in line with those values.",Speaker 2,not-edited
00:13:03.460,00:13:07.330,00:00:03.870,Do you think that's like just in clothes or like across everything that you're spending money on?,Speaker 1,not-edited
00:13:08.380,00:14:03.909,00:00:55.529,"I mean, food is something that's really important to us that we like know about, like like company practices and like moving like I mean, you know, it's interesting, just like generationally like with my mom, I'm like, don't buy me and seafood at the Asian store. I like the sourcing in particular can be problematic, but she's like, you know, she's like it's all the same. And so and that kind of stuff, like we we largely by like organic and you know, even at Costco, like, I don't we don't feel that we feel good about supporting Costco because they have good labor practices and largely like pay beyond living wages. But even Costco is like it's like it's like to be a source of contention in our house because I feel like I'm more on the side of like, if you buy more, you're going to consume more. And like I like the rest of the adults in the household, don't necessarily have that hang up.",Speaker 2,not-edited
00:14:05.030,00:14:07.850,00:00:02.820,"So it's like reducing consumption, like important to you?",Speaker 1,not-edited
00:14:08.630,00:14:30.929,00:00:22.299,"Yeah, it's super important to me, even like in like kind of on the like the the environmental impact end of like waste, but also around like like decreasing meat consumption. And I also I want my kids to be like, really aware of that. So like, I think that's something that we talk about a lot.",Speaker 2,not-edited
00:14:33.520,00:14:38.169,00:00:04.649,"I had a I had a question and I lost it. Oh, Amazon. What do you think about Amazon?",Speaker 1,not-edited
00:14:38.680,00:15:00.819,00:00:22.139,"Oh yeah, Amazon is hugely awful, but we but we use it like I mean, I think that, like, there are a lot of inconsistencies, you know, like that I like recognize and especially during the pandemic, we've we have relied on it a lot.",Speaker 2,not-edited
00:15:02.290,00:15:06.830,00:00:04.540,What is like like maybe what are some of the things that you find problematic about Amazon?,Speaker 1,not-edited
00:15:08.200,00:15:48.820,00:00:40.620,"I mean, I think it's on multiple levels. One is the inability of small businesses to compete in particular, like of course, like how Amazon started with book stores, like we're all a family that, like, really values books and reading and like the lure of like getting books at a reduced cost and quickly has definitely been something that we've taken advantage of. But we've been trying to really make a conscious effort to buy from local bookstores even before the pandemic. And then I think the use of independent contractors for their delivery folks and then kind of working and working conditions and wages for like the actual employees now.",Speaker 2,not-edited
00:15:49.480,00:15:55.210,00:00:05.730,But thank you. My husband and I are like we still keep our Amazon Prime account.,Speaker 1,not-edited
00:15:55.210,00:16:01.630,00:00:06.420,And it's hard it's hard on the data thing. Really scares me to,Speaker 2,not-edited
00:16:02.500,00:16:17.589,00:00:15.089,"it's just like one thing after another that. Yeah, they got a lot of information, don't they. OK, I'm going to move on to food, just food in general. What role does food play in your life?",Speaker 1,not-edited
00:16:19.880,00:17:27.279,00:01:07.399,"Um, well, I grew up in an immigrant family in Arizona, like one of very few Korean American families. And so food has always been about culture and my connection to, like, family across different like vast like I mean, my parents immigrated and they initially came as students in nineteen eighty. So you can imagine like letter writing and like the very rare phone calls were the ways that we were connected and especially being in Arizona and not along the coast. So for my mom, I think food became this like way to way to connect and she was really lucky to grow up also in a family like that, really valued food and huge family gatherings. And so I think that's like for me, like like when I think of food, that's it's like connection to family heritage and and storytelling, like generational storytelling that comes along with food.",Speaker 2,not-edited
00:17:27.760,00:17:33.009,00:00:05.249,"Um, I love that. Do you do you guys cook a lot at home?",Speaker 1,not-edited
00:17:33.850,00:19:01.609,00:01:27.759,"Well, right now we're like cooking exclusively pretty. I mean, that's not true. We do. We have we do get takeout, but we cook a lot. My brother is in the food. He's in the bar industry. So he's actually been out of work since March. And I mean, he could have gone back when they reopened, but because my mom lives in this household like we like, it just wasn't like a good idea. And so he's been cooking a lot. And like, yeah, it's been really nice because we've kind of like like he makes like when my mom first came to America, one of the first things that she bought because she was pregnant with me, she was missing Korean noodles. And so she bought she spent more than a week's worth of like her budget and she bought this Italian pasta maker. And when I was little, she would make noodles for us because it wasn't possible to get like Korean noodles unless you made it at home in Arizona. But when my brother he's six years younger than I am when he was born, there were like more grocery stores. And but when she moved from Arizona to here, she actually brought the pasta maker with her. And so, like, it's been like after like a 30 plus year like of disuse, like they are using it to, like, make noodles with with the kids. So I got a lot and it's like very like slow cooking.",Speaker 2,not-edited
00:19:02.710,00:19:05.739,00:00:03.029,And it seems like it's like the whole family gets involved.,Speaker 1,not-edited
00:19:06.550,00:19:25.420,00:00:18.870,"Yeah, the kids, my mom cooks and my brother cooks, I since my mom moves in with us, I cook rarely and I've always really loved to cook. And so, yeah, it's interesting. I feel like I hardly cook now. I do bake with the kids. That's like something we do a lot of.",Speaker 2,not-edited
00:19:27.400,00:19:37.280,00:00:09.880,Were you guys like before the pandemic. Were you like how much were you guys eating out or like how did that look a little different if at all.,Speaker 1,not-edited
00:19:38.770,00:20:02.470,00:00:23.700,"I mean we, we eat out maybe like once a week as a family and now we just like do takeout, especially like when my brother and my mom made a break. Yeah, we do takeout. We want to, like, support, you know, the restaurants. So and my brother, having been in the industry, also feels really strongly about, like, supporting restaurants.",Speaker 2,not-edited
00:20:03.940,00:20:06.040,00:00:02.100,What kind of places are you getting takeout from?,Speaker 1,not-edited
00:20:07.570,00:21:05.890,00:00:58.320,"Oh, gosh, we have a couple of favorites. We have like two Mexican restaurants in the neighborhood that they're both the dark areas. So we're getting food from there. And then we have we rarely get Korean food because we cook it at home at sometimes. And then we do a lot of takeout from Southeast Asian restaurants like Lao restaurants in particular. There's two local restaurants that we like. There's one Cambodian place. There's like a local Chinese, like kind of like Chinese American food that we like. We love like their family, too. They're all these are all like independently owned small businesses. And then my kids really like habit burger, which is like a chain. They love the chicken nuggets from there. So we end up like there a few times a month to a school.",Speaker 2,not-edited
00:21:07.000,00:21:12.189,00:00:05.189,"And then when you're like dining out like pre pandemic, like what kind of restaurants are you going to.",Speaker 1,not-edited
00:21:13.060,00:21:15.789,00:00:02.729,These are the same places and places for.,Speaker 2,not-edited
00:21:18.600,00:21:24.220,00:00:05.620,Maybe can you tell me the last thing? That you all made in your kitchen.,Speaker 1,not-edited
00:21:26.640,00:21:38.910,00:00:12.270,"Yesterday, my mom made roasted vegetables and they made mashed potatoes in the insta pie and my brother grilled salmon on the on the grill.",Speaker 2,not-edited
00:21:39.630,00:21:45.150,00:00:05.520,"Oh, how do you know how they came up with that recipe? Or is it just like, oh,",Speaker 1,not-edited
00:21:46.920,00:22:37.349,00:00:50.429,"I think we've just been like like when we go to Costco, we buy like a lot of protein, like that's what Costco it's like. And like we like so much money like Costco, because it's all like like different kinds of protein. And so it's just trying to make like some sort of protein with some sort of starch. And we have rice usually like. Yeah, more often than not. And then the veggies, like roasting them is really easy. I mean, like my mom, like Cranford is like very time consuming to me. And like we make so much less of it now because I think it's just like really hard for her to she's like getting older. Um, I think that they they oh I know how they like they both like look online for recipes with my kids too. My kids are like super into looking for like cooking videos online.",Speaker 2,not-edited
00:22:38.250,00:22:43.829,00:00:05.579,It's cool. What type of stuff are you cooking for. For when you work. Cooking more.,Speaker 1,not-edited
00:22:46.630,00:23:33.920,00:00:47.290,"Gosh, it was like when my kids were like like I was when I had only one, but I've always cooked like a mix of Asian, kind of like California, like like what's in season type of stuff. Cook sometimes Middle Eastern. Like, there was a time when I was like really into, like, making hummus and maybe making barbecues and like like so there was like and parsley salad, but yeah, mostly like Asian. And my husband is half Vietnamese. And so we would cook like like Vietnamese food, Korean food, rarely cook Chinese food, cook Mexican food. Yeah.",Speaker 2,not-edited
00:23:34.730,00:23:40.200,00:00:05.470,Oh that sounds delicious. What type of stuff you're baking now.,Speaker 1,not-edited
00:23:41.190,00:24:18.729,00:00:37.539,"Oh lots of cakes. My son really loves like. Yeah he just loves cake so we're just doing a lot of like a quiet cake, like lots of egg whites, less flour. The thing that he baits this week with my mom was a black sesame cake. So they like crushed the black sesame. So they were like trying to experiment for Halloween. Tonight, I'll make pumpkin Motoki cupcakes for tomorrow. So that's like something I have on my plate tonight to do.",Speaker 2,not-edited
00:24:19.280,00:24:38.320,00:00:19.040,"Oh, I was like distracted by thinking about what those cupcakes are going to taste like. Do you do you have any, like, dietary restrictions in the house, like whether or not it's like is there anything that you guys, like, try to avoid or you like you're making efforts to do?",Speaker 1,not-edited
00:24:38.930,00:25:23.869,00:00:44.939,"I mean, there's no there's no, like, allergy driven restrictions, which is nice. Like, I think my husband and yeah, my husband is like tries to stay away from carbs. But ways like we don't really I mean, like, my big thing is like like my mom, it wasn't like this when we were growing up. But she likes to give my kids sweets like they buy like, like crap at the grocery store that I would never have been able to buy when I was little. And so, like, it's like there's like struggles around that, maybe like reducing consumption of like sweets and junk. Yeah.",Speaker 2,not-edited
00:25:26.290,00:25:32.500,00:00:06.210,"All right, chocolate, we're going to finally talk about chocolate. What is your relationship to chocolate?",Speaker 1,not-edited
00:25:34.260,00:27:24.349,00:01:50.089,"So when I was little, I didn't like sweets, I was like this like, I don't know, but I always remember, however, we would always have like like the Hershey's like powder and in the sirup. And once in a while I would want to have like chocolate milk and I would make it and we would drink it. But there were never any restrictions around it. It was just kind of there. And I think because I didn't really like like it that much. Yeah. So it had chocolate like like Hershey's chocolate injury and kick cats. I still like cats. But I didn't really, like, get into, like, I don't think I think I was like in college when I first tried my first Snickers because I just wasn't interested in it. And then kind of when I got older, I want to say I was probably when I was in law school, which was like when I was like twenty six, twenty seven, I started to just like become more interested in like different kinds. And I think I came about it because I was interested in like the labor movement and then like the chocolate trade and like industry. And that's when I started to like and then I was in Berkeley, which is like, you know, like very foodie. So then that's when I started to like discover like like or just become interested in different kinds of chocolates. And and because I don't really like super, super sweet stuff, I think like I mean, I love like dark chocolates and I really like, like the bitterness of it. And also after I had kids I developed as more of a sweet tooth, I think. So, yeah.",Speaker 2,not-edited
00:27:25.310,00:27:29.029,00:00:03.719,"It's so interesting, we'll be learning about with labor stuff and chocolate,",Speaker 1,not-edited
00:27:30.260,00:28:41.130,00:01:10.870,"and it's just kind of in the in the entire in length the study of like extractive economy, basically, and like and the flip side of it. And I think that that in my twenties is when I at least I became very attuned to like fair trade, like the fair trade movement. So I think that that's like how I got really interested in it. And my kids love sweets, so they're actually very into chocolate. And so, like, I've really wanted to, like, teach them about it. And there is this really great book called I think it's called Cocoa, as I call Cocoa. But there's there's this, like book because I was trying to get them into a class to learn about chocolate. So I took this was last fall before the pandemic I took them to and I try to go to church because they used to have a chocolate tour, a chocolate factory, but it's since been closed. And so I took them to dandelions in the city where, like, you see them breaking down the cocoa beans and they have, like, the whole process that you can actually witness. So we've been doing, like, doing that as a family.",Speaker 2,not-edited
00:28:41.900,00:28:54.589,00:00:12.689,Mm. That's I'm going to check out this book. So Dandelion is a brand that you know about. Like what other chocolates are part of your regimen. I don't know. Like in your cupboard.,Speaker 1,not-edited
00:28:55.530,00:30:00.690,00:01:05.160,"I think we've, I mean so we've bought the I like because of the connection to the East Bay. Alter ego is another like brand that is is just like really good. Otherwise like I don't really buy it, but again, like I don't really buy chocolate but we get gifted it a lot. Oh, when I was little I remember there was this whole thing around, I don't know, like a lot across a lot of Asian immigrant families like Ferreiro Share where like looked at is like this like really high class, like chocolate you gift. So definitely those were in the mix in my childhood too. But we don't buy for a share the other way we get chocolate. Are these like Japanese and Korean mushrooms? They're like little mushroom crackers that have like a chocolate like head and then pokey sticks like that's the other kind of chocolate that we that we do buy those because like, again, this is like what my mom buys that which I wouldn't buy my kids.",Speaker 2,not-edited
00:30:01.710,00:30:09.920,00:00:08.210,"So are you so you don't buy chocolate that much, or are you like, how are you? And you're getting gifts mostly as chocolate.",Speaker 1,not-edited
00:30:10.910,00:30:39.199,00:00:28.289,"Yeah, I got we got a lot of gifts as chocolates, so but I will if we don't have it, I will get like pick up a bar of dark chocolate with almonds are like like my favorite is dark chocolate, just pure like or or with like sea salt and almonds. Like, I just like like maybe those two varieties. My husband likes chocolate, though, so he probably buys it and hides it from me.",Speaker 2,not-edited
00:30:40.700,00:30:47.979,00:00:07.279,How are you guys when you buy it? How are you guys doing it? Is it like at the stores or online?,Speaker 1,not-edited
00:30:48.290,00:31:22.250,00:00:33.960,"It's at the store. I have bought. I just bought, like the second online order I chose this last week, actually. What did you buy? I bought gifts for some of our clients in in Georgia because they're having a hard time in Georgia. And I was like, what are we going to send them? That's going to make them feel better. So we sent some chocolates to them.",Speaker 2,not-edited
00:31:23.950,00:31:34.820,00:00:10.870,"So when you're buying it in the store. How do you decide what you're going to get like, when do you when do you buy chocolate? Like what's what's inspiring you to get a chocolate bar that day?",Speaker 1,not-edited
00:31:37.130,00:31:51.500,00:00:14.370,A lot of it is stress driven. I my old office used to be right next to Whole Foods and so I would take a walk there and go buy chocolate bars as other places. I would have chocolate is that word. Got it. I worked with like a group of people and we would always have chocolate.,Speaker 2,not-edited
00:31:55.400,00:32:07.820,00:00:12.420,"So I'm thinking about the Whole Foods wall, like there's so many chocolate, right, Kraft chocolates and there's like so many to choose from. How are you picking out a chocolate bar?",Speaker 1,not-edited
00:32:10.070,00:33:09.910,00:00:59.840,"Well, I believe I they're like my my consulting partners now, but we were all in it together, they I always make fun of them because I make fun of myself more like they're like five or six years younger than I am. And I would be like, oh, like, you know, they would usually bring, like, a new product that they really like to work. And then we would just like replicate it, Cho was introduced to me through, I remember, or another one of my colleagues whose friend worked there before. And given that it's like a East company, so, yeah, we I do look for brands that seem like if I know that there's a connection to the Bay Area like that, something that does drive me, but I don't know a lot about like the different brands. I just know, like the few that, like, I would get in, then I just would get the same over and over again.",Speaker 2,not-edited
00:33:10.540,00:33:14.230,00:00:03.690,"So you kind of just stick with what's familiar. Got it,",Speaker 1,not-edited
00:33:16.240,00:33:31.499,00:00:15.259,"or what's on sale, like if there's like a really good sale, unlike a certain like, you know, like buy two for I don't know however much, can't even remember how much a chocolate bar cost now. But yeah, that would be the other way that I would experiment. Mm.",Speaker 2,not-edited
00:33:32.570,00:33:45.830,00:00:13.260,"And when you look at the packaging, is there any stuff that you are looking for, is there stuff that you like to see? Is it just like colors? Is it about labels?",Speaker 1,not-edited
00:33:47.330,00:34:34.959,00:00:47.629,"Yeah, that's that's a really good question. I do like more of like well, I guess both. I like either like a very classic looking package, like even like the gold etching with like kind of like really pretty fun or on the reverse. I like like the kind of the like like a more a more a kind of fresh packaging like eye-catching color is easy to read. Bold font like. Yeah I'm, I'm not someone that's really drawn to like pithy kind of packaging like that has like puns or whatever. Like that wouldn't that wouldn't attract me to pick it up.",Speaker 2,not-edited
00:34:37.639,00:34:47.690,00:00:10.051,"And so you told me how you learned about how do you know anything about the brand, about who they are, like what kind of company they are.",Speaker 1,not-edited
00:34:48.920,00:35:05.630,00:00:16.710,"Um, I so I haven't really looked into it deeply. I just know that they're they're based here in the Bay Area and I've heard good things and I can't even pinpoint where I've heard good things about like people working there, being happy.",Speaker 2,not-edited
00:35:06.230,00:35:15.800,00:00:09.570,"Oh did you use it when you're buying Cho, is that usually just to eat, like as a snack or are you baking with it?",Speaker 1,not-edited
00:35:16.760,00:35:53.770,00:00:37.010,"I haven't baked with it. I haven't gotten their powder yet. So it's been what I really like is they make like the little squares. Like, that's like perfect for me, like it's just a tiny little square that I can, like open. It's not overwhelming like their chocolate bars. The last last week when we bought some, we got. I liked that the packaging was like distinctly Bay Area because we were sending it to our folks and our clients in Georgia. So that was nice to be able to have something that. That showed where it was from.",Speaker 2,not-edited
00:35:54.790,00:36:20.280,00:00:25.490,"I think I know which gift boxes you're thinking of, like that's like a gift set, right? Yeah, cool. I'm trying to think of anything else about chocolate that I need to ask. Well. OK, so last section, less like a set of questions is what does quality mean to you? When you're thinking about let's start with chocolate.",Speaker 1,not-edited
00:36:23.500,00:36:42.260,00:00:18.760,"I would say like purity of ingredients and then also that it represents like integrity in terms of a brand, you know, like like when talking about like like beer sourcing fair wages. Hmm.",Speaker 2,not-edited
00:36:43.570,00:36:50.019,00:00:06.449,"And does like what does that still hold true when you're talking about, like, food in general?",Speaker 1,not-edited
00:36:50.850,00:37:24.599,00:00:33.749,"Yeah, yeah. I mean, I think that's like what we like aim for. I think the reality is, is that like like I have in my class in like I'm in my brother's apartment right now, but like I have like Eminem's and kick outs for the kids tomorrow. So like we're still buying like crap, but. Yeah. All right, I try to have quality, but I also, like, definitely don't practice little time.",Speaker 2,not-edited
00:37:29.210,00:37:34.429,00:00:05.219,Do you think any brands are really nailing quality for you like that definition that you just shared with me?,Speaker 1,not-edited
00:37:45.770,00:39:21.560,00:01:35.790,"There is this business that, like we eat like it's a food business, but it's it's it's called Margherita and and it's also like a really amazing story. So immigrant mom who sold like Tomalis as a street vendor for many years and then her daughter grew up on school, grew up, and then mom, the mom and the daughter became participants in this incubator called La Cocina in San Francisco that incubates food businesses run mostly by immigrant women and women of color. And then they opened an actual like brick and mortar last year and they closed it sometime in the early part of the pandemic. But they've continued to to do pop ups like a standing pop up at this library that's close to us. And like we like like I feel very loyal to their brand, into their story, into their business. Like I want to support them. They're really good at telling their story. They also like partnering with other businesses to like to really raise up other, like, really great stories. So I like I feel like when they post something about a food business, like I feel compelled to go and follow these other businesses. And they also use like non GMO like organic corn products. It's just like all around like that's the type of business that I would I want to support.",Speaker 2,not-edited
00:39:23.360,00:39:30.030,00:00:06.670,"I love that and I'm going to look that up afterwards. I think that's really interesting and it's like a commission, like they have the clear mission.",Speaker 1,not-edited
00:39:30.710,00:39:52.370,00:00:21.660,"Yeah, yeah, they're awesome. And they're so nice, like the whole family in it. Like during the holidays, they get a lot of orders for Tomalis and but like and actually last Thanksgiving my mother in law was like, I'm not cooking. And so we just did like a huge Tomalin order from from them. And like that's what we all like. It was great.",Speaker 2,not-edited
00:39:53.700,00:40:08.329,00:00:14.629,"Awesome. So pandemic world connecting to people and. Kind of like adventure and exploring have changed, right? So how is that changed for you?",Speaker 1,not-edited
00:40:11.660,00:41:02.489,00:00:50.829,"Well, I think we're going to value I think we were kind of trending this way already, like starting last year, like we were telling the kids like. Like, no more Christmas presents, like we'll do like some sort of family trip instead. That was the first year that we did that. And this year we're going I don't know what we're going to do, but, yeah, I just want to, like, spend more time, like having meaningful outings and like. Yeah, like going to a restaurant, like going to a restaurant we feel good about supporting. So I think that our consumption in a lot of ways hopefully will reduce in quantity and increase in quality. Uh.",Speaker 2,not-edited
00:41:03.690,00:41:11.619,00:00:07.929,"I love that. And then what about like, did you guys travel a lot as the family before?",Speaker 1,not-edited
00:41:12.790,00:41:56.860,00:00:44.070,"I mean, we've been to like something like both kids have been born. Gosh, I mean, we've done like road trips in like in the Northern California area. We actually took them to bend, Oregon, and then got caught in, like, the really bad fires not that long ago. Oh, yeah. Do we travel a lot? Not really. I mean, we took them to like, can we've been dealing with only like longer trips we've done with them or to like Hawaii and Vancouver. We were supposed to be to do a trip to Spain and Italy this summer that got canceled. So we want to definitely prioritize and travel with them.",Speaker 2,not-edited
00:41:57.990,00:42:08.630,00:00:10.640,Power. Power. How are some ways that you try to. Like create adventure or explore or exploration with your family nowadays.,Speaker 1,not-edited
00:42:11.010,00:43:00.269,00:00:49.259,"We haven't been great about it, but I think it goes back to, like reading like I wouldn't say like the kids like sense of adventure. Has decreased with the pandemic, I think it's like a lot of books and my brother has been really good about taking we live like we live 50. Everyone in the Bay Area was like 15 minutes away from, like a forest. You know, it's like they go up to the redwood, like when the weather is good, they would go like a few times a week and like, he's definitely taking them on. Oh. One big thing is, like, my brother and I grew up fishing. It's like a very southwestern thing to do. But he and he's kept it up. I have it. He's kept it up, but he's teaching my boys how to fish.",Speaker 2,not-edited
00:43:01.420,00:43:27.680,00:00:26.260,"That's really cool. And then, you know, assuming and I believe, like one day this pandemic is going to go away and we can start to return back to normal, maybe. What do you think for you and your family? What will go back to the way things were? But what things do you think are, you know, kind of different forever? Mean.",Speaker 1,not-edited
00:43:35.170,00:45:02.770,00:01:27.600,"I hope that we all like like slowing things down, like like I was saying before, like we'd be so busy with, like work hustle and then like like I don't think we have to go to every kid's birthday party. And I actually hate kids, birthday parties. I like to throw them like I do like to host people, but like I'm just like I don't like socializing with people, but my husband loves it. So it's fine. He would take the kids birthday party. But I also think for the kids, I want to prioritize them having sustained contact with like and we were we were pretty good about this. But there is a group of like five families. We went before we were kids. We all lived in D.C. together, and then we all moved back to California together. And we all have kids and they're each other's like like fictive kin, like they're like they're each other's cousins. But I think I want to do more to make sure that they get like more time together than less. And I think. Yeah, I think yeah. Making sure, like, again, like the relationships are deeper than past hopefully will be something that we can do because like we've kind of had to do that. We don't we only see one family, like my kids have one set of playmates. Yeah. Oh.",Speaker 2,not-edited
00:45:03.850,00:45:19.220,00:00:15.370,"All right, Bonnie, thank you. That's those are all questions I have for you. I really appreciate your honesty. And it was really cool getting to know you this past like 15 minutes. Do you have any questions for me? I always like to leave it open just in case I can answer anything for you.",Speaker 1,not-edited
00:45:19.810,00:45:43.599,00:00:23.789,"Yeah. So this is the first time I've ever done something like this. Yeah, but I was really interested because like, you know, in my work, like, I'm trying to develop like more user focused and user friendly processes for doing evaluation and like and.",Speaker 2,not-edited