In,Out,Duration,Text,Speaker,Status
00:00:00.540,00:00:05.249,00:00:04.709,"All right, for the record, can you please let me know your name, age and occupation?",Speaker 1,not-edited
00:00:05.880,00:00:12.899,00:00:07.019,"Yes, my name is Michael MCIs. I'm twenty five and my job title is accounting manager.",Speaker 2,not-edited
00:00:13.260,00:00:14.760,00:00:01.500,Accounting manager. And where do you live?,Speaker 1,not-edited
00:00:16.140,00:00:22.120,00:00:05.980,"So I am currently in Reno, Nevada. I'm in the process of moving to Seattle, Washington.",Speaker 2,not-edited
00:00:22.590,00:00:25.350,00:00:02.760,"Oh, very exciting. What's what's bringing you to Seattle?",Speaker 1,not-edited
00:00:26.280,00:00:42.600,00:00:16.320,"I did a job so I started about a month and a half ago, but I'm remote right now, but they're so Seattle. So eventually, hopefully there will be an office that I will be working in and that is in Seattle.",Speaker 2,not-edited
00:00:43.170,00:00:45.299,00:00:02.129,"Well, congratulations and good luck on the move.",Speaker 1,not-edited
00:00:45.750,00:00:46.590,00:00:00.840,Thank you.,Speaker 2,not-edited
00:00:47.820,00:00:52.240,00:00:04.420,"And then can you describe, I guess, in Reno what your household looks like?",Speaker 1,not-edited
00:00:53.040,00:01:19.680,00:00:26.640,"Yes. So, oh, it's changed a little bit in the last year. I currently live with two other people. They are it's my brother and sister in law. My brother is thirty eight and my sister is twenty nine. And then we had two other roommates living with us during the year, but they have both relocated to different areas.",Speaker 2,not-edited
00:01:20.700,00:01:26.919,00:00:06.219,So it was five and now it's three. Three. Yeah. Yeah. Very cool. Do you happen to have any pets.,Speaker 1,not-edited
00:01:27.330,00:01:27.830,00:00:00.500,Yes.,Speaker 2,not-edited
00:01:27.900,00:01:30.540,00:00:02.640,Do dogs tell me their names please.,Speaker 1,not-edited
00:01:31.290,00:01:39.329,00:00:08.039,Otto and Naadam for them is a purebred Siberian husky and Otto is just this like massive mutt.,Speaker 2,not-edited
00:01:40.020,00:01:53.790,00:00:13.770,"Very cool. Very cool. It's fun to have dogs around. OK, so just so I get a sense of what your hobbies are, what do you do on a typical weekend nowadays?",Speaker 1,not-edited
00:01:55.470,00:02:30.550,00:00:35.080,"So when it started I got very into running because it got me out of the house and it was good exercise. That was probably a big one. I'm just into a lot more outdoorsy stuff, a lot more hiking. I go for like three walks a day. I think a lot of biking, I still for I I'm beginning to like cooking and baking, so I've spent a lot of time cooking, but that was something I was doing beforehand, too.",Speaker 2,not-edited
00:02:31.970,00:02:37.099,00:00:05.129,And is there anything that's different now that the pandemic started or is it always been those hobbies?,Speaker 1,not-edited
00:02:38.240,00:02:53.060,00:00:14.820,I was much more of a gym person. I'm not a runner. It was very much a covid hobby that I picked up. I spent a lot of time at the gym. I'm a very big traveler. I really enjoy traveling and obviously haven't done too much of that.,Speaker 2,not-edited
00:02:53.090,00:02:56.930,00:00:03.840,But what was the last trip that you took?,Speaker 1,not-edited
00:03:00.120,00:03:17.009,00:00:16.889,"I I went to Indiana a couple of weeks ago to some friends, and I got together and we we ran a marathon that was yeah, it was really cool. That was so like I was my, like, covid projector's. I started running and then three weeks ago, I ran a marathon.",Speaker 2,not-edited
00:03:17.520,00:03:22.620,00:00:05.100,"So your first marathon. Holy smokes. Congratulations. That's a big day, don't you?",Speaker 1,not-edited
00:03:22.770,00:03:28.050,00:00:05.280,"Yeah, it was really cool. It was a very, very painful experience, but I really enjoyed it.",Speaker 2,not-edited
00:03:28.980,00:03:35.720,00:00:06.740,Wow. So you're doing like gym stuff before. What other things did you do socially?,Speaker 1,not-edited
00:03:37.780,00:03:57.680,00:00:19.900,"Oh, the bar's quite a bit. I'm very big into, like, going out dancing with my friends. That one hurt the. I think we go out to eat, we did that quite a bit to. Yeah, I would say.",Speaker 2,not-edited
00:03:58.720,00:04:00.340,00:00:01.620,What's your favorite type of dance music?,Speaker 1,not-edited
00:04:01.180,00:04:11.460,00:00:10.280,"Oh, man. I've gotten very much more into EDM in the last few years because I've made a lot of Vegas last year.",Speaker 2,not-edited
00:04:11.920,00:04:15.759,00:00:03.839,"Nice, very fun. That'll come back right. One of these days it'll come back.",Speaker 1,not-edited
00:04:16.390,00:04:18.100,00:00:01.710,"Oh, we can only hope.",Speaker 2,not-edited
00:04:19.990,00:04:34.630,00:00:14.640,"OK, so I'm going to I'm going to ask some questions about like shopping and shopping can span more than just groceries. It's like anything that you spend money on. What did what did your shopping habits look like before covid started?",Speaker 1,not-edited
00:04:37.910,00:05:35.800,00:00:57.890,"I I really enjoy cooking a lot, and so I go to the grocery store a lot and I think I have definitely cut down on the number of troops I'm making and the places that I'm going have been going to a lot more all encompassing. So going to use a Wal-Mart or a WinCo instead of going to Sprouts and Trader Joe's and WinCo. I think that was a big, big change I. I don't necessarily know other shopping habits in those terms, should I? I'm not huge into shopping and if I am, it's usually online. So that didn't really change a ton. I think at the beginning of covid, I was doing a little bit more online shopping just because I was bored and needed some kind of joy in my life. But other than that, I wouldn't say that they changed the time.",Speaker 2,not-edited
00:05:36.910,00:05:50.320,00:00:13.410,"And so let's start with, like the online shopping you're doing. Maybe before covid was that on like Amazon, where you shopping for a lot of gym stuff online? Like what was the type of stuff you're into?",Speaker 1,not-edited
00:05:51.700,00:06:24.120,00:00:32.420,"Yeah, I spend a lot of money on activewear and that I think that's probably only gone up since covertness started. I don't use Amazon a ton. My brother works there and he hates it, so I try not to support them a ton. Let's see. Yeah, I would say, look, I have a couple. Affected were response that I really like tend to show up on their websites quite a bit, and then",Speaker 2,not-edited
00:06:24.570,00:06:26.240,00:00:01.670,what are the names of those websites?,Speaker 1,not-edited
00:06:26.940,00:06:40.850,00:00:13.910,I really like athletic Vidacare. That's another one that I really like. There's one more I think of it. There's one more.,Speaker 2,not-edited
00:06:42.500,00:06:50.870,00:00:08.370,"That's perfect. So it was like online before, now it's like and then it jumped up, you were shopping more and now it's kind of like evened out a little bit.",Speaker 1,not-edited
00:06:51.290,00:06:58.970,00:00:07.680,"Yeah, yeah. I would say, like my habit for clothing and décor and all that. I haven't changed too much.",Speaker 2,not-edited
00:07:00.380,00:07:05.089,00:00:04.709,So were there any stores that you like to go into to go shopping.,Speaker 1,not-edited
00:07:06.170,00:08:14.089,00:01:07.919,"Yes. Nordstrom Rack I really like and I went there yesterday and I was like, I don't really want to be here anymore. This is not close, but I am going out shopping as there used to be. My brother works at I don't know if you've heard of Shields. So it's like a sporting goods store. It's like Dick's Sporting Goods, but on steroids. So I end up going there quite a bit because he's got a discount and it's nice to use discount. Kind of think well. Yeah, I would guess it probably I ended up just in the last few years, become a lot more online shopping, especially Raino doesn't necessarily have the world's greatest shopping here. So it's not like I'm missing out on too much. If I if I go to a bigger city that actually has shopping worth going to, I'll be more like made well. I really like if I'm tired of them, like our voices, those kind of brand.",Speaker 2,not-edited
00:08:15.980,00:08:29.360,00:00:13.380,"And so you you mentioned a little bit about your grocery shopping like and you named a bunch of different stores before covid like, how did you decide which store to go to?",Speaker 1,not-edited
00:08:32.360,00:08:57.289,00:00:24.929,"I love Trader Joe's because they just have such a great product range. Sprouts is amazing produce. I always go there, but everything else is very expensive. So I don't do like my my normal groceries, my parents like my nonperishable and then so I'll go to like a WinCo or a Wal-Mart and be like the nonperishable stuff.",Speaker 2,not-edited
00:08:58.160,00:09:04.140,00:00:05.980,And so post covid you said you like minimize the number of trips you're taking. So what are your top favorites now?,Speaker 1,not-edited
00:09:05.360,00:09:18.590,00:00:13.230,"I usually just go to like a WinCo or a Wal-Mart once a week, and then if I absolutely need something, I'll go somewhere else. But I just keep it to once a week at one store where I can get everything.",Speaker 2,not-edited
00:09:19.670,00:09:22.639,00:00:02.969,And then are you buying any groceries online?,Speaker 1,not-edited
00:09:24.800,00:09:31.309,00:00:06.509,"I've done the pick up pick up in store, but I haven't done delivery.",Speaker 2,not-edited
00:09:32.960,00:09:34.339,00:00:01.379,How do you like to pick up in store,Speaker 1,not-edited
00:09:35.150,00:09:47.370,00:00:12.220,"they use so many plastic bags? That's why I always think it's great. It's really nice, but it's like every single thing comes in its own plastic bag. And I just I don't love that.",Speaker 2,not-edited
00:09:47.990,00:09:49.139,00:00:01.149,What are you love about it?,Speaker 1,not-edited
00:09:50.270,00:10:06.580,00:00:16.310,"It's very wasteful. I try to be very conscious about. My consumerism and I, I just generally always bring reusable bags then to come home and I have like 20 plastic bags and like a I don't want these and B, this is very wasteful.",Speaker 2,not-edited
00:10:07.600,00:10:21.249,00:00:13.649,"Yeah, I get that. So you name some brands that you like, like altor voices maybe. Is there like other ones that are like jumping to mind that are like favorites of yours?",Speaker 1,not-edited
00:10:22.120,00:10:51.750,00:00:29.630,"I love Bambuser. Patagonia's the big one. I feel like a lot of the brands that I really enjoy are just a they've got a good product would be they're very socially responsible, very socially conscious companies. I really like I have a pair of ASICs running shoes, I love a six. I think what our problem is a favorite, I just they do really high quality activewear.",Speaker 2,not-edited
00:10:53.400,00:11:02.850,00:00:09.450,"So I love the way that you describe that, that it's a good product and it's socially responsible for that. You just name. Do they both meet those criteria?",Speaker 1,not-edited
00:11:06.000,00:11:59.790,00:00:53.790,"Patagonia does outdoor voices, definitely does. Zabaleta, I would say. Tries to be at the core they're not and asix I so I was on the track and field team in college and so I'm a big supporter like anything track and field, and they are a big sponsor of a lot of track and field, a professional track and field athletes. So I really like inadvertently it's like I know that part of their funds go to support professional track and field athletes. I'm like, OK, what system is was out there based out of Seattle? There's small activewear brand. They sponsor look smaller, not non big named professional track field athletes. So I really try to like support them.",Speaker 2,not-edited
00:12:01.770,00:12:11.179,00:00:09.409,"And then for you said Phablet tries to be, but they're not really like, what are they trying to do? But that's not enough for you.",Speaker 1,not-edited
00:12:11.580,00:12:42.409,00:00:30.829,"I think, like with in the last you know, there's been a lot of things that have happened the last seven months that have been very political, like, you know, making sure people get out to vote and Black Lives Matter and all of that. And they were putting out products that were like, oh, you know, part of our sales are going to support this. But for some reason, they're a little disingenuous. And it's just like, OK, I think you're doing this more so because you want people to buy the product rather than you really actually care about that.",Speaker 2,not-edited
00:12:44.220,00:12:54.400,00:00:10.180,"Do you think that there are brands out there? That are doing it genuinely. Yeah, yeah, do you have any that come to mind?",Speaker 1,not-edited
00:12:57.610,00:13:33.799,00:00:36.189,"I'm trying to think who. I think Outdoor Voices was a huge one, because they they read at their website and put out a lot of really great resources of just like you could tell, it was not about selling a product. There was no one getting out the resources to people. And I think that's the big. The big differentiation of our putting your merchandise first and foremost in a situation, or are you? Putting out records for you happened to have this merchandise that's available. It's a big difference.",Speaker 2,not-edited
00:13:35.370,00:13:45.399,00:00:10.029,"Are there any brands maybe that you've. Consciously stopped shopping with or you're like trying to, like, switch, switch away from.",Speaker 1,not-edited
00:13:50.470,00:14:47.130,00:00:56.660,"I would say brand wise, probably not. I think a lot more has to do where it's like where it's coming from. I try to buy a ton of like especially clothing on Amazon just. And with my brother working there, I kind of understand their supply chain a little bit better and it's like I don't necessarily want to support that. So I think that's a big thing. It's just. Not supporting mass. The word I'm looking for mass production and trying to be a little bit more conscious about buying things, that it's like it's good quality and it's not like I'm not supporting terrible factory labor in China or even like anywhere remotely close to.",Speaker 2,not-edited
00:14:48.940,00:14:54.789,00:00:05.849,"And that is that the main reason why you don't like Amazon, tell me a little more about what's wrong with Amazon for you.",Speaker 1,not-edited
00:14:57.320,00:16:06.460,00:01:09.140,"They I think from the employee side, they. They care about their employees, but like, not really. And I think it's just I think it's a constant like I've taken a lot more like minimalist approach to life in the last few years of just like not buying things and looking at them being very intentional about the things that I bring into my life and. I think Amazon is just like the opposite of that, a very much supports consumerism is like buy it now. And it's very it's incredibly unsustainable for our planet to be able to do that. And. It's convenient, but also it's just like it's one step off, like it's one step less for people, but it's a lot it's just not great for our planet, it's not great for our our psyche of just like, oh, more, more and more. Everything should be available to us within one day. Otherwise it's not enough.",Speaker 2,not-edited
00:16:07.570,00:16:17.950,00:00:10.380,"Yeah, I totally get that. Are there any other brands that you think are problematic, like Amazon, maybe not like Amazon, but are just like problematic for you.",Speaker 1,not-edited
00:16:18.460,00:16:41.370,00:00:22.910,"Problematic. He's gotten better, but they don't have the world's greatest history. I'm trying to think about. I don't know, I guess I can't think of any off my head that I would consider problematic. OK, that's great. Definitely, yes, for sure.",Speaker 2,not-edited
00:16:41.370,00:16:56.760,00:00:15.390,"But yeah, if you think of it later, just let me know. OK, so we're going to move on to, like, eating and food just like a big general category. What role does food and eating play in your life?",Speaker 1,not-edited
00:16:57.120,00:17:56.229,00:00:59.109,"Oh, a massive one. I, I love cooking. I grew up really wanted really wanting to become a pastry chef. So a dream of mine to go to culinary school I and a lot of time cooking. I like going out to eat but also I really enjoy cooking so it's like it's got to be worth it for me. It's I'm not going to go somewhere and order something I could make myself. I want it to be very like a special occasion and something that I would never like, never going to make sushi. That's just not something that I know how to make. And seems like it's always going to be better to buy it from somebody who knows how to make it correctly. So I would say it's definitely up there on my list of expenses is something I spend like probably a good amount of money on because just like I really I love cooking and I would rather. Spend my money there because it's a hobby and like something I have to do.",Speaker 2,not-edited
00:17:56.260,00:18:00.609,00:00:04.349,So what is it that you love so much about cooking?,Speaker 1,not-edited
00:18:01.730,00:18:23.839,00:00:22.109,"It's very relaxing for me, I guess. It's it's fun being able to be like, oh, I made this myself and. I think also, you know, what's coming in, your food is a big thing like. Your. I mean, this is the ingredients in it, I'm not going to be surprised by anything.",Speaker 2,not-edited
00:18:25.310,00:18:26.630,00:00:01.320,And where did you learn how to cook?,Speaker 1,not-edited
00:18:28.130,00:19:08.130,00:00:40.000,"I Pinterest my mom is my mom is a great baker. And so she taught me how to bake growing up. And I got very interesting. And then about three years ago, I made a pretty big lifestyle change, lost like 80 pounds and realized that all the baking I was doing was probably not good for me trying to lose weight. So I got more into cooking just because of like, OK, I need this to stay healthy and. When you're trying to lose weight, it's a lot easier to cook your own food versus I figure it out with packaged food.",Speaker 2,not-edited
00:19:09.570,00:19:25.770,00:00:16.200,"So that's a that leads me to my next question is, have you made like are there decisions and like what you're going to eat? Like, I don't want to just call them dietary restrictions because that might be like allergies. But like, what's your like like what do you what do you eat and why?",Speaker 1,not-edited
00:19:26.480,00:20:42.519,00:01:16.039,"Yeah, I still I know that I'm done with the marathon training. I've gotten a bit more into weight lifting again. And so I'm very conscious to my brother, my oldest brother. He and I are very close. He has his Ph.D. in exercise, science and nutrition. So he's really helped me develop like a diet that works. I try to eat pretty high protein, but I try not to eat a ton of meat just the same as like I am trying to not kill the environment myself. So I, I, I was a chicken and seafood are probably the two that I eat, but otherwise I try to stick away from things I don't eat a ton of. I try to limit the amount of dairy that I take in just because. As humans, it's not necessarily normal for us to be eating milk products from different animals. And yeah, I would say I try to eat a lot of like Whole Foods, but then also eating high protein. But also, I don't want to be somebody who is like, this is my diet regimen and I can't get away from it. Like I'm trying to have more balance so I can not.",Speaker 2,not-edited
00:20:44.500,00:20:58.849,00:00:14.349,"So when you talk about like no meat are like low meat and like avoiding dairy, what's the mean? Is it like animal? Is it like for animals or is it like health or is an environment? There's so many reasons why people do that. What's the reason for you?",Speaker 1,not-edited
00:20:59.890,00:21:15.450,00:00:15.560,"Definitely environmentally. I would say milk, I guess I grew up eating a lot of dairy and I think now I just don't enjoy it quite as much as I used to because of that reason.",Speaker 2,not-edited
00:21:16.470,00:21:26.009,00:00:09.539,"So what have you replaced with with the dairy, like you cut out like maybe like milks and cheeses and butters. Do I say you've",Speaker 1,not-edited
00:21:26.120,00:21:26.490,00:00:00.370,gotten,Speaker 2,not-edited
00:21:27.100,00:21:27.770,00:00:00.670,used to better?,Speaker 1,not-edited
00:21:28.350,00:21:51.050,00:00:22.700,"Yeah, I'll use usually almond milk or cashew milk, just generally like I enjoy it quite a bit more. I just honestly don't eat a ton of cheese. Just I will every once in a while, but it's just. I just haven't eaten it. I don't know. I don't know if there's any particular reason. I just.",Speaker 2,not-edited
00:21:54.390,00:22:03.450,00:00:09.060,"So I don't like it. Yeah, so tell me about, like, the last thing that you cooked in your kitchen.",Speaker 1,not-edited
00:22:04.050,00:22:14.410,00:00:10.360,"Oh, I made shrimp and chimichurri sauce over polenta with roasted broccoli last night. Yeah, it was really good.",Speaker 2,not-edited
00:22:15.360,00:22:17.519,00:00:02.159,How did you decide you wanted to cook that?,Speaker 1,not-edited
00:22:18.810,00:23:11.579,00:00:52.769,"I, I feel like this thing this isn't necessarily my personality, but I'm very into Pinterest and I have a very organized Pinterest board. And so this is a recipe that has been sitting on my Pinterest board for a while. I have I have I six different recipe boards and a Pinterest board. So there's one for me, OK, one for dessert, one for snacks. And then once I've tried it and if I like it enough that I would want to cook it again and move it over to a different board just to track those. And so this is one that I had penned a couple of years ago. And I've been really active about not letting recipes just sit on my Pinterest. It's like I'm going to make this or I'm not and I'm going to get rid of it. And so this has been one that I really wanted to try and having a really hard time finding polenta. And I finally found some like I make it.",Speaker 2,not-edited
00:23:12.760,00:23:18.290,00:00:05.530,"That's that's really organized, the way that you put it is that the only way to get recipes?",Speaker 1,not-edited
00:23:20.530,00:23:29.559,00:00:09.029,"I would say for the most part, sometimes friends will send them to me, but even those I will organize them on my Pinterest board and then.",Speaker 2,not-edited
00:23:30.860,00:23:38.160,00:00:07.300,"Pinterest, it's like coming from another website. Are there any, like, top recipe websites that you've noticed you've been gravitating towards?",Speaker 1,not-edited
00:23:38.840,00:23:46.239,00:00:07.399,"I love pinch of Yum baked harvest and the minimalist baker, probably top three for me.",Speaker 2,not-edited
00:23:47.510,00:23:53.599,00:00:06.089,Cool. And so maybe what's your favorite thing you like to cook?,Speaker 1,not-edited
00:23:56.160,00:24:34.459,00:00:38.299,"Hmm. I really like doing like. Baked goods, I would say, are probably high up there. That's more baking events and not bake as much, though, just because. I know that covid, I can't just like go be like here, everybody wants these baked goods, like take them, I don't want them. So then they're just going to sit around the house and then I'm going to eat them. And I don't I don't want that around the house because I've made some lucrative cookie dough bars, I think. And then I ate most of them.",Speaker 2,not-edited
00:24:37.430,00:24:53.329,00:00:15.899,"So you've always like cooking now that the pandemic has really settled in, like, how do you think, like cooking, dining out, maybe takeout and delivery. How have those ranked in your life before and how do they rank now?",Speaker 1,not-edited
00:24:55.610,00:25:36.670,00:00:41.060,"I think. I think if I have stayed the same, I don't really do takeout or delivery, maybe once every couple of months I will. And I think that. But I think it's gone slightly up since covid don't necessarily want to be sitting in restaurants all the time, going into the restaurants definitely went down. For me, that was something I really enjoyed and would try to do like at least once a week. And now I'm like a. Try to not do that as much, and then I think just cooking and baking has always been pretty high and I don't think that's necessarily moved at all.",Speaker 2,not-edited
00:25:37.190,00:25:45.329,00:00:08.139,"Oh, and when you're thinking about, like, let's think pre pandemic, like, how did you decide that one restaurant you wanted to go to that week?",Speaker 1,not-edited
00:25:50.250,00:26:38.279,00:00:48.029,"I think I think I do probably do a little bit of research online and trying to find a restaurant that's like, OK, what kind of food am I looking for? And then what restaurant does that well? Or so there's a there's a district in Reno called Midtown that is like the more popular area. And so they've got like an Instagram page and they'll feature a lot of their different restaurants and different shop and stuff there. And I will look there because it's like, OK, like all of these are going to be small businesses that are relatively they're relatively new. And so they might be really good because the food scene in Reno is not fantastic. So trying to find good restaurants tend to be a little bit of difficulty.",Speaker 2,not-edited
00:26:40.050,00:26:46.230,00:00:06.180,So you said you like to travel when you go to a new place. How do you decide what you're going to eat?,Speaker 1,not-edited
00:26:48.000,00:27:27.809,00:00:39.809,"I will always do research beforehand and try to find some of the like. These are the places you need to go, like the best restaurants in the area. And then I would specifically like when I'm traveling, I make a list of things that I want to do. And if I don't hit them all like that happens. I don't like traveling with planned itinerary, but then I'll have a glass of like I'm out of this restaurant. I want to go here and I want to go here and then try to prioritize, like hitting at least a couple of those. And I'm very, very intentional about if I'm like out and I'm like, oh, I need to go eat, I will like go check like Yelp or online reviews to find something like this is going to be good.",Speaker 2,not-edited
00:27:29.730,00:27:40.980,00:00:11.250,"So thinking about all the stuff that you've cooked, all the restaurants that you've had and all the places that you've traveled to, what are some of the top three eating memories that you have?",Speaker 1,not-edited
00:27:41.410,00:29:19.619,00:01:38.209,"Oh, man. OK, so there's this. There's a bakery slash ice cream place in Seattle that does like ice cream sandwiches, and they can make their cookies and ice cream. Amazing. I was in Seattle for the month of September when I returned to a job and I went there and they had like big chunks of cookie dough or just massive. And there were so many of them. And it was just like the best ice cream I've had in my life. And I was like, that's the food me for sure. It's called Hello, Robin. So if you're ever in Seattle, you should hundred percent go there. Incredible. But see, I would say. I went to Barcelona last October and I lost my cousin and we did like a topless tour, and so we went to a bunch of different places and got Campos's and grea. And so that was like a very like quintessential Barcelona thing to do. So I think that's a very special food memory. Let's see what else. We actually we did Barcelona and October 1st, so it was I mean, some eating, more drinking, but that was very much a memory, just like we had a lot of pretzels. We had a lot of like a lot worse than all the typical German foods. And just like sitting in a tent all day and drinking beer like nothing is better than that.",Speaker 2,not-edited
00:29:20.220,00:29:21.630,00:00:01.410,Who are you with on that trip?,Speaker 1,not-edited
00:29:22.470,00:29:26.059,00:00:03.589,"That's my cousin. Cool. Yeah, superfine.",Speaker 2,not-edited
00:29:28.050,00:29:36.119,00:00:08.069,"OK, next section of questions is finally about chocolate, so can you tell me about your relationship to chocolate?",Speaker 1,not-edited
00:29:36.720,00:30:26.230,00:00:49.510,"Oh, I love it. I try to eat it every day. Yeah, I. I feel like I've gotten really into chocolate in the last couple of years just because why not? No, I think a lot of it has to do with, like finally getting out of, like, dieting for so long and things like I never eat chocolate and then getting out of that phase, I don't really have diet anymore. Like, I've lost weight. I want to. And so I can, like, move into more of a maintenance phase. And so that was like something I got to add and just became like a special tree. So I probably always have them in the house. And I try like I will have them like a piece after dinner. And yeah, I love it and.",Speaker 2,not-edited
00:30:27.740,00:30:34.940,00:00:07.200,"So when you say you got got into chocolate in the past couple of years, like, what does that what does that mean? Like how did you get more into it?",Speaker 1,not-edited
00:30:35.480,00:31:10.200,00:00:34.720,"I think just buying higher quality product is like going to a sperm bank. OK, I'm going to buy a bar and a growing appetizer. I'm going to go buy a Hershey's Cookies and cream bar. Those are so good. And then you realize that, like, if you buy one of those, you're going to use the entire bar because it's just not super high quality. It's delicious, but it's not super high quality chocolate. So it's never you're never satiated versus if you go and spend a few more dollars and you get a nice to talk about, you have like one piece like that was great. It was perfect. I don't feel like I need more.",Speaker 2,not-edited
00:31:11.060,00:31:22.490,00:00:11.430,"That's so interesting. I haven't heard it that way. So you think higher quality chocolate, you can eat less of it. Yeah. Why why do you think that is?",Speaker 1,not-edited
00:31:23.210,00:31:38.269,00:00:15.059,"I think it has to do a lot with the ingredients that they're using as just like lower quality chocolate. Have a lot more additives in them that tend to be more addicting and tend to be like, I need this, I need this. And with higher quality chocolate, you just don't have that as much.",Speaker 2,not-edited
00:31:39.320,00:31:51.650,00:00:12.330,"I love that. So when you were getting into chocolates and you're getting more higher quality chocolates, like, what were some of the different chocolate brands that you were playing, playing with, trying?",Speaker 1,not-edited
00:31:54.320,00:32:58.839,00:01:04.519,"I think I just like I went to Sprouts and I went to their chocolate section and I was like, what looks good here? And so I just started like trying different ones. So I'm saying it's like, yes, sure, why not? Let's try it. What is it? It's a chow is that was how proud I tried it there. Loved it, became such a fan of it. And I, I honestly would put that as like my top chocolate brand. I like well, that's like one that I've written how many people are like, oh, you really need to go try to talk about it like it's so delicious. I can't think of any other brands that like jump out at me that have their own brand, that's like, OK, well, chocolate is the sense. Oh, there's one more, but I can't remember the name of it. Which clearly wasn't that memorable, and I can't remember the name.",Speaker 2,not-edited
00:33:00.070,00:33:05.590,00:00:05.520,"You remember what maybe sometimes like the packaging, like what? What you remember from like the labels.",Speaker 1,not-edited
00:33:08.830,00:33:42.839,00:00:34.009,"They were they were rectangular, like this big mouth. I mean, I don't know if you can get that, but. They did a lot of different. Like typical like almost typical flavors of like it was like. Dark chocolate and sea salt, caramel and. Like a raspberry one, they were never filled. It was just like put it like the flavor was infused into the chocolate itself.",Speaker 2,not-edited
00:33:44.100,00:33:53.279,00:00:09.179,Can you tell me a little bit about like you you call that like lilies. You said it was OK. Like what? What's what made you choose lilies the first time? Do you remember,Speaker 1,not-edited
00:33:54.510,00:34:16.389,00:00:21.879,"my sister in law had it one time and she said, I need to try this. I tried it and it was OK. It just didn't. It didn't melt in your mouth while it definitely had. It was a little. Now, I don't want to see plasticky because it's taste Plastiki, but there is definitely a lot more in it that wasn't allowing it to melt to shed.",Speaker 2,not-edited
00:34:21.449,00:34:27.619,00:00:06.170,"Ginola, Lillies, it's like it's like plant based sugars, right? Is that important to you?",Speaker 1,not-edited
00:34:29.139,00:34:32.790,00:00:03.651,Not really. Just figured I'd try it.,Speaker 2,not-edited
00:34:34.909,00:34:37.969,00:00:03.060,"So, Cho, what was flavors of Cho? Have you tried to remember",Speaker 1,not-edited
00:34:38.300,00:35:11.110,00:00:32.810,"so many of them? What's the guy's like a banana one. Love that one. I was probably my favorite. I tried the cappuccino and it was like a peppermint one last year for Christmas time that I tried. I've had the regular I've had the dark chocolate. The pretzel one. The McBerry one, yeah, I've had quite a few of them,",Speaker 2,not-edited
00:35:11.720,00:35:16.099,00:00:04.379,you might have listed them all. You like them all?,Speaker 1,not-edited
00:35:16.640,00:35:33.419,00:00:16.779,"Yeah. Oh, the toffee one, the toffee and the banana ones. My favorite hands down. I didn't think I would enjoy the banana one so much, but it was phenomenal. Yeah, those I talked to,",Speaker 2,not-edited
00:35:35.070,00:35:52.139,00:00:17.069,"so you described being in a sprout cycle and like I can imagine, it's like a big wall of chocolate. There's like like countless brands on the wall, maybe. What are some of the ways that you decide if you're going to try a new bar like how we were going to do that?",Speaker 1,not-edited
00:35:53.400,00:36:24.239,00:00:30.839,"I think probably flavor is number one of. I think that that's part of the reason I tried to was just like, oh, these are innovative flavors that I've never seen before. Like, I want to try this out. Why not? I really liked their packaging as well. And so it just it stood out to me in that way. But yeah, I guess if I'm going to. If I'm going to spend a little bit more money on chocolate, I want it to be something that's a little bit more interesting and that tastes good.",Speaker 2,not-edited
00:36:27.740,00:36:36.199,00:00:08.459,"Yeah, what are some? And it doesn't have to be about Cho, but what are some of the best chocolates you think you've tried?",Speaker 1,not-edited
00:36:38.830,00:37:30.429,00:00:51.599,"OK, well, I went to a pizzeria in France one time, so, I mean, that's probably my number one, but that's not really a fair competition. Everything sounds here at that had. I really like to ones, I really do like Godiva chocolate. I think like growing up that was always like that really delicious, like really expensive stuff. And so I think that's like a special like a special chocolate. Try to think what else I love. I feel like Christmas time, they always have, like, really good chocolate, like different like random like samplers. And I like I like that of just like being able to try a little bit of everything.",Speaker 2,not-edited
00:37:34.690,00:37:39.729,00:00:05.039,So do you only buy chocolates in stores or have you ever bought chocolate online?,Speaker 1,not-edited
00:37:42.590,00:37:46.469,00:00:03.879,"I don't think I've ever bought it online now, so",Speaker 2,not-edited
00:37:47.000,00:37:48.350,00:00:01.350,why do you think you haven't?,Speaker 1,not-edited
00:37:53.270,00:38:13.360,00:00:20.090,"I don't know, because when I think of, like, buying chocolate online, I'm assuming I'm like buying larger quantities, otherwise it's like not going to pay for shipping if I can, just like if I'm at the store already, I'll just pick something up. And I have never had a need to buy mass quantities of chocolate, I guess.",Speaker 2,not-edited
00:38:14.960,00:38:18.280,00:00:03.320,"I curiosity, how did you end up on Cho's mailing lists,",Speaker 1,not-edited
00:38:20.050,00:38:48.269,00:00:28.219,"because that's the one place I've debated buying mass quantities of chocolate. So, yeah, I think that's honestly, they like I was like looking at their website because I wanted to see the different flavors and they have a like a spider, like smaller bars and like it's like one hundred count and you can buy it and it's like a mix like that. And I've debated buying that multiple times. So that's how I end up on their mailing list.",Speaker 2,not-edited
00:38:48.600,00:38:53.760,00:00:05.160,Got it. OK. Have you ever found yourself researching chocolate online?,Speaker 1,not-edited
00:38:55.740,00:38:56.780,00:00:01.040,"Yeah, obviously.",Speaker 2,not-edited
00:38:58.260,00:38:59.550,00:00:01.290,Yeah. Tell me more about that.,Speaker 1,not-edited
00:39:01.650,00:40:10.969,00:01:09.319,"I. Obviously, I really love to cook and bake, and so I have like the process of how how chocolate is made. Very interesting. I study abroad in Peru, in college, and a lot of chocolate is our love. Cocoa is manufactured there. And so I went to a couple years ago a cafe in the city where I was studying abroad. That was like a chocolate and beer cafe. And the guy who owned it was a very, very passionate about chocolate and beer. And so I became friends with him and he kind of like. Walk me through the whole process, and he was very he was very active out where he got his chocolate, I learned a lot about the chocolate supply chain during that. And so I've done my research and like, oh, where are people getting married? Because I like having study abroad in Peru. I'm like always going to buy things from Peru to support their economy and then be kind of told me, hey, look, here's some of the best places that like some of the countries that manufacture the best chocolate. So if you're going to buy chocolate, like make sure they're from there.",Speaker 2,not-edited
00:40:11.790,00:40:15.260,00:00:03.470,"Oh, that's sounds like a once in a lifetime opportunity.",Speaker 1,not-edited
00:40:15.500,00:40:17.860,00:00:02.360,"Yeah, it was really cool there.",Speaker 2,not-edited
00:40:18.020,00:40:21.980,00:00:03.960,Was there what else did you learn from that guy that you that's kind of like stayed with you.,Speaker 1,not-edited
00:40:25.510,00:41:00.739,00:00:35.229,"I think, like he taught me about the process of, like, how chocolate must be enjoyed and like how to eat it, which was really cool of just like letting it sit in your mouth for, like, 15 seconds. And if it melts, like, it should melt. And if it doesn't like it's just it's not as high quality as chocolate. A chocolate. That was really cool. They did like a make your own bar so you could take their chocolate making class and you got to make your own bars and you got to put your own ad in them, which was super cool. And you just learned a ton about it, huh?",Speaker 2,not-edited
00:41:01.040,00:41:13.160,00:00:12.120,"I like that. So you said you bake bake a lot. Are you also baking with chocolate? Yeah, yeah, yeah, what brands are you buying for your baking?",Speaker 1,not-edited
00:41:15.200,00:41:42.800,00:00:27.600,"If I'm doing if I'm melting it down, I'll probably do Jordahl They're baking chocolate just because it's. The best quality in the like, average making, I'll. If I'm baking a chocolate I like there's just baking and generally pretty like simple ingredients and you're not using like a laundry list of things. And so you want to have the highest quality ingredients you possibly can.",Speaker 2,not-edited
00:41:44.660,00:41:47.059,00:00:02.399,So you're buying your chocolate in the baking aisle?,Speaker 1,not-edited
00:41:47.760,00:41:48.590,00:00:00.830,"Yeah, usually.",Speaker 2,not-edited
00:41:49.040,00:41:51.260,00:00:02.220,What is there stuff that you you try to avoid?,Speaker 1,not-edited
00:41:54.230,00:42:15.039,00:00:20.809,"Oh, yes, there's one brand that I just I don't like how they talk about. It's like it's a choice or something. Yeah, yeah, I just don't it doesn't melt well, and it's just it's not it's it's cheaper than.",Speaker 2,not-edited
00:42:17.540,00:42:21.139,00:00:03.599,So you said did you how did you first learn about show again?,Speaker 1,not-edited
00:42:23.060,00:42:31.520,00:00:08.460,"I literally saw in Sprout's and I was like, I like this. I like packaging. I like the flavors. I will try it. And. Here we are.",Speaker 2,not-edited
00:42:32.480,00:42:34.160,00:00:01.680,Do you know anything else about the company?,Speaker 1,not-edited
00:42:35.430,00:42:39.649,00:00:04.219,I know it's San Francisco that's really at.,Speaker 2,not-edited
00:42:41.110,00:42:43.900,00:00:02.790,Do you know do you have any ideas what Cho means?,Speaker 1,not-edited
00:42:44.620,00:42:45.610,00:00:00.990,I don't know.,Speaker 2,not-edited
00:42:46.010,00:43:08.919,00:00:22.909,"Yeah. I think I think that's it for chocolates. All right, last couple of laughs like s.A questions. So you kind of talked about this throughout the interview. What is quality mean to you? Like, what's what would like why is something high quality?",Speaker 1,not-edited
00:43:12.430,00:44:39.550,00:01:27.120,"I think when it comes to so out, it is different for like food and everything else. I think when everything else is just the longevity of how long it's going to last and is it going to stay stay looking nice. I think it's the big thing and. I think part of that is also how well does it wash, because it doesn't wash super well, then like. I'm not going to wear it and then with food, I guess, just. Can you tell this was made using good ingredients and it. About like, you know, with about freshness and also the flavor profile and. Just like I think quality says a lot, and you can you can tell it like when you put a piece of like Hershey's chocolate in your mouth, like a mouth very, very quickly. And it's like you eat it and then you're like, I want another piece. Versus like, your piece is like chocolate, but it takes a little bit to my mouth, a little bit slower. And then afterwards you're like, that was great. I really enjoyed that. Like, there's much more of a enjoyment factor to it because it is like higher quality ingredients.",Speaker 2,not-edited
00:44:43.000,00:44:53.889,00:00:10.889,"I remember earlier you said that, like, Patagonia has a good product and they're like socially responsible. Is that important to you in food also?",Speaker 1,not-edited
00:44:57.080,00:45:27.659,00:00:30.579,"I I want to say yes, but I don't think about it as much in food just because food is a I'm not spending as much money per item on food as I would like clothing. And so therefore, it's like, OK, like. It's just kind of a quick I don't get to talk about it, and when I'm buying, I'm not buying clothes and maybe buying one or two items from out, buying food and buying 30 or 40.",Speaker 2,not-edited
00:45:29.010,00:45:44.790,00:00:15.780,"Got it. All right. So the pandemic has really changed the way that we've connected with other people and been able to explore how how do you think the pandemic is affected, those two areas of your life?",Speaker 1,not-edited
00:45:47.390,00:45:48.650,00:00:01.260,So what are the two areas,Speaker 2,not-edited
00:45:48.890,00:45:53.239,00:00:04.349,connection to other people and then an exploration of the world?,Speaker 1,not-edited
00:45:55.370,00:46:54.810,00:00:59.440,"I think exploration. I've gotten to know the area where I'm living a lot more if I'm not out traveling all the time, and so if I want to go do something, I'm doing it locally and. So just by default, it's like, oh, I'm learning way more about where I live, which isn't cool, but also I really miss traveling connection now and stuff I. I've almost gotten used to just having connections with people who aren't around, like having a connection like we are doing or via like a phone call and not necessarily like with me. And I think if I am, like, getting together with friends, it becomes a much more like cherished and special experience and sort of like, oh, like I just see you all the time. It's like this is the one time I get to see you and I probably won't see you for a while after that.",Speaker 2,not-edited
00:46:56.550,00:47:09.020,00:00:12.470,Do you think. So what are what are the different ways that you've made maybe fill that void post pandemic connection and adventure?,Speaker 1,not-edited
00:47:11.770,00:47:53.510,00:00:41.740,"I spent a lot of time on the phone talking with friends. They probably call a different person every day and talked for at least a half hour. So that's been really helpful. Adventure, I think I just like and like with trips and stuff, I have this laundry list in the back of my head of like, OK, when it's finally able to go, like, where do I want to go? Where do I want to like? Spend my time. So I think that's more just like. I hate I hate saying this, but like kind of waiting around and when when it's ready and when we can finally do this, like I'm going.",Speaker 2,not-edited
00:47:55.220,00:48:17.739,00:00:22.519,"So one day this pandemic is going to go away one day, oh, what do you think? If you can predict the future, like what do you think? Or maybe what do you want to go back to normal? And the what what are some ways that you actually want it to change, like you want to have this pandemic stuff?",Speaker 1,not-edited
00:48:18.170,00:50:25.340,00:02:07.170,"Yeah. Now I go to. I would like to have a social life again someday, like the bar is very open, I would like to be able to do something on a Friday or Saturday night. I really like. I think the workplace has changed so much and I really have enjoyed that change a lot, just like there's a lot more flexibility and there's a lot like people I I've been working from home or working remotely for. Like a year and nine months prior to covid, and it's been really, really nice to see a lot more people make that transition and realize it's like it's not better or worse than working in the office. It's just different. And I think there's a lot of really great elements of like I've got a lot more done working from home, but some days it would be really nice to go to an office. And so I I hope that work the workplace and the workplace culture adapts a lot just from us. I think it well, I already have. And I think. I don't know, I just I would like the. The socialists come back. I think that's probably the biggest. And this is just being able to talk to people and have those memories. But I like the aspect of how work is changed. And I also. I think there has become a lot more like. I don't know if this is good or bad, but technology has become such a great become such a pivotal part of who we are as people, and it would be it's good in a lot of ways, but I do get very concerned about like in the future. It's just like, do we know how to behave without technology? If something happens and we don't have access to technology, are we capable human beings anymore?",Speaker 2,not-edited
00:50:26.650,00:50:40.439,00:00:13.789,"That's so interesting. Well, I feel like you answered this already, but I'll ask it anyway, the pandemic, do you think anything's gotten better since the pandemic started?",Speaker 1,not-edited
00:50:42.470,00:52:05.350,00:01:22.880,"Yeah. Think like. The friendships that I've had have developed become much stronger friendships because of the pandemic, because you have to be a lot. You're not going to run into your friends unless you're running into them at the grocery store, like just not on the same schedule. So I think it's for going to be a lot more intentional with their friendship, which is really cool. I like that intentionality of, OK, if you want to be friends and you want to keep up these relationships with people, you have to put some more effort in. I also think with. We're like restaurants and stuff like that of just realizing that there's so many. Ways to get your product to people that are not a damn thing in Russia or B, not like delivery, like contact with delivery, like, I think that's going to stick around for a while because a couple of my friends are very introverted or like, I love that I can order food. I don't have to see anyone. I don't have to talk to anyone. That's amazing. So I think like the innovation that has come out of the pandemic and the way people have had to try to adapt and change their businesses and their business models and the way they live, I think I hope that that spirit of innovation and adaptability sticks around. I think that's been a really cool thing that's come out of it.",Speaker 2,not-edited
00:52:07.790,00:52:14.689,00:00:06.899,"Kayla, thank you. Those are all of my questions, I really enjoyed getting to know you and and talking to you this morning.",Speaker 1,not-edited
00:52:15.170,00:52:17.370,00:00:02.200,"Yeah, glad we could do this. This is great.",Speaker 2,not-edited
00:52:18.020,00:52:22.489,00:00:04.469,So I always like to leave it open just in case you have any questions for me that I can answer for you.,Speaker 1,not-edited
00:52:23.390,00:52:28.639,00:00:05.249,Yeah. What is Tomine and what's the meaning behind it is chocolate.,Speaker 2,not-edited
00:52:30.080,00:52:59.100,00:00:29.020,"Just oh, yeah, Cho, Cho, it's like it's like a chocolate. It's like this, like chocolate Cho. I would argue that it should be, but I think yeah they worked with, like a designer out in Europe to help brand the chocolate when they were making it back in twenty five. So it's just kind of like this fun. Fun little way of saying chocolate. OK, cool. Yeah, I",Speaker 1,not-edited
00:52:59.100,00:53:01.790,00:00:02.690,wasn't like some deep meeting behind it,Speaker 2,not-edited
00:53:02.610,00:53:16.210,00:00:13.600,"now, not so much. Yeah, that's a good question. I like that question was what I was going to say one more thing and I forgot. Oh, it's it's here in Reno. So what do you like Pacific Standard Time.",Speaker 1,not-edited
00:53:16.700,00:53:17.150,00:00:00.450,Yeah.,Speaker 2,not-edited
00:53:18.300,00:53:19.360,00:00:01.060,Yeah. Early for you.,Speaker 1,not-edited
00:53:19.860,00:53:53.969,00:00:34.109,"Yeah. Well to my so prior to this job that I met, I was at a company that was based out of Michigan and so I was based on F.P. and my body just has not adapted yet. And it's awful. It's nice. I get a lot done before work but yeah, I was never a morning person. Ever, never, ever, ever. And then I started having like six a.m. meetings and the regular and now my body has decided that. It's just going to keep going.",Speaker 2,not-edited
00:53:54.820,00:54:04.920,00:00:10.100,"Wow, I am impressed. Actually, I have one more question. So when you move to Seattle, do you have do you have friends in Seattle like how are you going to transition to a new city?",Speaker 1,not-edited
00:54:05.960,00:54:40.520,00:00:34.560,"That's a good question. I do have some friends there. Yeah, I would say I probably know like five or six people there and they're all furthermost. I think all of them also are not. I have one friend that's from Seattle, but everybody else is not down there. So they're like, oh, we get it. We understand what it's like to move somewhere different and like not have friends. So a friend of mine in Reno actually introduced me to a girl who lives up there and she just moved there like four months ago. And so she's like, oh, my gosh. Like, yes, I would love to be your like, I did it. I totally understand it. Like, let's be friends.",Speaker 2,not-edited
00:54:40.530,00:54:44.089,00:00:03.559,"So that's awesome. Well, like, I see",Speaker 1,not-edited
00:54:44.090,00:54:45.199,00:00:01.109,a good transition.,Speaker 2,not-edited
00:54:45.830,00:54:54.460,00:00:08.630,"If I'm I'm optimistic. I think you're going to have a lot of fun, very excited for you. And congrats on the new job within the city center.",Speaker 1,not-edited
00:54:55.240,00:54:55.740,00:00:00.500,Yeah.,Speaker 2,not-edited
00:54:56.900,00:55:05.730,00:00:08.830,"Well, thanks again, I will send you the gift card in the email probably later today, if not tomorrow morning. OK, but let me know if you don't get it.",Speaker 1,not-edited
00:55:06.350,00:55:08.939,00:00:02.589,"OK, sounds good. Great. Thank you so much, Natalie.",Speaker 2,not-edited
00:55:09.110,00:55:11.320,00:00:02.210,"Yeah. Thank you, Michael. Bye bye. Bye.",Speaker 1,not-edited