In,Out,Duration,Text,Speaker,Status
00:00:00.600,00:00:27.870,00:00:27.270,"And so, as I said, this is just for research purposes, we're looking for interesting opportunities to to help our client better serve the gamer community so there's no right or wrong answers. We want to hear whatever you think off the bat. So, yeah, don't don't hold back. OK, and I'll just start with some easy ones. So, Maria, how old are you and and what do you do for work?",Speaker 1,not-edited
00:00:29.180,00:00:33.649,00:00:04.469,"Twenty four and I am a health care worker, I do home health.",Speaker 2,not-edited
00:00:34.190,00:00:38.150,00:00:03.960,"Oh, wow. Well, thank you so much for your service during this time.",Speaker 1,not-edited
00:00:39.160,00:00:41.119,00:00:01.959,"Oh, well, thank you. I appreciate that",Speaker 2,not-edited
00:00:41.480,00:00:49.670,00:00:08.190,course. And can you describe a little bit about your your household? Do you live alone or with a partner kids?,Speaker 1,not-edited
00:00:50.180,00:01:12.650,00:00:22.470,"Yeah, my partner and I, she's my girlfriend. We have no kids at the moment, but we do. We've been renting for probably two years now. And actually this last weekend I purchased a tiny home. So we are renovating that and we'll be moving into that six months.",Speaker 2,not-edited
00:01:12.830,00:01:20.689,00:00:07.859,I am such a fan of tiny homes. It's a dream of mine. Congratulations. That's very exciting.,Speaker 1,not-edited
00:01:21.350,00:01:25.359,00:00:04.009,Thank you. I definitely am living the dream. We're very excited.,Speaker 2,not-edited
00:01:25.820,00:01:38.660,00:00:12.840,"Great. So we'll start with just some general questions around the last six months and with covid. And I'll start by asking, how has it impacted your life generally?",Speaker 1,not-edited
00:01:40.400,00:02:17.300,00:00:36.900,"Well, the work has been the same, I haven't missed out on any hours, I've actually worked a little bit more during calls in. A lot of people were kind of scared of it and just quit altogether and didn't want to be going into people's homes in the hospitals and things of that nature. So it's really just the social aspect of it. I don't really go out and hang out with friends or eat out or anything, but as far as working goes, that part of it stays the same.",Speaker 2,not-edited
00:02:17.930,00:02:22.240,00:00:04.310,The same has your have your spending habits changed at all?,Speaker 1,not-edited
00:02:25.030,00:02:49.090,00:00:24.060,"Yes, I think we're spending less. I mean, really, the only thing that we spend money on now is just like food and gaming and like movies, because that's like the only thing to do at home, trying to stay healthy and stay away from covid and everything. So we I think it's definitely significantly less spending, I would say.",Speaker 2,not-edited
00:02:49.510,00:03:01.479,00:00:11.969,Yeah. And are there things that would you say that covid has changed your your priorities? Are there are there things that were a priority before that aren't anymore or vice versa?,Speaker 1,not-edited
00:03:03.040,00:03:27.429,00:00:24.389,"Oh yeah. I would think that we used to just get bored and like go out to eat and that would be considered like a priority because we would always make sure to, like, put money aside so we could have a fun day out or something like that. But, um, yes, definitely changed. I feel like now the main priority is to pay the bills and staying home and staying healthy.",Speaker 2,not-edited
00:03:27.670,00:03:38.860,00:00:11.190,"Yeah, definitely. So I'm going to move now and just some some more gaming focus questions. And I'll start by asking how and why did you start gaming?",Speaker 1,not-edited
00:03:40.750,00:04:35.470,00:00:54.720,"How? Well, gosh, I guess just being a kid, you know, my step dad was into gaming a little bit. I mean, he didn't know much about it. But when the Xbox 360 was big, I know that was like a huge year for us. We got one. And I would say that kind of started it. But I've been playing all my life. I like I had original PlayStation all the way back, you know, when I was like a wee little and so really just family growing up. And I've always had an interest in it. And it gives me something to do. And I'm not a very extrovert and that's the right that's the right word person. And so I don't mind to stay home and stay playing the games and just be by myself. It doesn't bother me so.",Speaker 2,not-edited
00:04:36.630,00:04:42.529,00:00:05.899,"Great, and what what would you say that you get out of gaming? What does it do for you?",Speaker 1,not-edited
00:04:45.390,00:05:01.980,00:00:16.590,"It definitely gives me like an escape from reality, as you know, it's kind of nice just to even watch a movie nowadays and just kind of block out all the craziness in the world. So it's definitely just a nice escape from reality.",Speaker 2,not-edited
00:05:03.630,00:05:10.740,00:00:07.110,"Nice, and would you say that the the role of gaming in your life has changed over time?",Speaker 1,not-edited
00:05:14.040,00:05:49.820,00:00:35.780,"Yeah, I think it's a more bigger role now that I'm an adult and I'm out on my own. That's a really big part of my life. You know, I work full time and then I go home and my girlfriend and I, we just look forward to that. So it is it's a big part of our life. I think that she she's been interested a lot longer than I have. And she's, like, wanting to do like video game designing and things like that. So we're both pretty interested in it. And yeah, it's a big priority out say great.",Speaker 2,not-edited
00:05:50.610,00:05:54.529,00:00:03.919,And what what gaming platforms are you using these days?,Speaker 1,not-edited
00:05:55.840,00:06:05.960,00:00:10.120,"I use usually the PlayStation four and Nintendo switch. Most of the time, and that's like every day we usually game every day.",Speaker 2,not-edited
00:06:06.360,00:06:11.040,00:00:04.680,"OK, so you're you're on consoles. You don't do any PC gaming.",Speaker 1,not-edited
00:06:11.290,00:06:12.970,00:00:01.680,No. PC gaming? No.,Speaker 2,not-edited
00:06:13.300,00:06:17.949,00:00:04.649,"OK, and what are the some of the games that you are playing right now?",Speaker 1,not-edited
00:06:19.060,00:06:58.100,00:00:39.040,"So I don't know if you know this, but the last of us to just came out, that's been a huge thing. We waited like ten years for that game to come out. And it's honestly sadly, it's been disappointing so far. But we've been playing that and just kind of pushing ourselves to get through it just so we can say we finished it all. So we've been playing a lot of that and brembo succeed. We play that like most spend a couple of hours on that a day online. So those are like the two major game titles we've been focusing on the past couple weeks.",Speaker 2,not-edited
00:06:58.690,00:07:03.870,00:00:05.180,"OK, cool. And what would you say is your your favorite game of all time?",Speaker 1,not-edited
00:07:06.040,00:07:34.759,00:00:28.719,"Of all the time, I would say it's the last of us. The first one, it's really old. Originally came out on the PS3 and we waited. It was a little over 10 years, I think, for this one to come out and it just said last month. So definitely not living up to everyone's expectations. But it's the first one is definitely my favorite. The gameplay and the graphics, you really can't beat it, even being that old.",Speaker 2,not-edited
00:07:35.260,00:07:44.820,00:00:09.560,"Yeah, OK. And so. So you're playing. So do you prefer multiplayer games or solo player games?",Speaker 1,not-edited
00:07:47.040,00:08:06.610,00:00:19.570,"I like soul player games, we like to take turns a lot. I have trouble doing the split screen and like multiplayer, it's not one of my favorites. I will have it's just I do prefer solo play. I think it's a little bit more to it, you know.",Speaker 2,not-edited
00:08:08.320,00:08:14.140,00:00:05.820,"OK, and how do you learn about new games or new consoles?",Speaker 1,not-edited
00:08:15.540,00:08:39.259,00:00:23.719,"I follow, like so many gaming pages online and on Instagram, so constantly they're just uploading in my feed and I've gotten so many things through GameStop now that I mean, I just get notifications all the time of games coming out. So I really don't really miss anything.",Speaker 2,not-edited
00:08:40.220,00:09:01.059,00:00:20.839,"Got it. OK, so a lot of research. And and you've talked a little bit about your your sort of after work gaming ritual with your girlfriend, but what does a typical week of gaming look like? You know, like, you know, and the weekend as well. How many hours are you committing?",Speaker 1,not-edited
00:09:03.200,00:09:28.809,00:00:25.609,"I would say usually we all get at least at the bare minimum, probably. Like three hours, but we almost always do a little bit more than that, we'll stay up really late. So I would say on average, like for a day, so four times seven hours and.",Speaker 2,not-edited
00:09:30.760,00:09:35.759,00:00:04.999,"Yeah, that's that is commitment. Yeah, on top",Speaker 1,not-edited
00:09:35.770,00:09:43.499,00:00:07.729,"of having a full time job, it certainly is a commitment. Yeah, well, it's great.",Speaker 2,not-edited
00:09:43.960,00:10:08.049,00:00:24.089,"And and do you feel, you know, obviously being in your work hours have actually increased, but hadn't felt like the amount of gaming you've done has changed over the course of the pandemic. You know, like what like what kinds of gaming were you doing in April versus now?",Speaker 1,not-edited
00:10:10.650,00:10:49.110,00:00:38.460,"We were following a lot of major titles we were just doing. I have like PlayStation now and PlayStation Plus, so we were just like Christine playing little things here and there. It wouldn't really be the same game every day. And now it's like the major title that just came out. And then PlayStation Plus released a couple of very good online games for this month. So we've kind of transitioned over to those two. But before that, it was really just all kinds of like on PlayStation Plus you can get that stuff for free.",Speaker 2,not-edited
00:10:49.120,00:11:13.259,00:00:24.139,"So, OK, so, so early on, you were playing lots of different games, but now you're really focused on a couple of core titles. Yes, great. And and what do you think what do you think about what's going to happen with your gaming in the fall? Do you have any sense of like whether you'll game more, game less?",Speaker 1,not-edited
00:11:14.910,00:11:51.940,00:00:37.030,"Well, in my opinion, I don't see the cozied situation changing much, so I think that it'll probably be the same, if not more, because the longer this goes on, I feel like people are just accepting the fact that causes here and you can't just network forever. So more people are starting to come back and take their clients. So I will hopefully not have to work as much. So I think it will probably be if I have it my way, more game time in the fall.",Speaker 2,not-edited
00:11:52.990,00:12:05.590,00:00:12.600,"Great. And so when you guys had access to all those those different different games early on, how would you decide which game to play?",Speaker 1,not-edited
00:12:08.990,00:12:35.000,00:00:26.010,"It was hard. It's definitely not something that we struggle with because there's just so many titles to choose from. But a lot of times what we'll do is just check out the top top rated like on the top of the screen. They usually have that section. They'll say, like, you know what people are playing the most this week. And most often we just go through those titles and check out the ones that are in our top rated.",Speaker 2,not-edited
00:12:35.720,00:12:51.559,00:00:15.839,"OK, got it. And so I'll ask a big question now, like, well, what would you say that you've seen as the biggest change in gaming in the last few years?",Speaker 1,not-edited
00:12:52.740,00:13:23.099,00:00:30.359,"The last few years? I would say that it would be the graphics and the virtual reality coming to life. I have not had much experience with it. That was like outrageously expensive. But I think that that's been something that's really caught my eye and, you know, have a lot of. Just improvement. It's really amazing, the virtual reality thing that they have. It's really incredible.",Speaker 2,not-edited
00:13:23.370,00:13:29.909,00:00:06.539,"Yeah, definitely. And have you had a chance to play with with one even just in at GameStop or.",Speaker 1,not-edited
00:13:29.940,00:13:57.119,00:00:27.179,"Yeah, yeah. I have played a family friend of ours has one, but I it wasn't for very long. It was just like a free thing. And I just like walked around. We didn't have like a game night or anything, but still even just looking like putting the thing on your head and looking into it like it's really crazy. It makes you feel like you are completely checking out of this world and just into the next.",Speaker 2,not-edited
00:13:58.350,00:14:11.519,00:00:13.169,"And you mentioned, you know, that it's that it's just like an outrageously expensive thing. If it if it weren't as expensive, would it be something you would you would purchase to have in your your house? Oh, yeah.",Speaker 1,not-edited
00:14:12.090,00:14:25.139,00:00:13.049,"Oh, definitely. And even if it wasn't even if it was just a little bit less expensive, like even if it was just a hundred bucks or so, I feel like that would make a lot more accessible to a lot of people.",Speaker 2,not-edited
00:14:25.770,00:14:45.869,00:00:20.099,"Yeah, well this actually segues nicely into our next section. I was going to ask a couple of questions just about spending on gaming. So how how do you spend money on on games month to month? Like what games have you bought in the last six months and how much have you spent on games?",Speaker 1,not-edited
00:14:48.090,00:14:52.699,00:00:04.609,"So games alone and not counting for like subscriptions,",Speaker 2,not-edited
00:14:53.520,00:14:56.340,00:00:02.820,just game no subscriptions as well. Yeah.,Speaker 1,not-edited
00:14:56.850,00:15:26.979,00:00:30.129,"OK, ok. So I would say, well the subscriptions alone just by themselves, we spend like twenty five dollars a month and then every couple months we usually purchase the big titles. So probably every three months we'll spend extra like sixty or seventy dollars on the new game. So. Yes, so twenty five dollars a month and then like every three months, we'll spend like 60.",Speaker 2,not-edited
00:15:27.760,00:15:32.410,00:00:04.650,"And can you remind me, Maria, what what subscriptions you're using?",Speaker 1,not-edited
00:15:34.310,00:15:38.740,00:00:04.430,"Yeah, we have a PlayStation now and PlayStation Plus.",Speaker 2,not-edited
00:15:39.590,00:15:44.719,00:00:05.129,"OK, great. And how do you feel about being a monthly subscriber?",Speaker 1,not-edited
00:15:46.670,00:16:05.539,00:00:18.869,"I love it and you don't have to be like listin to something where you have to pay for 12 months, you know, and if you're not happy with that, you can cancel it. But there I think you get way more than what you pay for. And it's probably the best thing that they could have invented for gamers.",Speaker 2,not-edited
00:16:06.760,00:16:15.339,00:00:08.579,"Yeah, yeah, it's definitely giving you a lot of access, so I wonder, have you heard of cloud gaming and what do you think about it?",Speaker 1,not-edited
00:16:17.030,00:16:20.450,00:00:03.420,"No, I can't say that I have heard of that before.",Speaker 2,not-edited
00:16:20.780,00:16:24.769,00:00:03.989,OK. Have you heard of Google STADA?,Speaker 1,not-edited
00:16:27.040,00:16:35.769,00:00:08.729,"I think maybe I might have taken a survey on it before, but I couldn't tell you from the top of my head anything about it, to be honest.",Speaker 2,not-edited
00:16:36.210,00:17:21.970,00:00:45.760,"OK, and I'm and I am not a self proclaimed gamer, so I'm probably going to butcher it a bit. But, you know, these are these are cloud based platforms that allow you access to a suite of games for a monthly fee, not dissimilar to a cloud subscription to a subscription service for games. But they don't require you to have a console. You can access it just through a computer without having a crazy PC gaming build. Cachalia. So with with that sort of rough description in mind, is that something that would ever interest you or or your partner?",Speaker 1,not-edited
00:17:23.140,00:17:51.579,00:00:28.439,"Yeah, definitely. Especially with tiny house looking thing we've been struggling with is you obviously can have a bunch of systems running like that. You just the amps are not there. So I think that we've been putting a lot of thought into even possibly having to switch over to a PC to play our games and not use so much power. So I think, yeah, we have to be interested in that.",Speaker 2,not-edited
00:17:52.300,00:17:58.539,00:00:06.239,"This rate. Well, that well, I'm excited to have potentially sold you on something new.",Speaker 1,not-edited
00:17:59.550,00:18:01.089,00:00:01.539,"Yeah, no kidding. Me too.",Speaker 2,not-edited
00:18:02.750,00:18:13.539,00:00:10.789,"So I'll ask some questions now on just so so do you guys budget for gaming. I know you have your subscription services, but do you set a general budget?",Speaker 1,not-edited
00:18:15.440,00:18:39.169,00:00:23.729,"Um, no, maybe we should, but we really don't. I mean, there hasn't been a mass amount of crazy times out, so we really know how to budget for it. But we always make sure that if there's something coming up that we want or game coming out, then we will make sure that those funds are there.",Speaker 2,not-edited
00:18:39.470,00:18:45.049,00:00:05.579,Right. And are you guys thinking about buying one of the new consoles this winter?,Speaker 1,not-edited
00:18:46.310,00:18:54.549,00:00:08.239,"Oh, yes. We have been looking into the past five and just anxiously waiting for the price to drop on that.",Speaker 2,not-edited
00:18:54.820,00:19:02.779,00:00:07.959,Yeah. And and the rumors that it could be a seven hundred dollar console. What do you think about that?,Speaker 1,not-edited
00:19:03.800,00:19:51.950,00:00:48.150,"Yeah, I think it's not unrealistic, especially for how much the PlayStation, the technology itself has advanced over the years. I think it'll probably be worth every penny of it. I know that we don't like to buy first edition consoles like as soon as they come out, because a lot of times they'll come with glitches and things that they're not figured out until like the next round comes out. So I think when the sky does drop in the real world, we'll probably wait at least two months or so and then purchase it. Whether it's 700 or lower, we'll probably still get it just because it's a huge, huge deal.",Speaker 2,not-edited
00:19:52.440,00:19:54.290,00:00:01.850,"Yeah, yeah, it's exciting.",Speaker 1,not-edited
00:19:55.070,00:20:09.440,00:00:14.370,"Could you give me just one second thought? OK, thank you. OK, I'm sorry about what happened after the election. Now, I appreciate your patience.",Speaker 2,not-edited
00:20:09.740,00:20:27.710,00:00:17.970,"No, not at all. We've actually come to sort of our final big section of questions, which is, OK, so you have all your subscription services. But do you do you prefer physical games or downloadable games?",Speaker 1,not-edited
00:20:29.150,00:21:01.900,00:00:32.750,"Downloadable games. But there's pros and cons to both and obviously the storage and councils. What really gets you with downloadable games? You can only have a few. So when you buys a copy like a digital or physical copy, you can take it in and out and all the memory is stored. But I just for the easiness on it and not having to go to the store to buy it or wait for something to be shipped, I personally do like digital copies.",Speaker 2,not-edited
00:21:02.240,00:21:14.150,00:00:11.910,"OK. And and we talked a little bit about the increasing price of consoles, but what are your thoughts on the increasing price of games?",Speaker 1,not-edited
00:21:17.150,00:21:37.760,00:00:20.610,"I think it's just to be expected as technology kind of increases over the years. I think that just it comes with it. You know, the more you get what you pay for, the better quality something, the higher is going to be. So I don't mind it. I think it's going to be expensive.",Speaker 2,not-edited
00:21:38.480,00:21:47.599,00:00:09.119,"Is there a price point that games could reach that would just be too high? You would be like, no, like even though I want this, I won't do it.",Speaker 1,not-edited
00:21:48.510,00:22:01.289,00:00:12.779,"Oh, yeah, I would say like ninety nine to one hundred dollars. That's like crazy. But now even new titles, they can run like seventy dollars from there.",Speaker 2,not-edited
00:22:03.900,00:22:23.950,00:00:20.050,"So we'll ask a little bit about in-game DLC. Have you purchased DLC in the past? No, you don't. OK, interesting, and is it is there like downloadable for purchase stuff in a lot of the games that you play?",Speaker 1,not-edited
00:22:25.570,00:23:00.839,00:00:35.269,"There is I don't usually add the extras or the add ons, it never really seems that necessary to me. So even with the last title, I thought it came with, like, the free well, I guess you could say free, but I ended up paying extra for it. It looks like a downloadable to add extra mopac or whatever. I just I never really think it's necessary and I don't usually use them and I'm just fine know playing the normal game without all the extras.",Speaker 2,not-edited
00:23:01.240,00:23:11.440,00:00:10.200,"OK, and so in the rare cases when you have bought it, what what were you, what were you buying and what were the titles you were purchasing it for.",Speaker 1,not-edited
00:23:13.390,00:23:48.220,00:00:34.830,"The last one that comes to memory was the horizon, the name of something horizon, if you give me one sec, will come to mind Dongdong of the horizon. That's the name of it. And I did purchase a gosh. I think it was something to do with some extra capacity or something. It was literally like two dollars. So it wasn't that big of a deal. And they just send you the code and you type it in on the main page and super simple.",Speaker 2,not-edited
00:23:49.210,00:24:04.369,00:00:15.159,"OK, and and is there you know, you've said that you don't feel it's necessary. Does it bother you that all of this kind of for purchase stuff is available in games?",Speaker 1,not-edited
00:24:05.330,00:24:37.580,00:00:32.250,"It does, actually, because I feel like the price that we pay, it should include or at least have the option to have something extra without having to pay extra, if that makes sense, like maybe include like a free or free little extra downloadable content, rather than making you pay full price for the game and then go pay more just to add on. I think it's kind of just a rip off. You know, honestly",Speaker 2,not-edited
00:24:38.240,00:24:48.799,00:00:10.559,"and specifically, because you you really love single player games. How do you feel about it coming into single player games?",Speaker 1,not-edited
00:24:52.310,00:25:26.739,00:00:34.429,"Well, I'm not a fan of it, I just want to see it go away, but I think that it'll definitely just keep on the legacy more and more things like I feel like will constantly just have to keep like X to get into the lake because they will pop up all the time on the main screen like, oh, as this comes and especially if they're connected to the Internet, then like a million little ads will pop up trying to get to the stuff. And I don't like it. I just not for me. I know there's a lot of people out there who disagree.",Speaker 2,not-edited
00:25:28.040,00:25:36.229,00:00:08.189,It is controversial. Have you tried Red Dead Redemption online or Grand Theft Auto online?,Speaker 1,not-edited
00:25:37.250,00:25:45.499,00:00:08.249,"I know they've tried online, but I've played them both offline and I played the last bucket, too, I played that offline as well.",Speaker 2,not-edited
00:25:46.370,00:26:09.259,00:00:22.889,"OK, great. Yeah, I think it's they're introducing a lot of DLC into the online versions and it's been interesting. Would that have if you had played online and that had been a part of the game, do you feel like it would have changed how you felt about those games?",Speaker 1,not-edited
00:26:13.430,00:26:15.619,00:00:02.189,If you could use looking time.,Speaker 2,not-edited
00:26:16.040,00:26:33.279,00:00:17.239,"Yeah, so if if Red Dead to or Grand Theft Auto had had a ton of DLC and extras and stuff for purchase throughout the game, would that have changed the game for you?",Speaker 1,not-edited
00:26:34.590,00:26:56.820,00:00:22.230,"I see no, I honestly the read itself, I wasn't the biggest fan, so I feel like they could have offered me like a million things for like two cents and I wish I wouldn't have done it. So I think it does have a lot to do with just my relationship with the title and if I'm willing to spend the extra money.",Speaker 2,not-edited
00:26:57.120,00:27:18.619,00:00:21.499,"Yeah, OK, great. Well, we've come towards our conclusion, Mariah, so I'm just going to give you a chance to kind of share some final thoughts. My first question is, what are some of your biggest frustrations about gaming, the industry, particular titles, anything that kind of drives you nuts?",Speaker 1,not-edited
00:27:20.440,00:28:21.140,00:01:00.700,"Yeah, I think that my number one complaint is that games nowadays, they really put too much story and games into the game and especially like the last of us to the prime example, there is like hours and hours of cut scenes and they're super boring and they try to make it all emotional and put like this emotional aspect on it. And they just did not do a very good job. And it takes away from the gameplay. It takes a lot of time. It takes a lot of the content out just waiting and you can't click through and just skip past it. So I think my number one complaint is just too much action. Seems like too much MovieClips in the gameplay. They need to just. Leave it even how it is or how this seems in the beginning, in the end. That's my preference. I don't really like cutting so much. Got it.",Speaker 2,not-edited
00:28:21.300,00:28:28.069,00:00:06.769,"OK, and what would you say are some of your biggest joys or things that you love about gaming?",Speaker 1,not-edited
00:28:31.520,00:29:06.099,00:00:34.579,"As I mentioned before, I think it's just the chance to escape from reality for a little while, it's really nice to just have somewhere to go and you know that you can kind of zone out and get all the stress of the day and work or whatever and just. Focus on something, and that's good. You're not like doing anything bad or exposing yourself to Tillman, that there's really you can't go wrong. You know, you can't go wrong with sitting at home playing the game.",Speaker 2,not-edited
00:29:06.160,00:29:46.239,00:00:40.079,"So, yeah, absolutely. So as I mentioned at the beginning of the interview, we are helping a financial services company think about ways that they can better serve the gaming community. And a few thoughts had come to mind, things like, you know, creating a more automated system for in-game transactions or maybe early, early access to games or equipment. What if if a credit card company was going to help you with gaming, what would be the most helpful thing they could do?",Speaker 1,not-edited
00:29:51.230,00:30:27.130,00:00:35.900,"Kind of a tough question, I guess I've never really had to put any purchases like that on my credit card, but gosh, I'm sorry, I'm struggling a little bit with that one. I don't really use credit cards that much. I mean, I have one on the back up. So, yeah, I I'm kind of struggling to answer that one. I'm not really sure what more they could do, but low interest rates is always a plus. And so keep it low for.",Speaker 2,not-edited
00:30:30.530,00:30:51.799,00:00:21.269,"That's fine, that's fine, I realized actually, I have a couple final questions just around socializing through games, so I'll get through those quickly and then I'll let you go. I know you're fine. So you've mentioned that you play a lot in person with your girlfriend, but how how else do you use games to socialize with friends and family?",Speaker 1,not-edited
00:30:54.320,00:31:22.670,00:00:28.350,"Well, I do like animal crossing on my switch, and I know a lot of like the little ones in my family. Enjoy that. So we'll come them and you can chat and stuff on the switch on that game. So we'll do that. You with the family is hopefully my nephews so that it's given us a chance to see a more social hang out with them without actually hanging out with them.",Speaker 2,not-edited
00:31:24.440,00:31:31.700,00:00:07.260,"And what can you tell me a bit about, like the last time that you guys did it? Did I hang out in in a game",Speaker 1,not-edited
00:31:32.870,00:32:07.849,00:00:34.979,"so you like Sunday? I think the boys called me up and I lost two nephews. They just called me up and they would this time we just played it over the tablet. So they set my tablet up towards their TV and they played Minecraft online. And I just did my switch and had my phone, like, aim towards the switch. So we weren't technically connected. And sometimes we will connect and do something together. But the Sunday we were we are just watching each other play.",Speaker 2,not-edited
00:32:08.630,00:32:29.829,00:00:21.199,"Wow, that's great. And so and so that's obviously something that's come up as a as a consequence of of covid. But do you anticipate that you guys will continue to do these sorts of like. Calling to watch me play events even after the penalty, that",Speaker 1,not-edited
00:32:30.640,00:32:52.670,00:00:22.030,"definitely was something we didn't try before the pandemic just because I mean, we live so close, but now with work in wanting to keep them safe and everything, I think that this will be definitely realized in the future for sure. It's been it's been really nice. It's been great to have so wonderful.",Speaker 2,not-edited
00:32:54.600,00:33:10.849,00:00:16.249,"Well, Maria, thank you so much for your time, are there are there any final thoughts on gaining on know things that things that you think we should know that could help us? Anything we haven't talked about",Speaker 1,not-edited
00:33:11.810,00:34:02.150,00:00:50.340,"that I feel like we've covered so much in our video, I hate to not say anything at all, but I'm like searching, racking my brain, trying to think. Yeah, I don't know, I guess I'm just I'll just end with I don't know where I would be if we didn't have gaming. I think that there's a lot of that in the world. And it's really easy to get caught up in the bad things. And I think that gaming is just a way for people to stay safe and stay healthy and stay out of trouble and thankful for. So I appreciate you know, it's nice to have people like you listen to our opinions and actually be heard rather than leaving like a comment underneath the game stuff for you or something. So, yeah. I appreciate your time as well.",Speaker 2,not-edited
00:34:02.350,00:34:14.030,00:00:11.680,"Story. Well, thank you. And we will be sending the gift card to the email that we use to schedule the interview. And you should have that by this evening or tomorrow morning.",Speaker 1,not-edited
00:34:14.969,00:34:19.530,00:00:04.561,"OK, great. Well, thank you again, and I really appreciate all your time today.",Speaker 2,not-edited
00:34:20.040,00:34:26.019,00:00:05.979,"Of course. Thank you, Maria. Thanks. Have a good day. You, too, bye level.",Speaker 1,not-edited