In,Out,Duration,Text,Speaker,Status
00:00:01.980,00:01:03.750,00:01:01.770,"So you briefly met Natalie, but my name is Emma. I'm actually going to be conducting the interview today and we're doing this to get smarter on behalf of a client of ours who works in the financial services industry just about gaming and gaming in general, and and look for some opportunities for them to best serve the gamer community. Just before we get started, you might notice for recording. This is for our internal purposes and notetaking ability, which is why you see two colleagues of mine, Natalie and Michael, who are just going to stay silent and listen and if that's all right with you. OK, great. Yeah, so as I said, research purposes to know, right answers, feel free to just share share points of views all along opinions. Welcome here. Go Corey. We've got your name. I'll ask how old are you and what do you do for work?",Speaker 1,not-edited
00:01:06.370,00:01:12.450,00:00:06.080,Thirty six and I'm an I.T. director for a company very nice.,Speaker 2,not-edited
00:01:13.680,00:01:18.980,00:00:05.300,And what kind of what is the makeup of your household? Do you live alone or with a partner?,Speaker 1,not-edited
00:01:20.370,00:01:22.500,00:00:02.130,I live with a partner and two kids.,Speaker 2,not-edited
00:01:23.760,00:01:25.319,00:00:01.559,Wonderful. How old are your kids?,Speaker 1,not-edited
00:01:27.400,00:01:28.869,00:00:01.469,"Eight, any 13",Speaker 2,not-edited
00:01:29.860,00:01:50.469,00:00:20.609,"good, good ages. Great, great. So I'm going to start just with a couple of general questions about the last six months, which has obviously been an interesting time for the country. So how would you say that covid has impacted your life generally?",Speaker 1,not-edited
00:01:53.420,00:02:27.280,00:00:33.860,"I've been doing more things at home instead of going out and. And then go to Vegas, don't go to big events or anything anymore. And. I play games more and then I watch TV a little bit more. I I've been working from home. Ali. Everything's changed a lot.",Speaker 2,not-edited
00:02:27.540,00:02:44.099,00:00:16.559,"Really, it's scary to think about it, it's like, oh, wow, that's a lot of stuff has it hasn't impacted your spending. As you say, you're spending more time gaming. So has it changed the kinds of ways that you're spending money?",Speaker 1,not-edited
00:02:45.630,00:02:57.339,00:00:11.709,"And I mean, I've been spending a little bit more money on gaming. Like in app games and buying more games.",Speaker 2,not-edited
00:02:58.210,00:03:14.169,00:00:15.959,"OK, great. Well, I think I'll I'll jump into our first sections of questions specifically about gaming. And I'll start with the sort of a beta, which is how and why did you start gaming?",Speaker 1,not-edited
00:03:16.360,00:03:17.539,00:00:01.179,"What would you say, I'm",Speaker 2,not-edited
00:03:18.230,00:03:27.919,00:00:09.689,"sorry, how did you start gaming, like when did you start playing games and and what made you decide to pick up a controller?",Speaker 1,not-edited
00:03:29.670,00:03:58.200,00:00:28.530,"I started playing games when I was a kid. I. Like like the original Nintendo and say, and then I play computer games back then. And. Usually to. Time. Mm hmm.",Speaker 2,not-edited
00:03:59.660,00:04:06.889,00:00:07.229,And is that would you say that's still what you get out of gaming or are there other benefits for you?,Speaker 1,not-edited
00:04:10.970,00:04:30.279,00:00:19.309,"I mean, I like I like gaming. I mean, it's fun to win and everything in the games and and. It helps so you can get away from other things. For a little while. And.",Speaker 2,not-edited
00:04:35.930,00:04:44.399,00:00:08.469,"Oh, yeah. Excuse me, would you say that it's a hobby or is it a passion?",Speaker 1,not-edited
00:04:49.650,00:04:52.309,00:00:02.659,I guess yes is a hobby.,Speaker 2,not-edited
00:04:53.790,00:05:08.240,00:00:14.450,"OK. And has that changed over time, do you feel like you were more passionate about it in the past or has it always been?",Speaker 1,not-edited
00:05:08.720,00:05:20.720,00:00:12.000,"Yeah, yeah, four different games. I've been more passionate in the past, but once I end up beating the game and everything, it's it's not fun to play it anymore.",Speaker 2,not-edited
00:05:21.460,00:05:24.790,00:00:03.330,"And and what the game was, were you most passionate about.",Speaker 1,not-edited
00:05:26.610,00:06:11.210,00:00:44.600,"Um. Most passionate I. I don't know, I play I play a game now that called Township, and I play it for I'm pretty passionate about that. I play because I've been playing it every day for about four years. And then I used to play The Sims a lot. And I like racing games. There was a racing game that I used to play that I played and I loved playing it and I played it all the time, but I just kind of got bored.",Speaker 2,not-edited
00:06:11.260,00:06:22.930,00:00:11.670,Everything is OK and we're playing the games. How do you play on a console or are you using a PC?,Speaker 1,not-edited
00:06:24.820,00:06:28.149,00:00:03.329,I used those in my phone and my dad.,Speaker 2,not-edited
00:06:29.130,00:06:32.279,00:00:03.149,"OK, and what kind of counsel do you have?",Speaker 1,not-edited
00:06:33.750,00:06:35.990,00:00:02.240,I have a PlayStation.,Speaker 2,not-edited
00:06:37.820,00:06:46.600,00:00:08.780,"Great, great. And would you say you prefer multiplayer games or solo games?",Speaker 1,not-edited
00:06:49.950,00:06:56.769,00:00:06.819,I guess it depends on the type of game and how long I have to play,Speaker 2,not-edited
00:06:58.890,00:07:07.259,00:00:08.369,"it, if you have, you know, a short period of time, what would you prefer, multiplayer or single player,",Speaker 1,not-edited
00:07:08.160,00:07:09.109,00:00:00.949,the single player,Speaker 2,not-edited
00:07:09.770,00:07:10.470,00:00:00.700,and why?,Speaker 1,not-edited
00:07:13.650,00:07:17.550,00:00:03.900,So that I don't have to just leave the game in the middle of it.,Speaker 2,not-edited
00:07:18.610,00:07:26.870,00:00:08.260,"OK, and you play multiplayer games with people you know or just with other people in the game.",Speaker 1,not-edited
00:07:27.830,00:07:38.839,00:00:11.009,"Both I play I play with, like Facebook friends and I. Some of the people I know, some people I don't.",Speaker 2,not-edited
00:07:40.680,00:07:45.560,00:00:04.880,OK. How do you learn about new games?,Speaker 1,not-edited
00:07:47.240,00:08:14.159,00:00:26.919,"And I usually find out about them on the Internet. On different Web sites like Yahoo! Gaming, and there's. My Amazon my Amazon tells me about a lot of new games on my own, my employer automatically tells me that a lot of them.",Speaker 2,not-edited
00:08:14.980,00:08:32.289,00:00:17.309,"OK, so I'm getting a no, just getting to know about the audio. I'm wondering, Cory, is that is it just the zoom that's muted or have you muted the the volume on your computer as well? Or the microphone.",Speaker 1,not-edited
00:08:33.460,00:08:38.009,00:00:04.549,"I did, but it shows it needed on the computer.",Speaker 2,not-edited
00:08:38.909,00:09:10.909,00:00:32.000,"OK. All right, I think we'll plow ahead and see if it gets if it gets better. So, OK, so we talked a little bit about your consoles and how you learn about new games. Could you walk me through a typical week of gaming for you? So from getting up on a Monday through to the end of a Sunday, like, how does gaming play a role in your week?",Speaker 1,not-edited
00:09:13.980,00:09:43.039,00:00:29.059,"Yeah, I play. I don't play I play during the day, and then I before I go to bed, I play games. And it's pretty much the same way every day. I it depends it depends on what we're doing, but. If I'm not busy, I'm playing games a lot of the time, if I'm not gonna.",Speaker 2,not-edited
00:09:45.260,00:09:50.179,00:00:04.919,And are you playing different types of games based on the time of day?,Speaker 1,not-edited
00:09:54.670,00:10:11.220,00:00:16.550,"Yeah, a little bit, I blame less involved games at night. Because I'm too tired usually to, but during the day, I play my more active games where I have to pay attention to more things going on in it.",Speaker 2,not-edited
00:10:12.710,00:10:39.590,00:00:26.880,"Got it. And you mentioned that you're gaming more now that you're working from home and going out less. So could you talk to me a little bit about how your behavior has changed? You know, starting in April when things started to get serious with the pandemic and then even today, as certain orders are getting lifted, like, are you noticing changes?",Speaker 1,not-edited
00:10:45.520,00:10:55.860,00:00:10.340,"Well, at the beginning. Detour. So you're you're talking about before. The pandemic,",Speaker 2,not-edited
00:10:57.040,00:11:14.559,00:00:17.519,"well, even through the stages of the pandemic, like when it when it first hit, you know, what was going on for you. And now that we've kind of been living with it for a while, has anything changed with your gaming?",Speaker 1,not-edited
00:11:15.360,00:11:43.100,00:00:27.740,"Yeah, my gaming. I was gaming a lot more a couple of months ago than I am now. And but I also wasn't working a lot at that time at all. And so. We now. My gaming is kind of a little bit in between my work during the day and then at night, I play games and that that hasn't changed. OK.",Speaker 2,not-edited
00:11:45.260,00:12:13.520,00:00:28.260,"Great. And I guess I'll ask a big question here, which is about, you know, you've been gaming for a very long time in the last few years. Have you noticed any differences in the gaming industry that you felt like were important, either kinds of games that you gravitated towards or the consoles or variety?",Speaker 1,not-edited
00:12:16.750,00:12:53.380,00:00:36.630,"Well, I think that they're coming out with better, better consoles and the that's going to change a lot of things because the games look different and you play them different on different consoles and. I don't know, I. Think. Mm hmm. So, um. I'm just totally blank right now.",Speaker 2,not-edited
00:12:53.600,00:13:14.299,00:00:20.699,"I think can come back to it, so we'll move on to to some some spending questions. So how much money are you spending month to month on games? Like how much money would have how many games which Laforet last month?",Speaker 1,not-edited
00:13:16.350,00:13:19.450,00:00:03.100,Like to I feel like one hundred or two.,Speaker 2,not-edited
00:13:20.440,00:13:25.769,00:00:05.329,About a month. Wow. Yeah. And are you,Speaker 1,not-edited
00:13:27.030,00:13:33.190,00:00:06.160,"sorry, I don't seem like 50. Against any Molalla.",Speaker 2,not-edited
00:13:34.180,00:13:53.240,00:00:19.060,"OK. And when you when you purchase games, are you buying that from online, are you downloading them to your console or are you buying physical discs? I do it so low.",Speaker 1,not-edited
00:13:55.210,00:14:01.709,00:00:06.499,I do a lot of them. I downloaded them and some of them I buy the physical this.,Speaker 2,not-edited
00:14:04.550,00:14:09.110,00:00:04.560,And what what kind of determines which choice you make?,Speaker 1,not-edited
00:14:14.080,00:14:52.480,00:00:38.400,"And. The release date for and then also it depends on who is. How much is it? Sometimes it's more it's more of the this usually than it is. OK, so. And I mean by a dish like if I want to be able to have a physical copy and I can go in and take it with me somewhere, but but I usually do everything on screen and downloading it in their.",Speaker 2,not-edited
00:14:55.260,00:15:00.059,00:00:04.799,Got it. And do you budget for gaming specifically?,Speaker 1,not-edited
00:15:03.630,00:15:06.330,00:00:02.700,"No, no, no.",Speaker 2,not-edited
00:15:07.660,00:15:14.529,00:00:06.869,"That hundred dollars a month, does that feel like too much or too little?",Speaker 1,not-edited
00:15:17.180,00:15:30.019,00:00:12.839,I don't feel like it's too much because I spend a lot less on entertainment going out and I spend a lot more money than that on going out. Yeah.,Speaker 2,not-edited
00:15:31.630,00:15:37.899,00:00:06.269,And are you thinking of buying one of the new consoles this fall or winter when they come out?,Speaker 1,not-edited
00:15:38.130,00:15:41.710,00:00:03.580,"Yeah, yeah, the PlayStation five I've been looking at.",Speaker 2,not-edited
00:15:42.630,00:15:45.309,00:00:02.679,And what about that? Are you excited for?,Speaker 1,not-edited
00:15:46.440,00:16:06.889,00:00:20.449,"Uh. A lot of it's got a lot of new features, and it's. We put more games on it and it runs faster. I mean, it's supposed to be a lot better than the one we have is a lot more expensive.",Speaker 2,not-edited
00:16:08.030,00:16:13.639,00:00:05.609,"Yeah, so that's the cost at console's is definitely going going up. How do you feel about that?",Speaker 1,not-edited
00:16:15.120,00:16:30.909,00:00:15.789,"Well, I feel like it's kind of like you're buying a computer instead of a console anymore, because it pretty much is. So we've got a hard time using a computer and everything inside. It's not like a console like 20 years ago.",Speaker 2,not-edited
00:16:31.450,00:16:38.529,00:00:07.079,"Right, right. So do you feel so do you feel like it's a fair price or is it too much?",Speaker 1,not-edited
00:16:41.950,00:17:03.080,00:00:21.130,I think it's a fair price. And then you can find it on sale or something. And you usually get what you pay for and the reason it is so expensive is because it's embedded in this newer technology.,Speaker 2,not-edited
00:17:04.490,00:17:14.160,00:00:09.670,"Yeah, and what are your thoughts on the increased prices of games? A triple-A games.",Speaker 1,not-edited
00:17:20.460,00:17:40.470,00:00:20.010,"I don't know, I mean, games are. They're price based on how long the game is, even more so if you're paying more for a game, it's going to last a lot longer than the cheaper games, right?",Speaker 2,not-edited
00:17:40.860,00:17:51.130,00:00:10.270,"OK, great. So how how do you use games to socialize with friends and family?",Speaker 1,not-edited
00:17:54.390,00:18:09.150,00:00:14.760,"OK, I socialize with friends on the games, we chat with each other sometimes while we're flying by and. I don't really socialize with my family. OK. OK.",Speaker 2,not-edited
00:18:12.130,00:18:23.919,00:00:11.789,"And when you're when you are sort of doing a multiplayer experience, do you think of that as socializing?",Speaker 1,not-edited
00:18:28.830,00:18:37.279,00:00:08.449,"Kinda I those people are there in the game, I mean, there with so yeah, I wouldn't call it socialized.",Speaker 2,not-edited
00:18:37.950,00:18:57.839,00:00:19.889,"OK, so yeah. So you're not you're not going to a game to like you're going to the game to play, you're not going game to chat or have experience. OK, and, and what are a few games that you're playing right now and can you tell me a bit about what you like about them?",Speaker 1,not-edited
00:18:59.910,00:19:20.049,00:00:20.139,"I would say I've been playing like the fortnight and. I like that game a little bit, but I usually play games on are you talking about console games",Speaker 2,not-edited
00:19:20.860,00:19:27.669,00:00:06.809,"or, you know, or console games or PC games or, you know, any any video games?",Speaker 1,not-edited
00:19:29.570,00:20:47.039,00:01:17.469,"OK, because I play a lot games on my phone, too, and. So I don't know, I, I, I play casual games on my phone and then I usually play. If I wanted to have better graphics, I do it on my own. I use computer games and then I play a lot of different games. I don't play any. Like, all the time I do like the one I was talking about earlier, I played the township, I play that, I played that for my time. And I like that because you if you design like your own town and it's you can take everything and do everything the way you want to do it. So it's kind of like because I like tank games and. Going around to find them. OK. Those with friends to be. But we'll all be on we'll be on the same team and we have to go with the other team.",Speaker 2,not-edited
00:20:47.470,00:21:01.849,00:00:14.379,"Right. OK. All right, I'm going to jump into our next section, do you have any monthly gaming subscriptions that you currently?",Speaker 1,not-edited
00:21:06.490,00:21:14.290,00:00:07.800,"I used the PlayStation Munsterman, which I used to use to it, but I don't use it anymore.",Speaker 2,not-edited
00:21:15.490,00:21:16.089,00:00:00.599,Why not?,Speaker 1,not-edited
00:21:19.180,00:21:21.240,00:00:02.060,I just I don't really like it.,Speaker 2,not-edited
00:21:23.120,00:21:25.369,00:00:02.249,And what did you like about it?,Speaker 1,not-edited
00:21:26.720,00:21:43.079,00:00:16.359,"OK, I. I just don't like the design, really, the way that they have it set up. And it seems kind of restrictive on.",Speaker 2,not-edited
00:21:46.070,00:21:50.630,00:00:04.560,"OK, and the PlayStation subscription you still have.",Speaker 1,not-edited
00:21:51.510,00:21:57.209,00:00:05.699,"Yeah, yeah, yeah, I use that I. That's where I download my games from.",Speaker 2,not-edited
00:21:58.780,00:22:01.660,00:00:02.880,And what are your thoughts on that? Do you like it?,Speaker 1,not-edited
00:22:03.040,00:22:09.920,00:00:06.880,"Yeah, I like that. I like it. It is. Because it works well with the PlayStation.",Speaker 2,not-edited
00:22:12.160,00:22:17.549,00:00:05.389,How do you feel about the subscription cost? The.,Speaker 1,not-edited
00:22:19.560,00:22:34.040,00:00:14.480,"It's so I mean. It's not it's not that expensive. I have a lot of them. Yeah, yeah, well, I mean, not like gaming, but I mean, like everything.",Speaker 2,not-edited
00:22:36.410,00:22:38.460,00:00:02.050,"Like for what, for example,",Speaker 1,not-edited
00:22:39.570,00:23:01.489,00:00:21.919,"I mean, like. With Amazon, I'm I've got about 10 or 12 different descriptions with them, and then I have my streaming TV and I have. Some other things I use where they send me stuff every month,",Speaker 2,not-edited
00:23:03.620,00:23:06.829,00:00:03.209,so you're used to having subscriptions to things.,Speaker 1,not-edited
00:23:07.950,00:23:09.210,00:00:01.260,"Yeah, OK,",Speaker 2,not-edited
00:23:09.930,00:23:14.789,00:00:04.859,"so I'll ask you another question, which is, have you heard of cloud gaming?",Speaker 1,not-edited
00:23:16.720,00:23:21.670,00:00:04.950,"Yeah, I've heard of it. I don't I don't know much about it.",Speaker 2,not-edited
00:23:23.920,00:23:28.599,00:00:04.679,"Yeah, it's a very it's a new thing. Have you have you heard of Google Stadia?",Speaker 1,not-edited
00:23:29.420,00:23:30.400,00:00:00.980,"Yeah, yeah.",Speaker 2,not-edited
00:23:31.330,00:23:32.900,00:00:01.570,Any thoughts on that?,Speaker 1,not-edited
00:23:33.570,00:23:42.069,00:00:08.499,"Sorry, I looked into a lot. Um, I've heard about it, but I've not even I wasn't sure it came out.",Speaker 2,not-edited
00:23:42.130,00:24:02.919,00:00:20.789,"It yeah. There's been a soft launch in the space, you know, but it, it works a bit like a like a subscription. So I wonder know, do you plan on looking into cloud gaming? At all,",Speaker 1,not-edited
00:24:05.030,00:24:13.760,00:00:08.730,"I probably will. OK, as soon as I did, I've never I haven't heard much about it.",Speaker 2,not-edited
00:24:14.230,00:24:20.270,00:00:06.040,"Yeah, what do you what do you like about your Amazon subscription?",Speaker 1,not-edited
00:24:23.340,00:24:53.950,00:00:30.610,"I like how. They cover all the. Well, I mean, I like music and then I get. Amazon as well, is usually free shipping, is usually free shipping, I mean, they give you other. Things like the TV streaming, and I don't use that, though, right?",Speaker 2,not-edited
00:24:55.250,00:25:03.199,00:00:07.949,"If Amazon was offering like a cloud gaming platform, would that be interesting to you?",Speaker 1,not-edited
00:25:04.500,00:25:15.269,00:00:10.769,"Yeah, yeah, it would be more interesting to me then, yeah, if it was Amazon, I think Amazon, I think they're coming out with something.",Speaker 2,not-edited
00:25:16.710,00:25:58.480,00:00:41.770,"That's the rumor I've heard too. So we'll have to keep our eye on it. But yeah, I think it would be interesting to see for sure. Great. So I'm great. I'll jump to our final section. So we talked a little bit about physical versus downloadable games. But I'm wondering, have you changed has the way that you purchased games changed at all based on covid or even just the access to digital games?",Speaker 1,not-edited
00:26:00.760,00:26:35.099,00:00:34.339,"Yeah, I I purchased most of them for the download. It's easier. I mean, you have them for life after you download them so you don't have to worry about losing it. And. I use Amazon for a lot of delivery things, right? So I order games because they're.",Speaker 2,not-edited
00:26:37.170,00:26:45.210,00:00:08.040,"Great. And within the games that you're playing, do you ever purchase the downloadable content in the game?",Speaker 1,not-edited
00:26:50.600,00:26:53.770,00:00:03.170,"Yeah, I know I haven't ever done.",Speaker 2,not-edited
00:26:53.770,00:26:55.190,00:00:01.420,I know that,Speaker 1,not-edited
00:26:55.550,00:26:56.140,00:00:00.590,now.,Speaker 2,not-edited
00:26:57.880,00:26:59.989,00:00:02.109,"OK, and why,",Speaker 1,not-edited
00:27:00.680,00:27:11.700,00:00:11.020,"like nine or 10 days to one day? We are not. I have never I have never bought a game like that on this, I've downloaded it.",Speaker 2,not-edited
00:27:12.240,00:27:27.709,00:00:15.469,"OK, and so do you do you ever purchase expansion packs or customizable outfits for your game, your characters?",Speaker 1,not-edited
00:27:28.890,00:27:32.689,00:00:03.799,"Yeah, OK, that's what I spend most of my money.",Speaker 2,not-edited
00:27:33.320,00:27:40.490,00:00:07.170,OK. Wow. And and how much do you think you spend on that kind of ad on at.,Speaker 1,not-edited
00:27:47.730,00:27:54.269,00:00:06.539,"I don't know, it depends on how much it is, I don't usually buy em unless they have a special or something.",Speaker 2,not-edited
00:27:55.520,00:28:00.810,00:00:05.290,"OK. What? Oh, sorry, go ahead.",Speaker 1,not-edited
00:28:02.860,00:28:16.150,00:00:13.290,"Well, there's some there's some games I can buy, like digital currency on Amazon. And I do that, and it's like twenty dollars, yeah, OK.",Speaker 2,not-edited
00:28:17.540,00:28:35.989,00:00:18.449,"And those those in game add ons, what are you what are you most likely to buy? Are you buying mainly currency or skins or weapons? Like what's what's your kind of go to purchase?",Speaker 1,not-edited
00:28:37.700,00:28:47.759,00:00:10.059,They usually buy the things that will help me to advance in the game faster. I I don't usually buy clearance.,Speaker 2,not-edited
00:28:48.510,00:28:58.940,00:00:10.430,"OK. And how do you feel about, you know, having to buy those things to advance?",Speaker 1,not-edited
00:29:02.000,00:29:03.520,00:00:01.520,"About all of that,",Speaker 2,not-edited
00:29:03.950,00:29:12.829,00:00:08.879,"yeah, so so how how do you feel about having to make purchases in the game to advance? Are you OK with that?",Speaker 1,not-edited
00:29:16.210,00:29:35.259,00:00:19.049,"I am to some extent, I mean, it's. It's forcing me to pay to play the game I probably like. Like, it's is purposely slow until I buy. I won't I won't do that.",Speaker 2,not-edited
00:29:38.750,00:30:01.510,00:00:22.760,"OK, so for you, it's certain certain DLC is OK, but if it. If it feels like getting in the way of the game, then you have a problem with it. What what type like which game do you do you buy the most sort of end game content from? I know you mentioned you played for tonight.",Speaker 1,not-edited
00:30:04.780,00:30:20.670,00:00:15.890,"Oh, yeah, I buy. A lot of my stuff I buy on Amazon. And our job is not like in gangs, so,",Speaker 2,not-edited
00:30:21.160,00:30:22.059,00:00:00.899,"yeah, in game.",Speaker 1,not-edited
00:30:23.250,00:30:25.289,00:00:02.039,I buy the PlayStation.,Speaker 2,not-edited
00:30:28.870,00:30:42.510,00:00:13.640,"OK. And then when you and you don't you don't set a budget or ever plan to do that, right? It's you said that it's when you're trying to advance in the game.",Speaker 1,not-edited
00:30:46.460,00:31:05.119,00:00:18.659,"Yeah, I would I would say that I. I keep track of how much I spend and I won't I won't spend too much on, but. It depends on the situation. Got it.",Speaker 2,not-edited
00:31:05.840,00:31:10.630,00:00:04.790,What's what's your upwards limit? For what you'll spend.,Speaker 1,not-edited
00:31:12.200,00:31:13.219,00:00:01.019,At one time,Speaker 2,not-edited
00:31:13.820,00:31:17.089,00:00:03.269,"or one time, sure.",Speaker 1,not-edited
00:31:19.470,00:31:23.400,00:00:03.930,Like 30 or 40 dollars at another at a time.,Speaker 2,not-edited
00:31:23.850,00:31:57.510,00:00:33.660,"OK, great. So we'll get to sort of our final section here and I'll I guess I'll I'll propose something to you that that we're thinking about, which is would you be interested in a Netflix like service for gaming that would allow you to access sort of games on a rotating basis to screen and play?",Speaker 1,not-edited
00:31:59.670,00:32:00.150,00:00:00.480,Yeah.,Speaker 2,not-edited
00:32:04.680,00:32:11.430,00:00:06.750,What do you think the biggest benefit of something like that would be for you as a gamer?,Speaker 1,not-edited
00:32:14.740,00:32:58.079,00:00:43.339,"Well, you can well, you said the games would change, so we get to play different games and do games that come up. It depends on if they're like newer games or if they're really old games. I would expect them to not be too old, but. They they already have services like that kind of. And. So, I mean, I'd I'd be interested in it. To find out how how how good it actually is",Speaker 2,not-edited
00:32:58.710,00:33:13.019,00:00:14.309,"and and follow up on that, why haven't you utilized other services that are like that? What stopped you from trying those times?",Speaker 1,not-edited
00:33:14.280,00:33:27.549,00:00:13.269,"I have. I have. I don't. I always have a lot of time to go looking around at all the different services, and once I get used to one, I tend to stick with.",Speaker 2,not-edited
00:33:29.130,00:33:45.690,00:00:16.560,"OK, yeah, fair enough. So we'll ask then, just generally to Corey, what are what are some of your biggest frustrations in gaming generally? Anything you think we should know about that maybe we could help solve?",Speaker 1,not-edited
00:33:53.900,00:34:15.779,00:00:21.879,"I don't know, I mean. Advertisements not having too many advertisements are false advertising. Or. I don't really have a lot of frustration with the game.",Speaker 2,not-edited
00:34:16.600,00:34:27.300,00:00:10.700,"OK, well, then I'll I'll flip it to what are some of your your biggest choices in gaming that you want to make sure don't change your time.",Speaker 1,not-edited
00:34:34.570,00:35:19.120,00:00:44.550,"Well, I like I like games to be able to be challenging, but still be able to beat them and. I like them to. I don't know more characters and stuff I like. Yeah, I like him, they have different more. Have no options in some of the games. OK, it seems like they don't finish. All the way some James.",Speaker 2,not-edited
00:35:22.020,00:35:42.199,00:00:20.179,"Got it. Thank you. And then finally, you know, if there's anything you can think of that specifically a financial services company or a bank could do in gaming and that would thrill you. What would it what would it be?",Speaker 1,not-edited
00:35:44.530,00:35:48.360,00:00:03.830,They like cash back on gaming purchases.,Speaker 2,not-edited
00:35:50.130,00:36:09.020,00:00:18.890,"OK. Great. Well, I'm actually going to pass over to Natalie for just a couple more questions since we have a little more time. Natalie, if you're. Ready? Lovely to meet you, Corey. Thank you for taking the time today.",Speaker 1,not-edited
00:36:09.620,00:36:10.249,00:00:00.629,All right.,Speaker 2,not-edited
00:36:10.340,00:36:15.980,00:00:05.640,"Thanks, Corey. I'm I'm curious as we play for tonight.",Speaker 1,not-edited
00:36:17.010,00:36:17.929,00:00:00.919,Yeah. Yeah.,Speaker 2,not-edited
00:36:18.470,00:36:24.039,00:00:05.569,"Do you buy, like, micro transactions or do you make purchases in that game?",Speaker 3,not-edited
00:36:26.860,00:36:38.629,00:00:11.769,"I do I think I have the floor, but I don't sleep at night a lot. So. I don't usually buy things in it.",Speaker 2,not-edited
00:36:39.860,00:36:42.889,00:00:03.029,"What's the last thing, do you remember buying and fortnight?",Speaker 3,not-edited
00:36:44.740,00:36:50.130,00:00:05.390,And. And the only thing that.,Speaker 2,not-edited
00:36:53.930,00:37:09.419,00:00:15.489,"That's no problem. I guess what I'd like to think about is the last time you made it like an in-game purchase for like a game or a console and whatever, the last example you can think of.",Speaker 3,not-edited
00:37:13.390,00:37:16.369,00:00:02.979,"OK, I buy packages.",Speaker 2,not-edited
00:37:17.110,00:37:22.170,00:00:05.060,"Yeah, just what is it what is it like when you make that decision? Like why do you want it?",Speaker 3,not-edited
00:37:24.180,00:37:40.559,00:00:16.379,"Well, it depends on what's in the package or whether it's if I think it's worth. Before it. If I'm going to enjoy it or if I need it. I don't I",Speaker 2,not-edited
00:37:41.110,00:37:44.469,00:00:03.359,I'm not much of a gamer. So can you tell me what packages are?,Speaker 3,not-edited
00:37:46.850,00:38:09.480,00:00:22.630,"Packages are like you can buy them, you buy multiple things at one time with different instead of buying things individually because it usually costs more if you buy things individually. Like upgrades, but you can buy a bunch of upgrades at once for cheap. What's it like?",Speaker 2,not-edited
00:38:10.260,00:38:16.270,00:00:06.010,I'm sorry. But what's the last game you bought a package in?,Speaker 3,not-edited
00:38:22.440,00:38:23.489,00:00:01.049,Starwars.,Speaker 2,not-edited
00:38:26.460,00:38:32.730,00:00:06.270,"Why did you want that package, is it was it the upgrades, was it cause, like, skin split came in that package?",Speaker 3,not-edited
00:38:35.770,00:38:48.800,00:00:13.030,It was haunting and it allows me to continue. At times when I wouldn't be able to it happens to me to get from.,Speaker 2,not-edited
00:38:50.940,00:38:53.750,00:00:02.810,And you're OK buying stuff like that for the game?,Speaker 3,not-edited
00:38:57.550,00:39:02.860,00:00:05.310,"Yeah, sometimes I go, I'm not by them all the time. Got it.",Speaker 2,not-edited
00:39:05.390,00:39:29.830,00:00:24.440,"OK, yeah, and I wanted to get a picture of what it looked like when you would buy stuff like that, because I think that stuff helps us with our research. I think I think that's that was the last question that I had any questions for us or any last thoughts about gaming that you wanted to share with us?",Speaker 3,not-edited
00:39:34.120,00:39:35.190,00:00:01.070,"All right, that's about it.",Speaker 2,not-edited
00:39:36.410,00:39:56.139,00:00:19.729,"Well, Corey, thank you so much. We learned a lot. We really appreciate your time that you took out of your day to talk us about talk to us about gaming. We will send the Amazon gift card to the email address. I've been emailing you at probably by the end of the day.",Speaker 3,not-edited
00:39:57.800,00:40:03.739,00:00:05.939,"OK, cool. OK, I'll thank you again. All right, thank you.",Speaker 2,not-edited