In,Out,Duration,Text,Speaker,Status
00:00:00.060,00:00:05.460,00:00:05.400,Record the button. Here we go. Do you have any subscriptions in your life right now?,Speaker 1,not-edited
00:00:07.440,00:00:11.830,00:00:04.390,"Do you mean like subscriptions for any chocolate Pacific or anything,",Speaker 2,not-edited
00:00:12.630,00:00:14.670,00:00:02.040,"the whole world, the whole world is subscriptions?",Speaker 1,not-edited
00:00:16.440,00:00:36.540,00:00:20.100,"I think. Just for a chocolate, I don't think for anything else or some second thing is like this, the cleaning dishwasher or tablet thing, that's like eco friendly. I'm subscribed for that, too. I don't know if there's anything else. Those are the ones I recall right now.",Speaker 2,not-edited
00:00:36.990,00:00:41.760,00:00:04.770,"OK, and that you tried and have canceled.",Speaker 1,not-edited
00:00:43.760,00:01:19.920,00:00:36.160,"Yes, Misfits market was one, I think I may have mentioned it last time when we talked because of the quality control so that when I canceled there was this wine thing that I subscribed for trying to over the name of it now. And I didn't. I'm thinking of canceling. I have cancel it, but just like it comes too often and I don't drink that much wine. It was kind of a cool idea in the beginning of quarantine. And now it's just like, wouldn't that much wine. So that's probably got to be canceled. But otherwise I don't subscribe to too many things.",Speaker 2,not-edited
00:01:20.960,00:01:31.109,00:00:10.149,"OK, and any subscriptions that you've heard of that have, like, crossed your spear, but maybe you haven't tried it.",Speaker 1,not-edited
00:01:37.100,00:01:53.930,00:00:16.830,"I feel like I don't pay attention to that stuff. Usually I'm just like, oh, I want to have, you know, I want to buy this. At this time, I'm unlikely to subscribe to get a repeat of it because I want too many things. I would change my mind about stuff, not the kind of person that's good with that.",Speaker 2,not-edited
00:01:55.830,00:02:09.419,00:00:13.589,"OK, and then I guess my last question is, if I say like kits, have you ever bought in any purchase, any kits before, does that spark anything different?",Speaker 1,not-edited
00:02:11.910,00:02:30.330,00:00:18.420,"Yeah, I mean, I feel like there's a lot more because you coronavirus, they've been like you've seen a lot of kids being sold, like baking kit or bubble ticket. And I think I yeah, I don't know if I bought any kids, but I have thought about it because it just sounds like a good idea to get a package of something.",Speaker 2,not-edited
00:02:31.080,00:03:35.629,00:01:04.549,"OK, so you've heard more of them like post pandemic. Yeah. All right. Well, you might. Guess where this is going while I pull up the screen? So before we dove into it, you know, I anco this I'm working with Choa as a research partner. So of the most honest feedback we can get is really what we're after. So if you love stuff, that's good. If you hate stuff, that's all so good for me. So don't hold back, please. All right. All right. So Celle is thinking about releasing Tast Chasers Club. It's a limited edition, limited release subscription kit that explores flavors inside and outside chocolate. So every quarter they'll dove into a new flavor theme with education products and experiments. What are your initial reactions?",Speaker 1,not-edited
00:03:38.500,00:04:04.719,00:00:26.219,"I'm intrigued, especially because it's because you just said that it was it's not maybe outside of chocolate like that, there's more than that. And like I like the idea of, you know, having different options for something that, you know, you wouldn't expect Cho to be selling things like thinking what what else can you possibly show up on, like chocolate liqueur? So a brain is going places, but I'm interested.",Speaker 2,not-edited
00:04:05.910,00:04:11.169,00:00:05.259,"Perfect. Well, actually, I am. I'm curious, like, where is your brain going thinking about this?",Speaker 1,not-edited
00:04:13.080,00:04:54.439,00:00:41.359,"I mean, I'm mainly thinking like chocolate related stuff because I'm like, what? Where would you go otherwise? But like even selling chocolate of or like caramels, I don't even know. I'm curious, like what else you guys are thinking other than that, but of course, yeah, like I was saying, making kids like that's a good idea. But I feel like maybe I don't remember if the website already had something you have, like baking items, but like maybe the idea of. A kit for baking, like everything that you would need, like cow, like powder, milk, chocolate pieces, that kind of thing. But yeah.",Speaker 2,not-edited
00:04:55.050,00:05:27.600,00:00:32.550,"All right. Well, here is a high level view of what the kit will include. So there's the box that comes at your doorstep with all the goodies inside of it. But it also includes online content that members get access to live events that are associated with your kid and a closed group. I will go through all of this stuff bit by bit, but I'd love to get an initial reaction to what you see.",Speaker 1,not-edited
00:05:29.010,00:06:07.519,00:00:38.509,"Now, it's more extensive than I thought. It's I mean, it's a club, so I've never actually seen what happens if you join a club like this. I've never seen this kind of thing. And it's. I'm interested, especially in like the live events, like especially right now, those would be kind of fun to see something that you could, like, learn more about, not just have the products that you buy, but whatever the topics of discussion will be under the light of to feel like it will enrich the experience of buying the product. But I don't know if it seems like a good idea to me.",Speaker 2,not-edited
00:06:08.860,00:07:24.619,00:01:15.759,"All right, great. So as I show you the stuff, I, I, I hope for you to think about this, like if you're the customer, right? Like, is this something that makes sense for you? So let's go through one box. So the first box we're thinking of is called the Botanicals Kit. So the theme is around Mother Nature grows some really cool flavors. So it's a big kit and I'm going to unbox it in three sections. The first part is the science behind flowering, so how do plants grow? Where is the flavor coming from? We're giving you some examples of what we're talking about through like fennel pollen or dried hibiscus. And each ingredient also comes with an info card for you to learn more about that. That sample will also have a simple sirup recipe so you can do something with the hibiscus. And last but not least, there will be a make or series limited release bar where Cho does their own botanical inspired flavor. Reactions to this.",Speaker 1,not-edited
00:07:26.660,00:08:06.470,00:00:39.810,"I guess unexpected. I mean, I like the idea of the sirup and then plus the herbs and stuff like I mean, it would feel like it would make sense without, like a recipe card or something because you get the stuff maybe like what do I do with it now? But like, the idea that there's like. Directions or instructions on what each flavor is about? That's very helpful. I mean, I like how involved it is because it's like you're not just eating it. You're also thinking about the products, the, you know, whatever flowers and flavors go into it. So that's kind of. A new and interactive experience with eating chocolate like the.",Speaker 2,not-edited
00:08:07.480,00:08:45.169,00:00:37.689,"Cool. So the next part we'll keep unboxing it is the technical cocktail. So how are those ingredients you're getting how can you mix those in a cocktail or a cocktail if you don't drink, will include a Choe chocolate bitters that we specially make for this kids. A couple of glasses will include a cocktail recipe, but will also include an experiment guide for you to develop your own cocktail flavor yourself. Lots of thoughts on this.",Speaker 1,not-edited
00:08:47.450,00:09:15.570,00:00:28.120,"Hmm. I mean, you had me like cocktails totally into that was like thinking about the logistics of sending glasses, but that's totally unrelated to the product itself. And I'm sure most people probably already have cocktail glasses, so maybe that might not be necessary. And let me know if I'm just being pick here. We're being critical about exactly right.",Speaker 2,not-edited
00:09:15.580,00:09:16.389,00:00:00.809,So please keep going.,Speaker 1,not-edited
00:09:16.460,00:09:33.880,00:00:17.420,"Yeah, OK. But I'm also interested in this, you know, making up your own cocktail kind of thing, because I feel like now's a good time for experimentation with people like the flavors might not expect any better. Sounds good",Speaker 2,not-edited
00:09:34.480,00:09:37.799,00:00:03.319,to me. OK.,Unidentified,not-edited
00:09:39.410,00:10:19.659,00:00:40.249,"All right, so the last part of the box that is now do it yourself, chocolate bitters. So we'll include some choke accountable. You'll need to buy your own grain alcohol because we can't send that. But you'll get all the steps to make an infused infused account together with some ingredients if you want to create a special blend. And we have some glass droppers that you can bottle it all into when you're done, label it for friend family to give it away. Reactions.",Speaker 1,not-edited
00:10:20.970,00:10:58.309,00:00:37.339,"Well, you mentioned like getting a different family. That's how I like the idea of this as a gift, just in general, I can think of a lot of people that would be totally into this. I'm not sure if I would. But then again, I don't have to like, know what the letters taste like when I'm making cocktails. I don't feel like I don't use experiment a lot with my bitters. I'm usually doing something a little bit more simple, like mixing a few alcohols together and not using bitters. But I mean. If they're really good flavors, they're like really strong and potent, then. Yeah, I think I might be willing to try.",Speaker 2,not-edited
00:11:00.980,00:11:11.299,00:00:10.319,So you said you were thinking of this being a good gift. Are you thinking just the just the do it yourself part or the whole kit as a gift?,Speaker 1,not-edited
00:11:12.660,00:11:52.549,00:00:39.889,"No. So this is this is part of the kit, you said, right? This section, like the whole thing that you showed me, is like little bits of the kit. Correct. OK. So maybe parts of it, and I'm like, that's a really intense if if they were sold as pieces. This is a really intense gift. If you give somebody all of these things. So you'd be like, what do you want me to do with all this stuff? But that's my view of it, if I received all that, I'd be like, well, unless you're like really good friends with them and you can help them out. OK, yeah.",Speaker 2,not-edited
00:11:53.580,00:12:11.950,00:00:18.370,"I was sort of so we went through the whole kit, and it is a lot this is kind of a bird's eye view of all of it. If you were to get this, how would you use it? What have you imagine? Going through all this stuff.",Speaker 1,not-edited
00:12:15.390,00:13:15.409,00:01:00.019,"Means. I mean, like I said, it would be a lot sort of like figure out how to start. I mean, still the instructions are clear, but at the same time you can see where there's room for experimentation that would be helpful. It's definitely not something I've seen before. So. Would need quite a bit of guidance, maybe like an truck or like an expert, you know how I don't know if you've seen like 50 to has videos that they show how the frying pan is used or something. So like a little instructional thing that comes with it that helps you figure out how each piece goes or what you can use each thing for. That's. That's what I would say. OK, enough that's helpful.",Speaker 2,not-edited
00:13:16.820,00:13:35.090,00:00:18.270,"It is, and it really is. And then I'm also wondering, would you do you imagine doing this by yourself? Would you do it with friends or is it something that you would be more interested in giving to somebody else for them to do?",Speaker 1,not-edited
00:13:38.590,00:14:14.670,00:00:36.080,"I think this would be a good thing to do with someone else. I'm not sure about friends right now because it's hard to hang out with friends of the pandemic, but it would be a good activity to do because I feel it could be a little daunting. Like I try to do things that are like even baking. I try to do with other people because I just like. There's so much going on, it's just easier and it's more fun to to do this kind of thing with someone else, but yeah, and as a gift, because I feel like this would be kind of a fun thing that, you know, people normally don't get as a gift.",Speaker 2,not-edited
00:14:18.880,00:14:25.629,00:00:06.749,What do you think you're most the most appealing part of the boxes and the least appealing part of the boxes?,Speaker 1,not-edited
00:14:29.350,00:15:21.289,00:00:51.939,"I like the. First, I think, is the first part where the chocolate and the herbs or the botanicals were. To me, that's I mean, that's just personally probably more useful to me because I'm always trying to. Incorporate more of like natural flavors and things like that and like baking, so I like the idea of having it coming with this and like making cocktails with it or whatever. So it's like you don't have to just use it for this box or the stuff in this box that you can use a little bit of it outside of it. And actually, this would be kind of fun to some since I love baking is kind of fun to figure out how to use the bitters and these flavors and baking recipes. So that's that's why it's my favorite part. And also comes with the flavored chocolate.",Speaker 2,not-edited
00:15:24.000,00:15:25.590,00:00:01.590,And the least favorite.,Speaker 1,not-edited
00:15:27.980,00:15:58.759,00:00:30.779,"Um. Maybe the one that just the one is just like the bitters and the glasses, because it's just like I said, I don't. Need glasses, I'm not sure how many people would, and it's only the one I think it was just the ones that are right. That's not the whole set of choices. So I just I just like choices so that just having one of something. OK.",Speaker 2,not-edited
00:15:59.710,00:16:50.770,00:00:51.060,"All right. So I'm going to now go through the digital part of the experience. So in the box you'll have all the cards you need, like all the content will be printed on cards. Right. So you'll be ready to go out of the box. But you can also find that content will give you a link to get that content on the website. And so for this example, it also comes with a video that kind of takes you a little deeper. And we're also thinking of including a comment section on the website where you can ask questions, know, add some color of see what other people say and chill, might pop in and give some color as well. Knowing that this is how the content will live, like what what are your thoughts on this?",Speaker 1,not-edited
00:16:53.020,00:16:58.179,00:00:05.159,You mean in terms of like user design perspective or how I would use this? Is that what you mean?,Speaker 2,not-edited
00:16:58.660,00:17:05.369,00:00:06.709,"We're probably more the latter. Like, how would you? Because I don't think it's going to actually look like this is more like an example of.",Speaker 1,not-edited
00:17:07.400,00:17:56.619,00:00:49.219,"OK, so, yeah, I mean, I like the idea of the you know, it comes with the you get the comment box because I think a lot of people want to hear somebody tried something and. I personally like to see if people tried it and didn't like it or wanted to change something or had an idea, another idea that and of course just having the recipe section and then if it had the video, it once again, that would be really cool. And, you know, the fact that you get the the paper, the little card and it leads you to the website or something sort of like linked things rather than disjointed. Parts so like the fact that everything's kind of linked together and you. Move through different things. Oh.",Speaker 2,not-edited
00:17:59.110,00:18:11.859,00:00:12.749,"All right, the video is the video, something that's important to you to have to help kind of add color to the content that you have?",Speaker 1,not-edited
00:18:13.700,00:18:42.530,00:00:28.830,"Yeah, I mean, I think especially lately I've been just looking at it, instructional videos for things, I'm just like very visual and that for me it's like seeing the pictures. Not enough, is it? If it adds something sometimes, you know, like for this case, if it's just like somebody, you know, putting the cocktail together, it may not be much, but I'm just like very visual in that way. So it would add something to me. I don't know if it would add something to others.",Speaker 2,not-edited
00:18:44.410,00:19:28.449,00:00:44.039,"OK, perfect. Next thing is the virtual fence. So this is Brad. He's the main he's the chocolate maker. Choa, really cool guy, has a ton of knowledge, both with chocolate and just like food in general. So on these live events, he'll have special guests. They'll really nerd out on the topic. And in this case, it would be botanicals. And if you can join the live events, there's a chat function for you to ask questions, be a little interactive, but if you miss the events, it'll be available on demand. Reactions to this piece.",Speaker 1,not-edited
00:19:30.570,00:19:41.699,00:00:11.129,So it's just like an example of how it may be like this is one example of an event that would. Or do I like the idea of it?,Speaker 2,not-edited
00:19:43.170,00:20:01.349,00:00:18.179,"Yeah, like it's like knowing that if you got the kit and there's a live event that goes with the kid, would is that would you or do you like live events? Would you be interested in in a live event that featured Brad and special guests?",Speaker 1,not-edited
00:20:01.640,00:20:42.450,00:00:40.810,"Yeah, yeah. I like the idea of live events, especially now, but I'm oh I feel like if you're to do live events, I would love to see if it's even possible. Like some of the like places where they get the chocolate from. But I'm like, maybe that's not possible because you have to travel to and interview some of the, you know, the chocolate farmers or something. For me, I'd be a little bit more into that. But like the the highbrow people talking about making chocolate and and like, you know, the workers as well, like the Cho production facility or something like hearing hearing from them and seeing what they're doing.",Speaker 2,not-edited
00:20:45.520,00:20:57.760,00:00:12.240,"OK, that makes sense. So, like the type the type of content is like you'd be more interested in, like maybe behind the scenes of Joe. Yeah, from like.",Speaker 1,not-edited
00:20:59.950,00:21:04.919,00:00:04.969,"Yeah. All right, good feedback.",Unidentified,not-edited
00:21:05.360,00:21:43.429,00:00:38.069,"The last piece is a close group of so as if you get a kit, will also invite you to join. Maybe you use it at work. And and you'll be connected with other, you know, fellow cello aficionados, you can share your recipes, your pictures, ask questions, Chele will be in here, too. So it's it's a place for you to to have community on some level. Is this something that piques your interest?",Speaker 1,not-edited
00:21:45.160,00:22:14.750,00:00:29.590,"Oh, for me, not so much, mainly because I was slack for work and it's just like I don't know if it's just like overuse of the platform and I just don't want to. So I just think about work all the time. If I'm using slack, like I've tried a few things where it's outside of work and it's hard to. You know, keep an eye on everything, because just for work, it takes up so much time. So I'm just not sure where I would incorporate the time to look at this and interact with it.",Speaker 2,not-edited
00:22:15.790,00:22:23.440,00:00:07.650,"That's totally fair. If if this were on, like Facebook groups, would that make it more appealing to.",Speaker 1,not-edited
00:22:26.550,00:22:53.800,00:00:27.250,"I don't think I've ever really used Facebook groups. I'm just trying to think like where it would be, where I would. Look at it often for me, I'm more of like an Instagram user, so I'm not sure if there's anything to be done there. Maybe I would look at like stories and things like recipes come up in the stories or. Instagram live or something like that would be.",Speaker 2,not-edited
00:22:57.040,00:23:17.069,00:00:20.029,"All right. This is this is good, good feedback. All right, so you showed you all the pieces, we showed you the box, the online, the digital stuff. For each quarter. The price for speaking of is one hundred twenty five dollars per box reactions to this price.",Speaker 1,not-edited
00:23:19.530,00:23:45.450,00:00:25.920,"And. I mean, to me, it sounds high, but then I'm just like trying to think like, you know, all the elements and how it's how much I would normally spend on these kind of things. And I've never, never think about how much a live event would cost because, you know, you know how much an event costs if you're going to wonder or if it's a free one. So for me, it feels a little high, but I am kind of stingy sometimes. So that might be it.",Speaker 2,not-edited
00:23:47.580,00:24:00.149,00:00:12.569,"So I think that's fair to it's good to hear as you're going. As I was taking you through the experience, what were you thinking of a price before we got to the slide?",Speaker 1,not-edited
00:24:03.040,00:24:32.490,00:00:29.450,"I mean. It wasn't thinking of an exact price, but I guess I wasn't expecting this one to think like I'm mainly able to, like, take the kids. And actually, I should ask is this. For just a year, like you said, every few months, you said quarterly, so this would be like a price for one year, four times or. For doing that",Speaker 2,not-edited
00:24:32.570,00:24:52.030,00:00:19.460,"this. For the box, which a new box is released every three months. So if you wanted the full year, it would be four boxes. We haven't we haven't thought about like annual discount prices or anything. Not yet, but it would be price that way.",Speaker 1,not-edited
00:24:52.480,00:25:30.119,00:00:37.639,"OK, so this would be for the box for the one year the show that you showed me. Yeah. Yeah. Like off the top of my head, I probably put maybe like 60 or so on it, maybe less. But I'm honestly not sure like how much goes into making the bitters and things. So like I know that there's those kind of things are usually pretty pricey if you're buying, like, cocktail mixers and things like that. So. So I don't know if 60s like, but somewhere around there would be where I would say.",Speaker 2,not-edited
00:25:32.890,00:25:35.140,00:00:02.250,"Good information to know, like where your head's at.",Speaker 1,not-edited
00:25:35.180,00:25:37.299,00:00:02.119,No good could be unreasonable.,Speaker 2,not-edited
00:25:41.290,00:26:11.699,00:00:30.409,"OK, so other pricing models that we're thinking of is so we showed you one big hit, right, with three parts of it. What if it would still be quarterly? But the kit was just the first two parts. And if you really liked the third part, like the add on and you can just kind of upgrade your kit to include all of it. Does this type of like add on model, make it more appealing to you?",Speaker 1,not-edited
00:26:14.010,00:26:34.950,00:00:20.940,"So it would be kind of like this, like you would get those two exact and the add on would be the bitters or would it be interchangeable? Like you can get, you know, the flowering bitters and then the botanical cocktails can be the add on. Is it that kind of or it has to be like you want it to be like this kind of exact.",Speaker 2,not-edited
00:26:36.490,00:26:40.170,00:00:03.680,So would you would you want to be able to kind of build it yourself?,Speaker 1,not-edited
00:26:42.490,00:27:18.499,00:00:36.009,"I like having, you know, the option to build something like that myself. I think I mean. To me, I'm not sure why someone would want to, you know, have the add on when I would prefer probably to have like all three options and then if I want to just one. I would just take one or two of them rather than having two plus one, but I mean, maybe there's a reason why guys came up with it this way. Once again, it's like personal gut gut reaction. I haven't really thought it through.",Speaker 2,not-edited
00:27:20.890,00:27:50.020,00:00:29.130,"But God is what we need. I want your gut. So what if we priced it like this or we broke it up like this? So it's the same kit, but we'd send you each piece at one month at a time. So January you would get the flowering flavors. February you would get the cocktail, and then March you would get the do it yourself bitters.",Speaker 1,not-edited
00:27:53.510,00:28:22.380,00:00:28.870,"I think that's interesting idea. I mean, it gives you some time to explore each piece of it if they're able to, like, stand alone as a piece. So like, you know, you start doing one you don't need the part to in order to complete one that you can like. Take that, the piece that you received in month one and you can go with it without needing the other, too, so I think that's a interesting way to go about it.",Speaker 2,not-edited
00:28:24.000,00:28:28.650,00:00:04.650,"If of the three that I showed you, what would your preference be?",Speaker 1,not-edited
00:28:30.660,00:28:35.490,00:00:04.830,The three options of how to choose. Hmm.,Speaker 2,not-edited
00:28:37.280,00:28:41.410,00:00:04.130,It's like one kid out on a monthly.,Speaker 1,not-edited
00:28:44.790,00:28:48.929,00:00:04.139,"And I'm assuming they would all add up to the same price and that wouldn't make a difference, but.",Speaker 2,not-edited
00:28:50.910,00:28:55.980,00:00:05.070,"Well, the more we break it up into separate boxes, it does go up in price a little bit.",Speaker 1,not-edited
00:28:57.270,00:29:49.579,00:00:52.309,"OK, so yeah, that's a good thing to know. I'm stunned me, because I'm like, I've never seen three different ways of going about this, what would I do? Maybe the the middle option, the having the add on. Just personally, I'm not I'm not sure why I just I was just like the one that drew me in the most, like I wouldn't need all those things at once in the first package, which just like a lot of stuff like it might get overwhelmed with having all of it. OK, and the last one, it's. It's like there's a big time difference in between an. Yeah, and I'm not sure.",Speaker 2,not-edited
00:29:53.090,00:30:45.290,00:00:52.200,"I think this is really interesting. OK, yeah, thank you. All right, so I'm going to move on to experiment ideas. So we talked about how a little bit about the experiment, but I'm going to I'm going to dove even deeper. So the botanicals kids. You will include a recipe, but our our desire is to not just give you recipes to memorize. We want to give you a process for how you can explore your own flavor combinations. So this imagine the sheet folds out onto your counter and in it takes you through all the steps for creating a few different flavor combinations. And so then you then you really get to decide for yourself what your favorite cocktail is with the ingredients of the box.",Speaker 1,not-edited
00:30:49.500,00:30:51.570,00:00:02.070,So my reaction to this.,Speaker 2,not-edited
00:30:52.080,00:30:52.789,00:00:00.709,"Yes, sorry,",Speaker 1,not-edited
00:30:54.060,00:31:36.299,00:00:42.239,"no, like this is very. Makes me think of like science class when you're putting swabs on or you're like looking to see if you're looking through a microscope or something and trying to see how the makeup of something. It was interesting. I mean, I'm I'm very into one thing. I talk a lot about baking, but I'm very into seeing how different flavors go together like lemon and lavender and things like that. So I would be would be into like. Doing this kind of sheet, physical homework for myself, just to try things out and see how they go together. So. Yeah, I think this is fun.",Speaker 2,not-edited
00:31:39.130,00:31:47.529,00:00:08.399,Is this something that you would do with your life by yourself or would you want to do with others?,Speaker 1,not-edited
00:31:52.740,00:32:29.349,00:00:36.609,"I feel like this could be either one mean, like if if I feel like if I do this by myself, at least I won't be influenced by other people, I can decide on my own if I like to flavor's or not. But it could be another could also be something good with other people because you can try things out. And if somebody has a different reaction than you can laugh about it or something and come up with like somebody likes this mix of flavors and somebody like this makes me like, you know, but he's trying something else and it's like an interactive, different kind of activity.",Speaker 2,not-edited
00:32:30.400,00:32:54.459,00:00:24.059,"OK, another experiment that we're thinking of is do it yourself, make or series or so. We'll give you baking discs to melt. We'll teach you how to temper chocolate popping into some molds and with the ingredients in the box will guide you again through different flavor combinations. Any thoughts on this experiment?",Speaker 1,not-edited
00:32:57.580,00:33:26.499,00:00:28.919,"I think that's really cool. I've I have wanted to make chocolate before, so it's always like, oh, this is this is too difficult because it's like watching British Bake Off when they're tempering chocolate. It's the scary thing to see them do that. I'm like, I'm going to mess it up. I don't want to mess up the chocolate, but I mean. It's totally into trying this, especially with someone else. I mean, I live with my family, so I could probably. Make it like a family affair to make chocolate.",Speaker 2,not-edited
00:33:28.260,00:33:48.960,00:00:20.700,"Cool would if we were to give you this is like imagine you were getting a box of recorder and this were an experiment that came up multiple times, but with different ingredients. Would it would it still be appealing to you or is it become less appealing?",Speaker 1,not-edited
00:33:52.780,00:34:07.869,00:00:15.089,"So you mean the box would come, this is like just the chocolate portion. You mean like the box would come with, like, stuff you would make for chocolate one month, maybe next month? It's stuff for different flavors of chocolate. Is that what you mean or.",Speaker 2,not-edited
00:34:09.480,00:34:16.510,00:00:07.030,"Yeah, so like maybe the first month is botanicals and then the second month is I have a bit. I don't know that.",Speaker 1,not-edited
00:34:21.159,00:34:52.000,00:00:30.841,"I guess it depends on, you know, if I'm like if I can try it the first time because I don't want to like like I said, it's a darn thing to make chocolate. And I don't want like if I suck at it, I don't want to have to keep, you know, keep going the boxes. I'm like, what the hell did I do with this now? But I but I do like the idea of like, you know, having a different side each time so you can try new flavors. That part I do. But the chocolate making part is still kind of scary.",Speaker 2,not-edited
00:34:55.300,00:36:15.699,00:01:20.399,"Good feedback. All right, so we're now at our last portion and it's other kid ideas, so we just walk you through botanicals. Another idea is beer and chocolate. We can't send beer in the kit, but we'll send our hops, we'll send some malts, and it will go alongside information that teaches you about the brewing process and how flavor is is created in beer. Then we'll we'll we'll walk you through a beer and chocolate pairing exercise so you can really see how the two flavors just change. One another will give you a dove bar flavor that we've made, but will also give you an like an experiment for you to try your own Dove Bar recipe and try out some different combinations. Similarly, there's chocolate and coffee there being brothers, there's a lot of overlap, but there's some differences in learning about origin, learning about fermentation. So we'll do a pairing and we'll also do like a barista inspired chocolate bar and experiment. Reactions.",Speaker 1,not-edited
00:36:17.180,00:37:00.929,00:00:43.749,"I feel like I feel like this is actually maybe even more interesting to me than the botanicals because. Because when I think about beer and chocolate, I like the coffee, I'm thinking about where everything is from and like the process and how that compares to just feels like a like a somewhat replacement for you being able to go to a brewery or something and try beers. So I like the idea behind it. And, you know, the fact that you can like, do a tasting. And I've never actually even thought about trying beer with chocolate. So it's like a brand new concept to me. And then with coffee, I'm just like, that's like a perfect combination to to having a kip.",Speaker 2,not-edited
00:37:03.100,00:37:06.699,00:00:03.599,"Good, um, how would you rank these?",Speaker 1,not-edited
00:37:14.140,00:37:22.539,00:00:08.399,"Maybe. Beer one first, coffee second and botanicals last.",Speaker 2,not-edited
00:37:27.220,00:37:38.820,00:00:11.600,"What what is it I want to dig deeper into, like, what about botanicals isn't working as much for you? Do you have a sense of what's bringing it down?",Speaker 1,not-edited
00:37:43.370,00:38:39.199,00:00:55.829,"I think it's not so much that it's not working for me, it's just that the other two sounds so much more appealing for some weird reason. I think it's just like the two. Like drinks or things that I really like, so I like the idea of. Now, the interaction with chocolate and the whatever videos or things you guys might put together with that stuff like that, that can go a lot farther and become more enriching experience than maybe botanicals would. But. Yeah, I don't. I don't know, I just had a stronger reaction to those accounts. You were holding back, it was like the tentacles and then, oh, these are even more exciting because like I said, it's like some some kind of a replacement for traveling and trying stuff. It just seems. But that appeals to me a little bit more with beer and coffee.",Speaker 2,not-edited
00:38:42.590,00:39:18.739,00:00:36.149,"I, I, I love the way that you said it's like traveling in the kids. That's very helpful. Now, I'm it's not on the side. I don't have a slide for it. But I'm wondering, what if there was a kid that just focused on, let's say, earthy flavors or another one was focusing on salt, and we gave you all different varieties of salts that are out there. What would you think about that? I'm really asking you to imagine that then what was it like just hearing those? What do you think?",Speaker 1,not-edited
00:39:20.550,00:40:03.560,00:00:43.010,"I think that's an interesting way, because I guess that would potentially, you know, overlap with these kind of things, like you wouldn't be stuck in one kind of area, like he used to be forced to think a little broader, what you're tasting and. Where the products come from, we have the salt thing is thrown me off because I'm like, don't know how much salt that one could take and how much interesting stuff can be put in that. But like, earthy flavors. Yeah, that would that could be interesting because, you know, you could totally have a lot of stuff comes from the Earth, so you can really have a good variety of stuff that goes in it.",Speaker 2,not-edited
00:40:07.760,00:40:24.330,00:00:16.570,That's that's all she wrote in terms of stuff to show you now that you've seen it all. Any final thoughts or. Or questions or anything that you want to. So let me,Speaker 1,not-edited
00:40:24.330,00:41:11.070,00:00:46.740,"know. Yeah, I've never seen kids like this, stuff like that, a new thing and. Yeah, I like seeing, like, the beer stuff and everything and talking about the travel parties, shit like this kind of stuff is really good right now to have because that way you're not just like buying things without thinking about it on this kind of forces. You to think about, you know, where it's from, who's involved, which. No. What kind of flavors you're eating, that kind of thing? I think it's a fun idea to be very curious, to see how it works out and what other people think.",Speaker 2,not-edited
00:41:14.070,00:41:38.579,00:00:24.509,"US, too. Yeah, we're we're getting some more research, but so far we are hearing that it's like they haven't seen it like this before, which is it's good to hear. I wanted to ask, though, in the very beginning of our chat, you talked about rocka, you belong to subscription. Can you talk a little bit about about that?",Speaker 1,not-edited
00:41:39.870,00:42:09.420,00:00:29.550,"Yeah, I'm subscribed to to their two barback, so it's like every month they have a special, you know, flavor for their bars and to two different flavors, but they're like the same series. So if it's like coffee, they have a Turkish coffee and then some other like Latin flavor or something. So, yeah, every month there's like two bars and then you get to trial like exclusive flavor, basically. So.",Speaker 2,not-edited
00:42:10.920,00:42:15.119,00:00:04.199,These flavors can only get through like the monthly kit.,Speaker 1,not-edited
00:42:16.490,00:42:46.969,00:00:30.479,"Yes, but now they've now they've expanded it so that you can order like in September, you can order the Octobers flavors that October flavors. I think this is more recent, probably because people complained that, you know, they want to get the exclusive flavors. Why not? Why can't I get the you know, I think it's like a limited thing. So they make a limited amount of that bar so that maybe that's why. But it's more recent. But you can get it.",Speaker 2,not-edited
00:42:48.570,00:42:51.689,00:00:03.119,How how long have you been subscribing?,Speaker 1,not-edited
00:42:53.680,00:43:33.769,00:00:40.089,"Um. I feel like maybe two years I didn't start that long after. The pandemic started so I could just it was like I kept I think you can push the subscription to like the next month, you can skip months. And I did a lot of skipping before, but now I'm just like, give me all the chocolate because it's comforting and know just fun to have the flavors so that maybe, maybe two years, maybe even three years it's been it's been a bit. But like with all the skipping, I'm just like not sure how long I've actually been doing it.",Speaker 2,not-edited
00:43:34.790,00:44:05.390,00:00:30.600,"So it's still a long time, though. Yeah. All right, well, Yula Yulya, as always, it was a real pleasure, thank you. Thank you a lot. I will send you a quick email after this about the gift card. It it's an option between Amex or Cho dot com. But you can think about it and you can just email me and let me know which one you prefer. OK. All right, great. Enjoy the rest of your evening and thank you again.",Speaker 1,not-edited
00:44:06.720,00:44:07.670,00:00:00.950,Thank you. Have a good night.,Speaker 2,not-edited
00:44:08.040,00:44:08.460,00:00:00.420,Yeah.,Speaker 1,not-edited