In,Out,Duration,Text,Speaker,Status
00:00:00.330,00:00:11.099,00:00:10.769,"And but before we jump in, I wanted to start first with. Questions about any subscriptions that you belong to.",Speaker 1,not-edited
00:00:11.910,00:01:03.410,00:00:51.500,"OK, partner, what do I have? I've got like a few magazines, so that's news. Dwell. And then Architectural Digest. And then I've got like off and on, I'll do a couple, like subscription boxes. So what is one duty, which is like a vegan beauty brand? One. What else? The vegan's strong team. It's like all and fitness related stuff, I'll do that. And then we've got a slew of media subscriptions in terms of like streaming services and channels and things like that.",Speaker 2,not-edited
00:01:04.239,00:01:10.819,00:00:06.580,All right. Yeah. Was it you that did seed were you a seed subscriber? Yeah. Yes.,Speaker 1,not-edited
00:01:11.090,00:01:11.340,00:00:00.250,Yeah.,Speaker 2,not-edited
00:01:11.560,00:01:22.989,00:00:11.429,"That to pull any any subscriptions that you've you've canceled, it doesn't have to be recent like you've ever tried. And I guess it's not for me.",Speaker 1,not-edited
00:01:23.200,00:02:28.899,00:01:05.699,"Yeah. There were a couple like snack box sort of ones I think was there was one, it was a few years ago like the first one I did, I think it was called kind snacks. And then there was. Was it? They're vegan cuts, I canceled them because they're they came out with some craziness, like during the crazy views on social justice and whatnot. Last year, I like, oh, you're like, no, no, thank you. They were kind of they came out with, like, a weird, like all lives matter, kind of stands, like real hard and kept doubling down on it. So it's like, no, thank you for that. Yeah. Deleted was subscribe to Bon Appetit for the same reason, cuss them out. And I think there's been like a couple other ones, like a one or two time, like mostly snack oriented kind of things.",Speaker 2,not-edited
00:02:30.380,00:02:38.119,00:00:07.739,"OK, any that you heard about and are interested in trying or you're curious about.",Speaker 1,not-edited
00:02:39.270,00:03:28.060,00:00:48.790,"There is one, so I've been Augusta's lushes has like Chocolate of the Month box, and they will open up windows for participating in it like once or twice a year. And I've never been able to get on it. I really want to like every once a year, either during holiday time or something, you know, all kinds of like media news sites will be like check out all these fun chocolate things. And they always highlight that. And I'm like, do I want it on the head of it? Never. They do a limited amount and I never get in there. I would love to do that one. And then the naughty cookie does one too, that I've been like, I don't I don't need a dozen cookies delivered to me every month, though. That's the thing. I shouldn't I don't need that. Like, we'll see.",Speaker 2,not-edited
00:03:28.540,00:03:31.120,00:00:02.580,All right. I do that. You do.,Speaker 1,not-edited
00:03:31.120,00:03:49.270,00:00:18.150,"But well, so this is what I always wear because I'm like, that's a great idea. I should do that. I want cookies. I should just go make cookies. I'm going to make cookies is what it that's the cycle. That's why I have basically the only reason that I haven't done it yet. It's because I'm just like, oh, I just make cookies to everybody. It's fine.",Speaker 2,not-edited
00:03:50.890,00:04:30.579,00:00:39.689,"Well if you haven't found out where we're going with this yet, maybe the line of questioning, I'll show you now it's my idea from show and like I said, confusing. Hate it, love it. Like, all of it's going to be really helpful. So here it is. So it's Cho's Taste Chasers Club, and it's a limited release subscription kit that will explore flavors inside and chocolate. And it's every quarter they'll dove into a new flavor theme with education products and experiments applies here and get your initial reactions.",Speaker 1,not-edited
00:04:31.630,00:05:27.470,00:00:55.840,"Sounds interesting. What is really like well, like that it's quarterly and not every month, because between the logistics of billing and there's a box of chocolate melted on my porch again, I think it would be cumbersome, like you'd be more aware of it, I think, if it was quarterly flavors inside and outside chocolate. That's interesting because I know that Cho, along with a lot of other chocolate companies, will bring, you know, do stuff beyond like chocolate and nuts, chocolate and caramel. And I think that, you know, with the education element, like I always want to know how stuff is made, anything like whatever it is like, how does it get made? What what goes into that? What's the process? Who who has a job that involves making chocolate like that stuff kind of always fascinates me. So if there's like a theme and a story behind it, that would be really interesting.",Speaker 2,not-edited
00:05:28.350,00:05:34.670,00:00:06.320,"OK, and what what are you imagining in the kit based on just this information?",Speaker 1,not-edited
00:05:36.590,00:06:13.929,00:00:37.339,"Well, I would imagine there be some kind of chocolate. Maybe something that has to do with the accompanying flavors or origin of the chocolate, depending upon what region it comes from, the ingredients that are added to the chocolate or the chocolate itself experiments is interesting. Not sure what that would be unless it's like a recipe. So if there were like components for a recipe where, yes, you should definitely only use. Our chocolate and these other ingredients, you've got everything else, maybe that would be it.",Speaker 2,not-edited
00:06:14.540,00:07:00.920,00:00:46.380,"OK, so I'll show you a quick slide with a high level description of the kit, but then I'll walk all of it in detail. So these Chasers Club is you'll get the kit, which is the box that arrives is going to be a lot of fun stuff in that box. But it also comes with, you know, exclusive online content like virtual events and a close knit group. And all of these digital components are meant to complement the box and also enrich the box experience. But the first thing we'll start off with is the box itself. So I'll just I'll dove in, actually. I'll pause here. Like, what do you think what do you think about this kind of summary so far?",Speaker 1,not-edited
00:07:01.750,00:08:09.350,00:01:07.600,"It sounds interesting. I like the idea of having like a live event component to it because we're all still stuck at home. So we're not going anywhere and need something to look forward to. So that's really interesting. I'd be curious to see what that was about. I don't know about a close knit group. Like I would want to talk to strangers about chocolate. Really the design like initial, however conceptual, like first run. This is like if this is just proof of concept or whatever I like, it looks like there's very nice paper to see. There's foiling on the gold foil and man on the paper design nerd. So like the Navy Blue paper, like it looks like a nice paper, looks like it's well designed, like good typography. It's not like good use of typography as a design element instead of trying to just make up like design, you know, filigree or anything like that. I like using the typography as a design element for it. Yeah, I think the color scheme looks really great.",Speaker 2,not-edited
00:08:09.770,00:09:16.220,00:01:06.450,"OK, cool. Thank you. All right. So let's go to our box. The first kit idea we're thinking is around botanicals. So everything in the kit will be centered around how Mother Nature grows. Some really cool flavors. Right. So it's a big box. Unbox it in three parts, a positive point. So the first part is just the the ingredients themselves. So we're going to go behind and talk about the science behind flowering and how flavors are developed. We'll give you four different botanical ingredients of fennel pollen and stanis hibiscus, orange blossom water and kind of info cards on each, but also handed out with a limited release or series bar. So they only make a few a few of these and it's going to be a bramble and rose. So it's a chose expression about how Bramble lives in chocolate pours here.",Speaker 1,not-edited
00:09:18.800,00:10:11.999,00:00:53.199,"I like the design scheme. Again, I think the the colorways look really great. I can't tell if the bottles if those are orange plastic or if they're wood tops or not. But I think that, like esthetically, that looks great in the ampule, the dropper with the amber glass I think is really nice adds a good kind of compliment to the color family that's chosen here. It looks like like it looks like something that you would definitely anticipate every quarter or every month. Like it's it looks premium enough to where you would probably be like, oh, this might be too expensive to do, maybe every month, but you know, that you get something that's more engaging and like every quarter. So I think that I would I think I would be excited to get this for sure. All right,",Speaker 2,not-edited
00:10:12.240,00:10:51.629,00:00:39.389,"cool. So let's let's keep on boxing this. So the second part of this is botanical cocktails. So we'll explore how the ingredients you got can fit with cocktail recipes. And we'll also include a special limited edition, chocolate bitters that Cho made. Some will kind of start to play around with the flavors of botanicals chocolate bitters. You'll get a couple of classes. You'll also get a recipe, a cocktail recipe and an experiment guide to kind of help you play around with those flavor combinations yourself.",Speaker 1,not-edited
00:10:53.580,00:11:01.240,00:00:07.660,"OK, I think so. Would this be in addition to the chocolate in the bottles of botanicals?",Speaker 2,not-edited
00:11:01.680,00:11:05.020,00:00:03.340,"Yeah, so you'll get this and then underneath it is this.",Speaker 1,not-edited
00:11:05.040,00:11:53.860,00:00:48.820,"Oh, OK. All right. Wow. That's a lot of stuff. I think that. That this could be a good way to try different stuff that I probably wouldn't otherwise like, if you just think chocolate and the actual texture of chocolate is so important to me that if there's a chocolate flavored something, if it's mixed with something fruity or botanical, otherwise, like, I tend not to go for it. But if it becomes more of like an experiment like this where I'm learning something about it, then that would interest me far more. I'd be far more motivated to make this cocktail than I would otherwise like. I would never seek these things out. And so I think that the idea of discovery in that way would be interesting and engaging for me.",Speaker 2,not-edited
00:11:54.670,00:12:32.150,00:00:37.480,"OK, cool. The last part of the box. So you keep unboxing in the same box is now do it yourself. Chocolate bitters. So you'll get Concow, you'll have to buy your own grain alcohol because we can't ship that, but we'll give you all the stuff to infuse the accountants in the in the alcohol and you'll create your own chocolate bitters and you can layer on with some of the other flavors that we gave you. So you have your own blends, but you'll get these glass bottles with labels for you to gift out your final product to friends and family.",Speaker 1,not-edited
00:12:32.740,00:13:15.580,00:00:42.840,"Oh, well, that's really cool. Yeah, that is really cool. I think that. Like everybody's trying to do, everybody's trying to do something to keep themselves busy, you know? And I think a lot of people are very into more DIY stuff. Just, you know, again, something to do. But, you know, you can have really great intentions and spend a bunch of money like the art store or whatever it is. But I think that this is something that you could be like, look, I made this. It's really cool. Obviously, it's really well, package packaging is always important. I think that that is definitely something that I would do that like people that I know would be excited to get.",Speaker 2,not-edited
00:13:17.250,00:13:27.109,00:00:09.859,Cool. So that's that's the box and this slide kind of shows you all of it together. What's what's your favorite part? What's your least favorite part?,Speaker 1,not-edited
00:13:29.330,00:15:16.639,00:01:47.309,"I think that the the element of kind of the story behind the chocolate and being able to try new combinations, like you would wonder why, like what is first of all, what is fennel pollen y where does it how does it go into chocolate? What does that have to do with anything? So I really like that. I like the idea of like bottling your own chocolate bitters and having the equipment to do that and go like that. Otherwise, I don't think I think it's something that a lot of people would be interested in but would do right away. I would worry about. How much glass is involved being jostled around the box that way? So I feel like packaging and stuffing would be a logistical element because how bummed would you be if you got two broken glasses there, your bottles were shattered or some things, but if they're empty. I think that the overall look, again, in the colorway looks really great. I wouldn't want to know. I think I would probably want to know, like about each of these ingredients in the way of like, where could I get these? Like, is this a real thing that's accessible to people or is it only coming in this magical little box? So, like, if I love this, then where do I go? Do I have to go down somewhere in rabbit hole on the Internet? How do I get that kind of a thing? But that's kind of exciting. That's like the part of discovery for it. And I think that. It lends itself to more of, again, like a discovery, like a learning experience, like you learn something new instead of, oh, I ordered some chocolate because anybody can do that, you know?",Speaker 2,not-edited
00:15:18.130,00:16:12.309,00:00:54.179,"OK, cool, so next, let's take you down the digital experience. So in each box, you'll have the cards. So everything in the boxes is printed. You don't need to go online. But we do have an online component that includes some videos to take you a little deeper. If you prefer being online and if you lose a card is always there. We're also thinking about including like a comment section on the pages. So if you have questions, if you want to add on anything, Choa might pop in and give you an answer or other club members will pop in and share their ideas with any of this be something that you would use.",Speaker 1,not-edited
00:16:13.310,00:17:52.910,00:01:39.600,"Yeah, I think that being able to ask a question element is really interesting because usually if you're if you're interacting with a brand, some online like somebody there becomes, you know, social media like DMM or you mentioned them as a means to like get them to pay attention to you or you're talking to customer service. So if you have this forum where you know that it's likely they will answer you or other people answer you whether it's questions about ingredients or recipes or am I doing this right or did this happen to anybody else kind of thing? I think that's really interesting. I do again, I really like paper and stuff. So I would probably I mean, I think I might actually end up using both. Like if I had a question, I would definitely go online. I would like to have the the card there with me. I think, like, a lot of. Subscription boxes or kids or whatever that have gotten before, they all have the same kind of know coded glossy or like glossy kind of cardstock, and then you end up pulling that stuff out and it slides all over the place. So I would say, like, if you're going to do cardstock, please do. Matt, please don't do Glassey. Please don't do code because it just becomes and I think, you know, I've gone to like natural products w like Expo West and everything before. And it's a same thing like you want all this information and then it just everybody's got the same kind of cardstock and it's super slick. So it just becomes this pile that cascades across your table when you're done with it. And you're just you're going to lose that right away.",Speaker 2,not-edited
00:17:53.660,00:18:06.220,00:00:12.560,"I love it. I'm writing that down. OK, cool. What about what about the video portion of it? Is that is that important for you? Is that something nice to have? Maybe you wouldn't use it though.",Speaker 1,not-edited
00:18:06.680,00:18:38.149,00:00:31.469,"I think it's important because especially if we're talking about, you know, botanicals and other ingredients that you're not familiar with. And I think that's kind of the upside of something like this, is that it's not just, oh, chocolate, peanut butter, no way. You know, it's stuff that you probably wouldn't think of otherwise, you know, referencing like the fennel pollen. I would want to know that I'm doing it right. You know, I'd want to see it first and see how it's presented and how it's used. And I think that visual element is important.",Speaker 2,not-edited
00:18:39.920,00:19:21.320,00:00:41.400,"OK, go next, is that live events? So, Brad, this guy in the picture, he's the main chocolate maker, Encho, and he's he's a really cool guy. He's got a lot of knowledge. So the live event would be Brad talking with special guests to go really deep on, maybe nerd out on the science or talking more about how he approaches flavor it. Let's say some students can chat live with with the team and ask questions. And if you miss it, there's always going to be a recording available to you afterwards. Reactions to this.",Speaker 1,not-edited
00:19:22.330,00:20:39.200,00:01:16.870,"I think that that would be really interesting, especially depending upon who the guests are, if it's maybe if it's somebody that's outside of chocolate or culinary world, that could be really interesting because, again, I think that the. You know, the upside to this is that it's not just like basic chocolate, like nuts and caramel, it's it's a premium thing with specialty ingredients. So he obviously has a lot that he must know that he can share with somebody. And I think that's far more interesting. If you're talking to somebody who isn't just going like, yeah, you're amazing, you're amazing, you're amazing. You know, you're right. We're great. Like just patting themselves on the back. If it was a guest that he was talking with, that not like has to do a talk show or anything, but somebody that's not already involved in that and confectionery or anything. And I think that, you know, we all have I have like three or four live events that I go to a week now because trapped in the house. So, you know, you can only watch, like, so many concerts where it's somebody, like playing to an empty room, which is super weird. Same with comedy stuff where it's just somebody talking to their computer, too. Like, you don't have that kind of ambiance and this sort of situation. You don't need an audience, but I think you could learn a lot.",Speaker 2,not-edited
00:20:40.790,00:20:55.299,00:00:14.509,"OK, and let's think of like a post pandemic, we're hoping that it's sometime this year. Any any predictions on whether this would still be interesting to you?",Speaker 1,not-edited
00:20:57.000,00:22:05.400,00:01:08.400,"I think so, because, you know, like everybody, I think it's going to take a while for people to get comfortable being out and about, especially in very large spaces that are very crowded as something like mask wearing becomes very politicized as it is already, you know, and then you have the element of vaccine and then you get a whole new level of crazy when you hear opposition to that. So I think it will take a while for people to you know, if everybody got vaccinated in two months, I don't know that I would still be like, you know, and a summer concert series, you know, I can't imagine, like, I would go maybe to dinner, but not it. Let's go share air with two thousand people or something. So I think that people being able to access more and different types of entertainment than they would if they were buying a ticket out in the real world is going to stick because people are just looking for new ways to stay engaged and discovering things I think that they might not otherwise.",Speaker 2,not-edited
00:22:06.450,00:22:47.380,00:00:40.930,"OK. But thank you. And then the last bit is a closed group, but the idea here being that a. If you're a member of this kid or this club will invite you to a closed group, it's similar to the comments on that page. But here it's more you'll have different channels. Cho will still be involved. You share recipes, share pictures from your kid questions or submit your ideas for the next chocolate bar. So it's like getting involved with the Cho community reactions.",Speaker 1,not-edited
00:22:47.930,00:23:16.099,00:00:28.169,"I would be less likely to do this just because you think of Slack as just the work. You know, I already have two different slack networks for for work, so I'd probably be less inclined to want to hear that ding go off anymore. And I think that my interest in recipes in question would be more geared towards interest in what the brand has to say versus other fans.",Speaker 2,not-edited
00:23:17.200,00:23:23.900,00:00:06.700,"OK, what if this were a closed Facebook group, would that make it any more appealing?",Speaker 1,not-edited
00:23:26.780,00:23:52.689,00:00:25.909,"I don't think so. I think it's you know, there's already so many ways to kind of find find your tribe on social media, otherwise, I don't know that having it be specific to a brand would be something that I'd be interested in. OK, so then just being a female, you just open yourself up to a whole new wave of creeps, you know, being online, because that's that's what the world is, unfortunately.",Speaker 2,not-edited
00:23:52.700,00:24:16.299,00:00:23.599,"But yes. Creeps. OK, that's good. So. All right. So I've given you all of the details. All of this comes together and Kit and the price where we're kicking around is one hundred and twenty five dollars for the quarterly kit and all the digital stuff. OK, your thoughts on the pricing.",Speaker 1,not-edited
00:24:16.610,00:24:49.180,00:00:32.570,"Is that so? That's per box. Per box. OK, I think I'd probably be higher than I would have anticipated. But understanding that obviously the packaging and the logistical elements of that is a huge expense. I was like as I was watching all of this, I was kind of thinking of that, too. Like, I wonder how much this is. I was thinking it would probably be like the 75 to 80 range. One twenty five, I think seems steep. Yeah.",Speaker 2,not-edited
00:24:50.290,00:25:28.299,00:00:38.009,"OK, that's that's totally helpful. So you're thinking seventy five to eighty dollars per box. Yeah. So other ways that we've thought about pricing this out is so it was a big a big hit. Right. And it's all like three different parts in the kit. What if you only got like the first two parts of the kid? So the ingredients and the cocktail glass and the bitters. And if you wanted to do the do it yourself that or you can you add them on as a as a separate plus up.",Speaker 1,not-edited
00:25:30.400,00:26:56.979,00:01:26.579,"Hmm. I think that if. If I was only going to do two of them and one was going to be an add on, I would rather have the DIY bidders be part of this versus the cocktail. Because that seems like a more interesting project to me, you know, and it kind of propagates in the sense that you can hand it out to other people. But then you also you need to justify having those botanicals not just in the chocolate, but in the in that, too. And I think that that would be. Hard to convey to somebody like why you would want this ad on, you know, if you didn't if you just saw these two things on your own and then you were opting for the other 40 dollars, and then that's still taking you up to 140, which I feel like it's still a little steep for that, like for an ad on experience. If, you know, you're you're upgrading something essentially. Yeah, I feel like people wouldn't wouldn't do it, because if they didn't have the bitters and context with everything else, I don't I feel like I if I didn't have you like walking me through this and I just saw this and I could also add that I don't think I would really get the value of that and I would not buy this the upgrade.",Speaker 2,not-edited
00:26:59.300,00:27:33.630,00:00:34.330,"I think that's really helpful to hear. Yeah, OK, cool. All right. Another pricing model of thinking is that was a really big box of stuff. What if we teased it out into smaller boxes? So let's say January, you got the ingredients, some of the background science, February, you got the cocktail and the bitters. And then March is the do it yourself. So the quarterly theme, the Q1 theme is botanicals. But we kind of give you this like a quarterly experience, monthly experience.",Speaker 1,not-edited
00:27:35.390,00:28:02.839,00:00:27.449,"So I like that. That is a cumulative process. So instead of just here's all this stuff in a box, eat the chocolate, then come back and figure out what all this other stuff is. You know, I like that it's cumulative and it's kind of has a narrative essentially with the ingredients, which I think I would be more inclined to do definitely than like here's these two things. Here's an add on that you can upgrade versus learn more about this every month.",Speaker 2,not-edited
00:28:05.330,00:28:26.250,00:00:20.920,"OK, now you're making me think, though. If you saw if you saw this on a Web site, do you think it would be like immediately like you think it would without me voicing this over, like it would be so clear on a website? It's like a real hypothetical.",Speaker 1,not-edited
00:28:26.690,00:29:11.480,00:00:44.790,"Yeah, I think that it would definitely have to be framed as. Basically a narrative of flavors that you are. Experiencing the origin of these ingredients and then what they can do and how. This chocolate can become something other than just a bar of chocolate, and it can be used in all these different ways, I think it would really have to be explained somehow that it's a cumulative experience. It's you know, there's a narrative there. If it was just like here, you could do these things, I would be like, oh, I don't really understand what these have to do with these. Can I just do once one month, one month, three, you know?",Speaker 2,not-edited
00:29:12.380,00:29:55.910,00:00:43.530,"Yeah, maybe. Well, OK. All right, this is really helpful. I'm going to move on to experiments. So what are the experiments we talked about? I mean, experiments is a big part of this whole club, but the one that we talked about in the botanicals was this guy. So imagine this paper like folds out onto your counter and it's just it's just like step by step process for how you build your own cocktail recipe or try even a few ideas like we don't want to just give you recipes to memorize what we want for you to explore the flavors on your own and figure out something new that tastes good to you. Yeah.",Speaker 1,not-edited
00:29:57.400,00:30:31.299,00:00:33.899,"I think that's really interesting, that could be really fun when fun becomes a thing again and you can have people over like this would be awesome for a game night thing or like you had a dinner party, you know, this would be a good like pre dinner kind of cocktail activity or even if you were relegated to, you know, we're all zooming from our house is kind of a thing like, OK, what did you try? Oh, I didn't try that combination thing, like something that you could do together with other people. Maybe if you're not with them, like everybody ordered the box and we have all the stuff. I think that could be really interesting.",Speaker 2,not-edited
00:30:33.760,00:30:59.559,00:00:25.799,"Cool. So the other experiment idea that we were thinking of is do it yourself chocolate bar flavors so we would give you your own who can you chill baking. We'll show you how to like tempura chocolate milk melted down in temperate. You'll pop it into molds, but you'll use the ingredients to again, like try out different combinations and be your own like master chocolate maker.",Speaker 1,not-edited
00:31:01.660,00:32:00.569,00:00:58.909,"Sounds awesome because I just like making things, but it does. It reminds me. Was that serious? So there is a series that. It's on I think it's on Netflix and Zac Efron, of all people going around the world with his friend and they go to a chocolate factory in Sweden and there are like goji berries and pistachios, literally, which is what made me think of this. And he and his friends, they're like, make your own chocolate bar. So his friend is putting, like, smoked salt and all this sort of stuff. And Zack does everything and then he eats it and he's like, this is freaking disgusting. Like he makes the nastiest chocolate bar. He was like, this is a terrible idea. I shouldn't have done that. That was like the first thing that I thought of when I saw the goji berries. But I think that would be really fun to make your own if there were like specific, especially specific ingredients that you probably wouldn't otherwise think to have or have on hand.",Speaker 2,not-edited
00:32:02.220,00:32:13.589,00:00:11.369,"OK, cool. So the other two experiments that I showed you, which do you think you would prefer?",Speaker 1,not-edited
00:32:15.270,00:33:20.260,00:01:04.990,"I think that the cocktail one could be far more social and that like that, if you're trying to build like a community, I think that that lends itself more to that. Otherwise, yeah, we all want to make stuff. I want to make stuff at home. That's fun. But I think that because there's so many options and also just logistically, like how many cocktails can you make for yourself that once you have to spread it out all over, otherwise you're just trashed. But I think that in the sense of like building a community kind of a thing, which it sounds like that's what we're going for, we're trying to do a Facebook group or whatever, but this definitely lends itself to more of a social kind of social experiment, but not in that context, you know, in which case. You know, that may be helpful if you do, do you like the closed group, then maybe people would talk about this part of it more than the boxes. I still wouldn't do this, that group. But I think that this could be a fun social project.",Speaker 2,not-edited
00:33:21.070,00:33:44.680,00:00:23.610,"OK, I'm going to go back to this slide. And so if you think about the whole let's take botanicals, for example, what would be how do you imagine yourself using this box or like like buying it for yourself? Is it buying it for, like, date night or gifting like what's the most likely scenario that you would buy this",Speaker 1,not-edited
00:33:46.060,00:33:56.560,00:00:10.500,"either a gift or for myself? Just like to have for, you know, for me to use whatever I want, otherwise I'd probably gift it.",Speaker 2,not-edited
00:33:58.180,00:34:01.360,00:00:03.180,"So do you see yourself, like going through this box, like solo?",Speaker 1,not-edited
00:34:02.620,00:34:15.270,00:00:12.650,"Oh, probably not, because my wife would want to be involved. Would you get other snacks? Can I have some? So it would probably be my wife and I going through it.",Speaker 2,not-edited
00:34:17.100,00:35:37.560,00:01:20.460,"OK, all right, last bit is we've come up with other kid ideas, Botanicals is the one we spent the most time talking about. The other one is beer and chocolate. So, again, we can't send beer, unfortunately, but the other ingredients in the box are we'll send you some hops, we'll send you some malts. We'll really give you a behind the scenes on how brewing changes the flavor. And then we'll guide you through how beer and chocolate together can really change the the the flavor of both. And then the last thing we'll do is that make your own chocolate bar. And the theme is going to be like Dove Bar snacks. And we'll also give you a Dove Bar snack, a dove bar chocolate bar that Cho made. Yeah, that's beer and chocolate. The other one is coffee and chocolate, and they're being brothers. There's a lot of similarities between the two, but there's also differences. So we'll talk about how origin plays a part, fermentation plays a part, and then we'll experiment on how the two go together. And then the the experiment will be making your own barista inspired chocolate bar that Cho will have their own version of. Yeah.",Speaker 1,not-edited
00:35:38.530,00:37:00.679,00:01:22.149,"OK, I think that those are I think definitely the beer and chocolate. What about a beer drinker? But I think that that was definitely something that, again, you could do socially. Like we both ordered the kid. And, you know, if we can't be together, if we can be together even better, but if we can't like we're both doing this. How did your bar come out? What do you put in yours? Kind of a thing like with your friends? So I think that is super helpful. And I think that that is something that people would like. I would want something, I think. Different like kind of design was. After having the botanicals, if it was going to be an order like do the botanicals first, then the coffee and chocolate than the beer and chocolate one, just to have something a little bit different, because the botanical is one. You know, you have these cool glasses, kind of elegant coffee and chocolate. I feel like lends itself more to more to baking. You like the best chocolate cake ever, has a cup of coffee in it. So, you know, I would I think that that would be a more interesting kind of story to tell after this like elegant cocktail experience and then, you know, beer and chocolate where you have your Dove Bar kind of bar. I think I would prefer to see it in that order. It's something that's changed up a little bit.",Speaker 2,not-edited
00:37:01.640,00:37:11.119,00:00:09.479,"OK, so the way that you talked about it is like if you got a subscription, that's the order you would want to get it in. Can I ask you to rank them in order preference?",Speaker 1,not-edited
00:37:12.620,00:37:54.329,00:00:41.709,"In order of preference? I think. It's tough because I like the botanicals one, I like the idea of making your own bitters and being able to hand those out, but making your own bar obviously is really good, even though you could screw it up like Zac Efron. So I feel like could probably go. Botanicals beer and coffee, actually, hotlist listed out. Because I feel like coffee and chocolate are more closely intertwined than botanicals or beer with chocolate, so I feel like I'd be learning more. It'd be more discovery involved with the botanicals and the beer.",Speaker 2,not-edited
00:37:55.940,00:38:08.249,00:00:12.309,"Cool. Awesome. Julie, that's it. That's all I've got for you now that you've seen everything. Any last remaining thoughts or ideas or suggestions?",Speaker 1,not-edited
00:38:08.970,00:39:01.440,00:00:52.470,"I think that it's a very cool option. I think that a lot can be done and changed or like there's a lot of nuance that can come from the materials depending upon like whether you go full on, like, seed and just use micro protein, you know, for for all your packaging. So it's compostable or becomes paper, but like nice paper and, you know, like cheap stuff that gets scratched or it comes off on something like that. I think it's going to be like the execution of it because the elements are really cool and the experience is cool where you can kind of learn more and it sort of tells a story and you can turn it into a broader social thing with your friends. I feel like that a lot can be done, good or bad. The needle can be moved design wise in terms of like execution of materials.",Speaker 2,not-edited
00:39:03.380,00:39:10.520,00:00:07.140,"One last question is, have you ever seen, like a subscription or or even like a kit like this before?",Speaker 1,not-edited
00:39:12.440,00:40:00.760,00:00:48.320,"I don't think quite like this. I think it's usually either, you know, here, make one thing, here's all the ingredients. There you go. Or it's just here's here's cookies or here's snacks or something like that. You know, this seems to have kind of different elements of both to where you're you're learning there's experiences there, stuff to watch. So you're engaged with it beyond like the day that it shows up on your door and you eat the stuff that you like first and the rest of it kind of hangs out of the box, you know, which is what we do with everything else, like the sad little fruit and bars that are always hanging out at the bottom of your snack boxes. Nobody wants those. You're going to get all the chips and the chocolate. So there you go. I feel like there is more potential for this to go beyond, like just that day that you get it.",Speaker 2,not-edited
00:40:04.120,00:40:10.830,00:00:06.710,"Because you're a baker, do you have you ever heard of the King Arthur's kids that they have King Arthur? No, no,",Speaker 1,not-edited
00:40:11.270,00:40:12.400,00:00:01.130,"no, I'm",Speaker 2,not-edited
00:40:13.630,00:40:21.099,00:00:07.469,not that I think. I don't think we're like on the same tier. But I was just curious because I I tried one out and I was curious if you'd had.,Speaker 1,not-edited
00:40:21.460,00:40:23.560,00:00:02.100,"No, I had it. What is it. What's in it.",Speaker 2,not-edited
00:40:23.850,00:40:53.930,00:00:30.080,"They have they have a bunch like there's one where you could make would be pies and where you can make like pizza. But what's interesting is like I actually I wasn't in love with it. It was it just felt like maybe an expensive like Betty Crocker's OK on Betty Crocker. But so it was it was like that's I mean, it's interesting. But we're we're definitely going above and beyond and we're trying to get a mix",Speaker 1,not-edited
00:40:54.700,00:42:12.550,00:01:17.850,"because I think, you know, and those sorts of kids where it's just here's the ingredients. Make a thing like, that's fine. But you you're right. Like, you would expect that with a Betty Crocker or something like that, you're not buying chose box or chose chocolate. If you're cool with Betty Crocker and like Hershey's and you know that's not you're going to spend five dollars on a bar chocolate. OK, let's be real. You know, you're you're not going to spend eighty nine cents on it. You're spending five dollars on a bar of chocolate if you know the brand and if you're going to buy the thing. So, you know. Yeah, give me something more than just here's the ingredients. Make the thing. I know what the thing is. I want to make a thing, give me something else. And I think that that is what would that's what the value is for that like even King Arthur, because that's surprising because that's you know, it's a premium brand flour. Like I know people that swear by the only use that particular bread flour or that has to be King Arthur. But if it's just here's the ingredients. Like I feel like I could I probably had half of that and I could go to the store, you know, which is fine. But, you know, if you're looking for something that's a little bit more premium, which obviously is, then, you know, I want more than just ingredients for sure.",Speaker 2,not-edited
00:42:15.620,00:42:18.230,00:00:02.610,"Thank you. Thank you so very much, Julie.",Speaker 1,not-edited