In,Out,Duration,Text,Speaker,Status
00:00:00.180,00:00:00.719,00:00:00.539,Give me.,Speaker 1,not-edited
00:00:02.410,00:00:19.980,00:00:17.570,"All right, so we have. Yeah, so we're going to talk about a bunch of stuff, we'll get started. Pretty, pretty easy if you can please let me know your name and age.",Speaker 2,not-edited
00:00:20.730,00:00:24.300,00:00:03.570,Sure. My name is James and I'm forty three years old.,Speaker 1,not-edited
00:00:26.460,00:00:28.550,00:00:02.090,Thank you. And where do you live?,Speaker 2,not-edited
00:00:29.500,00:00:36.939,00:00:07.439,"I live in the suburbs of L.A., so born and raised out here, I can't seem to leave this place.",Speaker 1,not-edited
00:00:37.870,00:00:42.370,00:00:04.500,"Yeah, what what attracts you to staying staying around there?",Speaker 2,not-edited
00:00:45.130,00:00:58.189,00:00:13.059,"Yeah. I mean, I guess it's cliche to say the weather. I mean, I just love, I guess, the diversity of the of the city, both culturally and economically and and all things in between. It's just a great city to be in.",Speaker 1,not-edited
00:00:59.230,00:01:04.529,00:00:05.299,"Yeah, totally. And can you describe what your house looks like,",Speaker 2,not-edited
00:01:06.150,00:01:12.989,00:00:06.839,so it's my wife and two little girls. We have a seven and a two year old and a dog as well.,Speaker 1,not-edited
00:01:13.830,00:01:19.140,00:00:05.310,Awesome. Congrats. That sounds like a fun family. It's kind and,Speaker 2,not-edited
00:01:19.620,00:01:20.660,00:00:01.040,it has its moments.,Speaker 1,not-edited
00:01:21.530,00:01:28.789,00:00:07.259,"Yeah, now a friend of mine was getting her son ready for school today, the first day of camp, and she's like, I love being a mother.",Speaker 2,not-edited
00:01:30.590,00:01:40.269,00:00:09.679,"There's nothing better than it's actually what am I? The thing that gives me the most, I guess, self-esteem, just being a dad. I like it.",Speaker 1,not-edited
00:01:41.030,00:01:43.680,00:00:02.650,"Yeah, and what do you do for a living?",Speaker 2,not-edited
00:01:44.760,00:01:49.319,00:00:04.559,I'm a chemical engineer. I've been doing that for 20 years at the same company.,Speaker 1,not-edited
00:01:51.550,00:01:55.230,00:00:03.680,That is and what what do you love about this job?,Speaker 2,not-edited
00:01:56.380,00:02:24.039,00:00:27.659,"Um, yeah, I mean, I guess the job itself is a bit mundane, it kind of kind of gets monotonous after a while just being in front of a computer. But the atmosphere is great. They treat the employees well. It feels like family. It feels like home. I've actually been working from home the last month since Pandemic's. So they're really flexible. They yeah, they're just great.",Speaker 1,not-edited
00:02:26.200,00:02:28.539,00:00:02.339,And may I ask what your wife does?,Speaker 2,not-edited
00:02:30.000,00:02:37.050,00:00:07.050,"She's an office manager for like a home health company, they hire nurses to take care of elderly.",Speaker 1,not-edited
00:02:38.730,00:02:45.479,00:00:06.749,"OK, and so you said you live in the suburbs of L.A., can you describe your neighborhood a little more?",Speaker 2,not-edited
00:02:46.440,00:03:37.050,00:00:50.610,"Yeah, so. I guess a typical suburb, it's really family friendly, a lot of things to do. We live across the street from like this park with a lake on it. You had easy access to this, to the bus. There's a farmer's market across the street, a dog park, and then the neighborhood itself. Yeah, there's just a lot of, um, I guess, new families or families with small kids. And yeah, a lot of I mean, being during the pandemic, I've been walking around and I'm getting to know every every neighbor, which I probably would have never done before. So, you know, getting to know these people is really cool. It's just it's just a nice, family friendly neighborhood.",Speaker 1,not-edited
00:03:39.730,00:03:43.840,00:00:04.110,And what do you and your family like to do in your downtime?,Speaker 2,not-edited
00:03:45.980,00:04:26.930,00:00:40.950,"So, yeah, like I said, we just got back from Hawaii, we love going to the beach, we love traveling when we could. I like taking my daughters to as many things as I can just to enrich their lives, I guess. So we do a lot of museums, zoos, all that kind of stuff. Music festivals, shows. So some eager to kind of get back to that life. But aside from that, you know, just I'm heavily involved in their in their lives. I take them. I coach them sports like my youngest daughter plays volleyball and softball. We love riding bikes, we just love doing all that kind of stuff.",Speaker 1,not-edited
00:04:28.680,00:04:38.970,00:00:10.290,"That's awesome philosophical question coming up, what to you, what would what makes a good life like what's important to you?",Speaker 2,not-edited
00:04:40.930,00:05:17.649,00:00:36.719,"Family first and foremost. So like I said, being a dad is the greatest compliment anyone can tell me is I'm a good dad and. You know, everything I kind of do is just for them, right? So like all the decisions I make, it's kind of just with them in mind and how it can either put them on a path for success or kind of just. Get them to see things a little differently, maybe, I don't know. But yeah, I guess that's pretty much it.",Speaker 1,not-edited
00:05:21.230,00:05:26.870,00:00:05.640,"Can I ask what community means to you? Like, how would you define community in your life?",Speaker 2,not-edited
00:05:27.350,00:06:08.879,00:00:41.529,"Yeah, community is a big part of. What we value, so like the school we go to is called Children's Community School, it's it involves a lot of parent participation. I'm on the board of the Parents Association. Community means being bringing people together. Being a part of something bigger than yourself means helping those in need. It means. Yeah, being being there for your neighbors. All that kind of stuff.",Speaker 1,not-edited
00:06:11.370,00:06:17.920,00:00:06.550,"OK, similar question, but can I ask you what sustainability means to you and your life?",Speaker 2,not-edited
00:06:20.270,00:06:57.589,00:00:37.319,"Yeah, again, something that we also value greatly. So when I think of sustainability, the first thing that comes to mind is just the environment and creating or helping the planet for future generations. Right. And reducing waste, trying to to support companies that are mindful of the impact they have on the planet. And also doing our part as well in terms of. Keeping things as green as possible.",Speaker 1,not-edited
00:07:00.580,00:07:10.029,00:00:09.449,And can I ask. What are you what do you think some of our society's greatest challenges are today?,Speaker 2,not-edited
00:07:12.540,00:07:39.709,00:00:27.169,"Yeah, I mean, it's it's crazy times these days, so aside from fighting a pandemic, we're like fighting global warming, we're fighting each other. There's a lot of like us versus them. Yeah, a lot of like civil unrest, civil and just racial injustice, there's just a lot going on.",Speaker 1,not-edited
00:07:41.960,00:07:54.170,00:00:12.210,Today is a lot of if you have one wish from a genie. What what would you what would you spend it on to improve the world around you?,Speaker 2,not-edited
00:07:55.090,00:09:01.080,00:01:05.990,"To improve the world around me. Well. Um, let's see. That's a tough one. You know, I'm trying to raise my daughter in a way that she can be a leader in the sense that. She's open minded about. Everything and everyone and also let me let me just think about this for a second. Yes, like the biggest thing that I'm seeing right now is just this black and white thing of us versus them. So I guess my wish would be for people to be more accepting of others and to to open a dialog where. There can be some sort of understanding. That would be my wish.",Speaker 1,not-edited
00:09:02.610,00:09:19.730,00:00:17.120,I get that. Would you consider yourself part of a larger movement? Do you would you identify as being part of something? That's moving towards change.,Speaker 2,not-edited
00:09:23.740,00:09:45.309,00:00:21.569,"Maybe not so much directly, I think more so like again, I'm just I'm more mindful of the things that I support or the things that I do, but I don't necessarily think I'm part of the larger movement. I'm just doing what I think is best for me, my family, and for what I think is good for the for the planet",Speaker 1,not-edited
00:09:48.400,00:09:57.130,00:00:08.730,are going to shift a little bit. Is it more important for you to stand out or to fit in?,Speaker 2,not-edited
00:09:59.110,00:10:18.899,00:00:19.789,"Depends on the situation. I'm not one that likes the spotlight. So in that sense, I guess more fitting in. But there are obviously some times where it's important to stand out or stand up and but I guess in general, maybe more fitting in the.",Speaker 1,not-edited
00:10:21.820,00:10:36.890,00:00:15.070,"So thinking about things that you spend your money on or when you make purchases. Where do you where do you lie on the spectrum of, like, researching everything versus kind of going with your gut or intuition?",Speaker 2,not-edited
00:10:38.120,00:11:12.320,00:00:34.200,"Um, yeah, I think it's probably a balance of the both like that. If it's a big purchase, I tend to put a lot of thought into it and maybe do more research. But if I'm like at Costco or something, there are a lot of things that I buy just spontaneously, just from reading something on the package or how it's how it makes me feel or. What kind of. Yeah, what kind of feelings it invokes? I don't know, there's a lot of spontaneous bias I go through.",Speaker 1,not-edited
00:11:14.600,00:11:19.669,00:00:05.069,Maybe can you remember the last spontaneous buy you made it at Costco?,Speaker 2,not-edited
00:11:22.070,00:12:05.600,00:00:43.530,"Let's see, what did I last buy at Costco? So I think they do a good job of getting me. So let me just think of the last thing we got there that was more spontaneous. There was like these water balloons that filled like instantaneously where I didn't have to facilitate it kind of just made like twenty balloons. And all I had to do is put a hose spout on it and it just filled them all up. I thought that was kind of cool because then I could play with my daughters. There was this really cool soap that I found that was a spontaneous by just looking at it is like, oh, that's something we can use in the house. Yeah.",Speaker 1,not-edited
00:12:07.430,00:12:07.909,00:00:00.479,All right.,Speaker 2,not-edited
00:12:07.910,00:12:09.859,00:00:01.949,"So I can spend quite a bit of time at Costco,",Speaker 1,not-edited
00:12:11.360,00:12:29.240,00:00:17.880,you and me both. So when let's think about the times where you're doing like a lot of research and you have a couple of options before you. What are what are some of the criteria that you're evaluating things by?,Speaker 2,not-edited
00:12:33.610,00:13:05.789,00:00:32.179,"I guess it always has to have this balance of form and function, so it has to function well and has to serve a purpose and hopefully make my life easier. But it also has to at the same time, like look cool or design be designed well or use. Premium materials or just be a little bit more upscale. Something that does both of those well is I will pay a premium for.",Speaker 1,not-edited
00:13:07.670,00:13:23.590,00:00:15.920,And so one more question on that is how is there a way that you would define something being better? Is there a commonality on what makes one option better than the other?,Speaker 2,not-edited
00:13:32.000,00:13:42.519,00:00:10.519,"Yeah, I can't I don't know if I can say anything more than it just being both designed well and and functioning great, so. All right. Yeah, sorry.",Speaker 1,not-edited
00:13:43.250,00:13:49.669,00:00:06.419,"No, no. I also mentioned that I forgot to mention earlier, like, I'm not trying to quiz you or anything, so,",Speaker 2,not-edited
00:13:50.040,00:13:53.450,00:00:03.410,"yeah, I thought I wish I'd had a better answer for that.",Speaker 1,not-edited
00:13:54.530,00:14:04.550,00:00:10.020,"Now, it was great, it was great, I promise, so if I say the word deserved, what do you associate with that word deserve?",Speaker 2,not-edited
00:14:08.000,00:14:29.720,00:00:21.720,"Like what I think about first thing that comes to mind is treating myself or rewarding myself for for hard work. It's important for me to, like, do some self care. And because I put so much time and effort into others, I think it's deserving of me to do the same for myself. I think",Speaker 1,not-edited
00:14:30.860,00:14:33.919,00:00:03.059,so as I have like a positive or negative association,Speaker 2,not-edited
00:14:35.240,00:14:41.029,00:00:05.789,"deserve, I think leans more towards positive. I don't see there being a negative connotation for that.",Speaker 1,not-edited
00:14:41.780,00:14:46.999,00:00:05.219,"OK, and what happens if I say everyone deserves. What do you think of them.",Speaker 2,not-edited
00:14:49.530,00:15:07.520,00:00:17.990,"Yeah, everyone deserves. Something in life, so the chance for success, the chance to pursue happiness, they deserve the chance to be healthy. Yeah, everyone deserves at least something.",Speaker 1,not-edited
00:15:11.900,00:15:17.960,00:00:06.060,"All right, well, we're going to get into driving now. So tell me, how does driving fit into your life today?",Speaker 2,not-edited
00:15:18.830,00:16:01.340,00:00:42.510,"It doesn't really, because I'm working from home. But if we're talking pretty pandemic. Yeah. I mean, in L.A., everything is so spread out that it's hard to live in the city without a car. And so getting to work takes about thirty, forty five minutes on a good day, sometimes longer. I always say like the car is like being is like having a second home in L.A. because you're in traffic so much. And we also do a lot of spontaneous road trips up and down the coast of California. Yeah. Plays a big role. I mean, it's it's essential for us. And here in the city,",Speaker 1,not-edited
00:16:02.420,00:16:06.549,00:00:04.129,I like post pandemic. What's changed exactly?,Speaker 2,not-edited
00:16:07.340,00:16:39.169,00:00:31.829,"It'll be interesting to see what happens. I'm hoping I can continue working from home. I've actually enjoyed it and getting accustomed to it. So that means driving will be a fraction of what it used to be like. I think I'm down to. I don't over the last year, maybe five thousand miles at most. Where I was driving like three times as much to that before, so, yeah, it'll be interesting to see. What it'll be like.",Speaker 1,not-edited
00:16:40.580,00:16:41.780,00:00:01.200,Do you enjoy driving?,Speaker 2,not-edited
00:16:42.920,00:17:27.079,00:00:44.159,"Yeah, I love it, it's it's my I think there's two things I see with driving. So one is like it's my me time, right? If I'm going to work, it's the time where I have to myself that I can kind of just zone in or zone out, listen to my stuff. Usually it's the kids playing their music. Right. So I get to have my special time for myself to listen to whatever I want. And also kind of like it calms me down. It centers me in part because I just kind of throw it on autopilot and it kind of gets me to where I need to be for the most part. So in that span, I can kind of just. Yeah, do as I as I see fit.",Speaker 1,not-edited
00:17:29.860,00:17:35.559,00:00:05.699,Do you happen to have a memory of a time where you were just like really loving the drive?,Speaker 2,not-edited
00:17:37.960,00:18:01.660,00:00:23.700,"Yeah, like. Twenty four hours ago, driving through Hawaii had the kids in the back and you had just seen the ocean views as we were making our way to the airport, I was like, oh, wow, this is a place where I could see myself leaving. And I think that's the plan anyway. Yeah, that was a nice drive.",Speaker 1,not-edited
00:18:04.030,00:18:07.060,00:00:03.030,Did your family have a car when you were growing up,Speaker 2,not-edited
00:18:07.930,00:18:32.560,00:00:24.630,"in my family have a car growing up? Yeah. I have fond memories of the cards that we learned when I think about it. There is a Camry, there's a Jeep Cherokee. There was cheese in old school Corolla, one point. Yeah, there was there was a few cars in there.",Speaker 1,not-edited
00:18:34.660,00:18:37.839,00:00:03.179,"Was it part of the family, all the different parts you just talked about?",Speaker 2,not-edited
00:18:39.040,00:18:44.950,00:00:05.910,So my dad reads me and it was his cards through my childhood.,Speaker 1,not-edited
00:18:47.680,00:18:49.690,00:00:02.010,And so what cards do you have at home right now?,Speaker 2,not-edited
00:18:51.190,00:18:54.819,00:00:03.629,We have a test live on a three and a Volvo 60.,Speaker 1,not-edited
00:18:55.850,00:18:57.710,00:00:01.860,"Yeah, which one did you get first?",Speaker 2,not-edited
00:18:59.090,00:19:02.520,00:00:03.430,"So the vote was the older one, the test was a newer one.",Speaker 1,not-edited
00:19:03.770,00:19:07.339,00:00:03.569,And can you remind me what year you bought both of those,Speaker 2,not-edited
00:19:08.570,00:19:12.319,00:00:03.749,"that Tesla lost? Twenty eighteen. And the vote was 20, 15.",Speaker 1,not-edited
00:19:14.500,00:19:24.549,00:00:10.049,"And generally, like how like what's your car buying pattern, like hang on to a car for a long time, or are you the type to kind of like traded in every few years?",Speaker 2,not-edited
00:19:26.020,00:19:44.079,00:00:18.059,"No, I probably try to get as much life out of it. I can probably on the life span of probably seven years or so before I get a new car, but actually with a Volvo. Yeah. So the bubble we're looking to replace within the next six months to a year.",Speaker 1,not-edited
00:19:46.600,00:19:48.410,00:00:01.810,And what inspired you to get the Tesla?,Speaker 2,not-edited
00:19:50.230,00:20:08.959,00:00:18.729,"Yeah. Just loved kind of everything about it. Aside from being electric vehicle and being kind of more green, you know, it's just it technologically, it was kind of more advanced and it was designed well and. Yeah, there's just a lot to like about the car.",Speaker 1,not-edited
00:20:12.050,00:20:17.839,00:00:05.789,What were the what are what are the high points and low points of switching to electric?,Speaker 2,not-edited
00:20:19.970,00:20:47.559,00:00:27.589,"I mean, I think it's just a learning curve getting used to. Driving an SUV, that's probably the only low point, really. You know, having to find a place to charge or having to reconfigure my garage to to get a charger inside there, that was probably the only paying point. And then everything else has just been kind of. Great gravy.",Speaker 1,not-edited
00:20:49.510,00:20:58.079,00:00:08.569,"So twenty eighteen, you got that test slot. I feel like you're kind of an early adopter, but fairly well made. You ready for Evie.",Speaker 2,not-edited
00:20:59.890,00:21:31.839,00:00:31.949,"Yeah. And you I just kind of wanted to get off using gas. I just thought it was like. An old archaic technology like you're relying so much on a limited resource that it's bound not to be sustainable. Oh, yeah, I wanted something that I spoke about my values in the environment, but also, you know, it felt like a premium luxury car.",Speaker 1,not-edited
00:21:33.000,00:21:39.900,00:00:06.900,"Yeah, and so. What cars are you considering right now?",Speaker 2,not-edited
00:21:41.160,00:22:32.779,00:00:51.619,"Yes. We're trying to replace the Volvo, which is an SUV. We need something a little bit bigger to handle a family daily needs. And so there is one car that I'm buying that's not going to be available for the next maybe year or two, which is the VW I'd buzz. It's like a take on the old school Volkswagen bus, but there's also like the ID for I think Cheah has something they're coming out with. Honda has their ionic five, which kind of seems like a hybrid of an SUV and a sedan. There's the Fisker Ocean and Arabian something or one or something like that. There's yeah, there's a few in the running.",Speaker 1,not-edited
00:22:35.120,00:22:42.000,00:00:06.880,I'm going to back up real quick. So what what do you typically drive like what's your primary for the Volvo or the Tesla?,Speaker 2,not-edited
00:22:43.400,00:22:57.460,00:00:14.060,"Both. I kind of drive those equally if I'm going to work, it's the Tesla. If I'm doing all the family things with the kids, it's the Volvo. So like after school, it's the Volvo. During work at the Tesler.",Speaker 1,not-edited
00:22:59.070,00:23:11.499,00:00:12.429,"So how do how does the your cars fit into your life, is it like a very functional thing or are you treating it kind of like a pet in the family on that spectrum? Is it?",Speaker 2,not-edited
00:23:13.840,00:23:37.829,00:00:23.989,"I don't know if it's like a family member. It's more just there's more function than anything, you know, for taking long road trips. It'll be the SUV if we're doing like quick staycation, that'll be the test. But I think it is just a matter of distance and how far we're driving and where we're going to and what we need to put in the trunk that determines what car we're taking.",Speaker 1,not-edited
00:23:42.060,00:23:45.589,00:00:03.529,Do you talk about your cars with other people in your life?,Speaker 2,not-edited
00:23:48.240,00:23:57.329,00:00:09.089,"I mean, they always ask me what my thoughts are and different vehicles, specifically the Tesla. Yeah. Comes up in conversation.",Speaker 1,not-edited
00:23:58.700,00:24:07.140,00:00:08.440,"Got it. So all right, back to this new car that you're looking for. You said you're you ready to buy in, like, the next six months?",Speaker 2,not-edited
00:24:07.810,00:24:09.130,00:00:01.320,"Yeah, relatively soon.",Speaker 1,not-edited
00:24:09.720,00:24:16.259,00:00:06.539,"Yeah. So does that represent, like, the middle of your process? The beginning. The end. Like where where are you?",Speaker 2,not-edited
00:24:17.850,00:24:38.690,00:00:20.840,"Yeah. I mean, I've just been paying attention to what's coming out. You know, I know the car manufacturer and all these ebb's that are coming out, and I'm just hoping that. I'm waiting on a few that are in prototype that are still not yet in full production, and I want to see those come out.",Speaker 1,not-edited
00:24:41.030,00:24:47.079,00:00:06.049,"OK, so you listed a bunch of different models. Those are all easy.",Speaker 2,not-edited
00:24:47.570,00:24:47.920,00:00:00.350,Yep.,Speaker 1,not-edited
00:24:48.890,00:24:50.059,00:00:01.169,Evey service,Speaker 2,not-edited
00:24:50.750,00:24:51.779,00:00:01.029,Vesuvio.,Speaker 1,not-edited
00:24:52.450,00:25:03.079,00:00:10.629,Yeah. So how did you how did you compile that list. Like what what brands were on there maybe. And then you cut out or how are you building it.,Speaker 2,not-edited
00:25:05.370,00:25:43.760,00:00:38.390,"Yeah, just keep adding more cars to the list as more manufacturers are coming out with their models. You know. Obviously, we wanted to replace our gasoline SUV, so anyone that's coming, like that's the thing right now, there's not many SUV, fully electric vehicles. I think the idea for might be the one and only I mean, aside from the model X and Y. But I'm just there's so much coming out, I'm so kind of curious to see what these manufacturers are going to do.",Speaker 1,not-edited
00:25:47.420,00:25:56.359,00:00:08.939,"I don't think I heard you mention the X or Y in that list. Is that right? Yeah. Oh, why is it that those aren't on your list?",Speaker 2,not-edited
00:25:59.090,00:26:21.590,00:00:22.500,"They're on the short list, but they're lower down in part because. Well, I mean, I do love the technology. The I guess the incentives play a big role in it as well, so both the federal and state tax incentives kind of play a big part. So if I can get ten thousand off a car, I'd love to do that.",Speaker 1,not-edited
00:26:22.760,00:26:24.540,00:00:01.780,"Yeah, so that's really the main reason,",Speaker 2,not-edited
00:26:24.990,00:26:45.550,00:00:20.560,"it's not the main reason, but it is. It's part of the reason the other part is that I just, you know, I'm not loyal to Tesla in any way, by any means. I just want to see, like. What is new or what is something different? And seeing what these other car manufacturers can do",Speaker 1,not-edited
00:26:47.630,00:26:54.820,00:00:07.190,"so some of the models you mentioned are not yet available, but the ones that are, have you given them a test drive?",Speaker 2,not-edited
00:26:54.820,00:27:28.779,00:00:33.959,"You know, that would probably be the next step, although I don't necessarily need to test drive it. I've seen and read a lot about these cars that are coming out, and I think that's kind of enough for me. I didn't test drive the model three before I got into it. Yeah, and just reading all these articles about these different models, this is kind of dictating it right now or is is giving me enough to think about.",Speaker 1,not-edited
00:27:30.410,00:27:39.490,00:00:09.080,So what is it that you're reading in these articles that help you feel confident to get the car without test?,Speaker 2,not-edited
00:27:43.030,00:28:27.529,00:00:44.499,"So these are like IV blogs that are there. They've actually got into it. So they either show videos of of them in the vehicle and driving it and taking a look around it. There's also like car shows where they're showing their prototypes. You know, I figure, like, there's I don't require, like, high performance vehicles, like in L.A. you just can't drive a hundred miles per hour. Right. So I don't need something that's zero to 60 in whatever. Like, I kind of just need something that looks cool and functions well. And that's I guess maybe that's why I don't need to test drive it. If it shows that it has a space inside and kind of can give me what I need on the outside. That's really all I need.",Speaker 1,not-edited
00:28:30.770,00:28:36.200,00:00:05.430,How does it feel to drive like your Tesla versus your Volvo? Is there like a different feel behind the wheel?,Speaker 2,not-edited
00:28:37.040,00:28:52.119,00:00:15.079,"Completely. I feel like when I get into the Volvo, although I love the Volvo, I just feel like I'm in an old car like a can't do a tenth of what the Tesla does in terms of technology.",Speaker 1,not-edited
00:28:55.860,00:29:08.390,00:00:12.530,"So what about like. The feel of the steering wheel or the feel of like the the the pedals or like the car on the road, is that important to you or",Speaker 2,not-edited
00:29:09.230,00:29:36.510,00:00:27.280,"it's it's more secondary? I guess it's not something I really care too much about. As long as it's smooth and it's comfortable and makes me feel cozy, that's kind of more important than how the driving experience is like the how the wheel feels doesn't really matter so much. And how it turns a corner doesn't matter much. So in that sense, they're there the same",Speaker 1,not-edited
00:29:39.170,00:29:46.070,00:00:06.900,"way I really like this word cozy that you use, like what? What makes it cozy?",Speaker 2,not-edited
00:29:48.080,00:30:27.910,00:00:39.830,"So, again, like I described, the cars being a second home, so it has to feel it has to feel like I'm sitting on my couch at home and I think. Tessa does that better than than most in terms of making me feel cozy, like I can kind of just sit back and relax. Well. But Volvo also does it in their unique way, like they're just they're minimalist design, like they're another Swedish sensibility kind of speaks to coziness. Sorry, go ahead.",Speaker 1,not-edited
00:30:29.530,00:30:34.440,00:00:04.910,Do you think the kind of car a person drives says something about them as a person?,Speaker 2,not-edited
00:30:37.090,00:31:09.630,00:00:32.540,"On some level, it does, you know, there's I mean, obviously, if you're driving a cab, there's I would think most of those drivers care about the environment. And you have to you're driving like a luxury vehicle, you kind of care about some finer things in life, which is not to say that mainstream car vehicles don't. But if you're paying more for that, then either way you can well, obviously, you can afford it, but you also care about some of that stuff.",Speaker 1,not-edited
00:31:11.670,00:31:25.619,00:00:13.949,"All right. A similar question, but now. Like country of origin, like, do you think like German engineering has a perception in your mind versus American, Japanese or Korean engineering?",Speaker 2,not-edited
00:31:31.160,00:32:23.760,00:00:52.600,"So, yeah, there is this I think German engineering in general is tends to be better, but these days, yeah, I think they all do engineering well. I think I just saw a breakdown of the the VW ad for. And how I think the is the title of it was like, what did it say? Something along the lines of like German engineering is still amazing, even though it's amoebae and they're they're not maybe the first to think about in terms of EBR. But I think they're all pretty kind of. Equal, like I wouldn't say one is far and above better than another in terms of engineering.",Speaker 1,not-edited
00:32:25.770,00:32:34.920,00:00:09.150,"So let's talk about the eighty four and the buzz. Yeah, what what do I mean, maybe what else do you love about the car?",Speaker 2,not-edited
00:32:37.640,00:33:15.309,00:00:37.669,"I mean, I love the buzz and just seeing it kind of just brings me back to kind of my childhood, I love that they actually brought that back. I mean, it was a pretty strong statement, right, to to kind of hold true to who they were and what they. You know, making that connection to the past, I thought that was really cool and they just it just looks really cool. The idea for I mean, it's just it's one of the few movies that are out there. So because of that, it's in the running.",Speaker 1,not-edited
00:33:16.260,00:33:22.080,00:00:05.820,"OK, so it sounds like the idea for is on your list just because it's a SUV,",Speaker 2,not-edited
00:33:23.910,00:33:41.650,00:00:17.740,"because that because it's a Volkswagen. I think more because it's connected, like I think of the buzz, and I think if they're doing that well, then they're probably going to do that for a while. Yeah, but I guess maybe mostly because it's an SUV.",Speaker 1,not-edited
00:33:42.910,00:33:46.719,00:00:03.809,"Yeah, but I'm sorry I cut you off.",Speaker 2,not-edited
00:33:47.020,00:33:49.569,00:00:02.549,"Oh, no, I was just saying I read some great reviews on it.",Speaker 1,not-edited
00:33:51.500,00:33:53.450,00:00:01.950,Have you ever owned a VW before?,Speaker 2,not-edited
00:33:55.410,00:34:02.910,00:00:07.500,"No, never. I had an Audi at one point, but never a VW",Speaker 1,not-edited
00:34:06.510,00:34:16.110,00:00:09.600,"when you were talking about the buzz, you're talking about like childhood memories. Like what? How did you first hear about the VW or VW in general?",Speaker 2,not-edited
00:34:20.429,00:34:35.229,00:00:14.800,"Yeah, just as a kid, we would be sitting in the back seat and we play the game slug, but like whenever you see a Volkswagen, you hit the person next to you. And then if it was a slug, but if it was a bus, then you get two punches.",Speaker 1,not-edited
00:34:37.239,00:34:40.230,00:00:02.991,"I did not play that version, but I might I might start",Speaker 2,not-edited
00:34:42.969,00:34:43.149,00:00:00.180,what,Speaker 1,not-edited
00:34:43.570,00:34:49.230,00:00:05.660,were maybe what were your perceptions of the brand over the years from then to today?,Speaker 2,not-edited
00:34:52.170,00:35:19.389,00:00:27.219,"They make good quality cars. I mean, my roommate at one point had a Jetta. I mean, I had an Audi which is under the parent company guess. Yeah, they're more like mainstream than I would say premium, so they fall into the same category maybe as. I wouldn't say Toyota, I guess maybe a more Toyota Nissan kind of deal, it was just a step above that.",Speaker 1,not-edited
00:35:20.960,00:35:28.639,00:00:07.679,"When you say it's more mainstream than premium, is that. Does that have a positive or negative association in your mind?",Speaker 2,not-edited
00:35:31.030,00:35:54.709,00:00:23.679,"That's a tough one, because when I think mainstream, I think like it's out, everyone out. Everyone has that car or everyone can can get that car. But because it's an SUV, I think it's a step above mainstream, so it's kind of in between, maybe it's a little more premium.",Speaker 1,not-edited
00:35:56.640,00:36:14.010,00:00:17.370,"OK. Now, like beyond any of the VW vehicles that they've released over the decades, what comes to mind when you think about VW? Is there an association in your head about the brand?",Speaker 2,not-edited
00:36:14.910,00:36:20.320,00:00:05.410,"It's always the bug or the the beetle. Yeah, that's the first thing that comes to mind.",Speaker 1,not-edited
00:36:22.830,00:36:30.539,00:00:07.709,Does it represent a personality to you? Does it represent like an ethos or.,Speaker 2,not-edited
00:36:33.630,00:36:58.429,00:00:24.799,"Currently, I don't know if. The. And maybe I don't know enough about B.W. to say, say one way or the other, like, I don't know generally. Like, I guess what it stands for, what it believes in, and because of that, I don't know where it kind",Speaker 1,not-edited
00:36:58.430,00:37:14.159,00:00:15.729,"of fits on to stand for something. Like. Years ago, like the days of the Beatle, the days of the bust, was there like an association to VW because of that?",Speaker 2,not-edited
00:37:17.660,00:37:57.709,00:00:40.049,"I mean, I just associated the like the bus and the like they have this other van has something to take on road trips and like experiencing being with others in a car. Like, that's what I about as a kid. I guess maybe there is one VW my friend has and I don't know the name of it. It's like this van and he takes it camping all the time. And it's really it's pretty old school. But yeah, that's kind of just I guess what I think about it. Maybe that's why I'm so attracted to the bus.",Speaker 1,not-edited
00:38:01.670,00:38:07.800,00:00:06.130,Do you think. A quintessential Volkswagen person exists like.,Speaker 2,not-edited
00:38:10.800,00:38:31.439,00:00:20.639,"And. Yeah, I don't know. Again, I don't know a whole lot about VW and what it stands for, so I don't know if there's a person that can define it or I guess a quintessential VW person. You have to come back to me on that one.",Speaker 1,not-edited
00:38:32.130,00:38:39.139,00:00:07.009,"OK, sure. Do you see a lot of W's like in your neighborhood, or do you know people today that have a.",Speaker 2,not-edited
00:38:44.580,00:39:10.300,00:00:25.720,"So I'm thinking around the neighborhood right now. There is probably one or two in the in the neighborhood that I live in that I see on the driveway, I get my roommate before had a Jetta, but that was years ago. And my other friend and and on the beach has gone. I wish I knew the name of it. Now I have to look it up. But no, there's in general, it's not something I see a lot of.",Speaker 1,not-edited
00:39:19.130,00:39:27.679,00:00:08.549,"Do I mean, I don't know. Do you have opinions on that, the fact that it's like not everywhere? Do you think that's like a cool thing or do you think that's like maybe a bad sign?",Speaker 2,not-edited
00:39:28.760,00:39:49.739,00:00:20.979,"It's a little of both. I mean, if they're not selling their cars, then maybe they're not that great. But it could also be that they're more premium and maybe people can't afford. But yeah, sorry,",Speaker 1,not-edited
00:39:50.640,00:39:51.320,00:00:00.680,"go for it,",Speaker 2,not-edited
00:39:51.600,00:39:54.539,00:00:02.939,I don't know if that's a good or bad thing.,Speaker 1,not-edited
00:39:56.010,00:40:14.839,00:00:18.829,"All right, last question of this nature. Do you think? Driving a VW said something about the person who's driving the car, like if you owned a VW, do you think it says something about you?",Speaker 2,not-edited
00:40:16.770,00:41:05.150,00:00:48.380,"As it stands now, I would say no, but if it was an ebb, I think it would say something more just but that's more has to do with being Evy than anything else. Yeah, I don't know if it says anything about who I am as a person, really, like the same way I can say something about a Tesla or maybe even a Volvo or like a Mercedes or an Audi or something like that. And maybe that's because it's more mainstream. Yeah, oh, it's the West in Westphalia than that. Yes, that's the van I'm thinking of. Somalia West was called anyways like a camper van. OK.",Speaker 1,not-edited
00:41:06.090,00:41:20.419,00:00:14.329,"Oh, OK. It's got like the dome on top, the thing everything looks fun. Yeah. It's that Volkswagen. Prichard's. Let's read.",Speaker 2,not-edited
00:41:23.130,00:41:25.039,00:00:01.909,I think that is,Speaker 1,not-edited
00:41:25.410,00:41:52.699,00:00:27.289,"yeah, it looks like on Wikipedia it is. All right. Nice. OK, last section, we're doing great on time, I might be able to get you out of here early. Sure. Excuse me. So before we had the ID for. How did you associate sustainability with VW in any way?",Speaker 2,not-edited
00:41:54.350,00:42:13.309,00:00:18.959,"No, not at all. I probably would have said it was the opposite. You know, I think if you're a if you're just focused on ice vehicles, then you're not really sustainable. So because they're coming out with the SUV, I guess I can say that more.",Speaker 1,not-edited
00:42:14.410,00:42:22.999,00:00:08.589,"Got it. OK, are there any brands out there that are associated with sustainability or is it all? Evy.",Speaker 2,not-edited
00:42:26.690,00:42:42.989,00:00:16.299,"I don't think you can say you're sustainable if you if it's an ice vehicle, if you're talking about brands in general, there's clothing brands and. Household brands that are more sustainable than others. All right. OK.",Speaker 1,not-edited
00:42:44.280,00:42:51.850,00:00:07.570,"If I said better car. How would you describe what that meant for you? Like, what's the better car for you?",Speaker 2,not-edited
00:42:53.190,00:43:20.479,00:00:27.289,"Better car is a better experience. So when I think of my family, when my girls in the back, it's it creates an environment that is, I guess. More inviting, more welcoming to having a family lifestyle any more conducive just to the family functionalities, that would be a better for me.",Speaker 1,not-edited
00:43:21.490,00:43:27.190,00:00:05.700,"Got it. OK, what if I said everyone deserves a better car? What do you think about the.",Speaker 2,not-edited
00:43:31.510,00:44:03.660,00:00:32.150,"Everyone deserves a better car. Now, I don't know if that rings true to me, because I think each that each person is has their own ideas of. Of a car, so a car is very individualistic, I think, in terms of it speaking a person. So because of that, I don't think everyone deserves a better car necessarily. They deserve a car that fits them.",Speaker 1,not-edited
00:44:06.130,00:44:07.610,00:00:01.480,So does it happen or not?,Speaker 2,not-edited
00:44:07.630,00:44:11.719,00:00:04.089,"That's you know, that's the point. Got it.",Speaker 1,not-edited
00:44:14.460,00:44:18.619,00:00:04.159,Would you associate everyone deserves a better car with Volkswagen all?,Speaker 2,not-edited
00:44:26.760,00:45:06.680,00:00:39.920,"So if we take a step back and I define kind of what disserving means, right, it's sort of like this reward or treat. You're taking you're treating yourself and I think I don't think I see that as looks like and I see that more of like a luxury vehicle. So like Mercedes or BMW or Audi. I think everyone deserves a better experience in a car. I think everyone deserves a a a better. I think everyone deserves. Yeah, I can't think of it, I was just going to say a better experience in the past",Speaker 1,not-edited
00:45:10.850,00:45:22.539,00:00:11.689,or the last thing I'll ask is. Do you think it's possible to drive something? That represents. Something bigger than yourself.,Speaker 2,not-edited
00:45:26.170,00:45:27.780,00:00:01.610,So say that in a different way.,Speaker 1,not-edited
00:45:30.590,00:45:38.820,00:00:08.230,"Sure, sure, sure, yeah. Like the car you drive, the car you choose to drive, could it represent something bigger than yourself?",Speaker 2,not-edited
00:45:39.730,00:46:12.690,00:00:32.960,"Well, certainly, yeah. I mean, I think an event itself is speaking for something bigger than myself. That's really the reason I. Yeah, you feel I feel like I'm doing something for the environment, for future generations, for my kids and giving them something that I'm telling them is of value to me. Yeah, because of that, it's it's bigger than myself.",Speaker 1,not-edited
00:46:14.600,00:46:19.250,00:00:04.650,"As ever, the only way that a car can represent something bigger than yourself.",Speaker 2,not-edited
00:46:21.370,00:46:56.619,00:00:35.249,"It's not the only way, but it's it's an easy way, right? It's. The. The easiest path to it. I'm trying to think of what other ways it could be bigger than myself. You know, maybe so, again, shared community, something that we value. So if it could do that as well, then maybe it could be something bigger than myself. But as the driving experience goes, it's really just about it being in TV.",Speaker 1,not-edited
00:46:57.380,00:46:57.820,00:00:00.440,Got it.,Speaker 2,not-edited
00:46:58.140,00:47:23.000,00:00:24.860,"And I know that I talk more about it when I'm picking. Everyone deserves a better car. Like, I don't know if that's necessarily true because. Not everyone like you, can't you it's it's on the extreme side, right, to try to include everyone. It's just impossible. So I don't know. I can't. The more I hear that I'm a another, that can't be possible.",Speaker 1,not-edited
00:47:24.410,00:47:28.590,00:00:04.180,"I mean, it's just it's not connecting with you because it just feels unrealistic.",Speaker 2,not-edited
00:47:29.210,00:47:49.940,00:00:20.730,"Yeah. It just doesn't seem. Doesn't seem feasible if you're trying to create a car for everybody. It's like it's like the saying you can't please everyone, you're going to you're bound to plead, you're bound to upset somebody. So because of that, it doesn't ring true.",Speaker 1,not-edited
00:47:50.840,00:48:03.939,00:00:13.099,"OK, um. I think that's it, I think that's all I got. We were very efficient with the time there have been questions for me or any last remaining thoughts.",Speaker 2,not-edited
00:48:04.700,00:48:06.869,00:00:02.169,I'm assuming this is Volkswagen behind.,Speaker 1,not-edited
00:48:07.070,00:48:12.080,00:00:05.010,"Oh, yeah. That's that's who we're doing some of this research for. I don't work for Volkswagen, but.",Speaker 2,not-edited
00:48:12.080,00:48:30.440,00:00:18.360,"Yeah, yeah. Final thoughts, I guess would be. I'm just excited that they're actually making that decision or that push, and I'm glad they're coming out with an SUV and I'd love to see what they're going to do with it.",Speaker 1,not-edited
00:48:31.790,00:48:40.989,00:00:09.199,"Yeah, me too. For sure. Well, also, James, I had a lot of fun. I hope you'll thank you so much for",Speaker 2,not-edited
00:48:41.410,00:48:43.570,00:00:02.160,I was trying to wake up early in the morning.,Speaker 1,not-edited
00:48:43.570,00:48:52.170,00:00:08.600,So I know I'm I'm I'm thank you so much for doing this. I'm trying to do the calculations on what time it is in Hawaii right now.,Speaker 2,not-edited
00:48:52.960,00:49:10.639,00:00:17.679,"So it would be at the start of it was five thirty and I probably did that. Well, I went to sleep local time like three, so I had maybe three or four hours of sleep. So my mind wasn't working as good as this. I hope you got some some bits and pieces that you can use.",Speaker 1,not-edited
00:49:11.300,00:49:18.829,00:00:07.529,"I got so much I learned a lot today, I promise you that. And I hope you get some sleep. And it was really nice to meet you.",Speaker 2,not-edited
00:49:19.130,00:49:20.510,00:00:01.380,Nice to meet you. Good luck on your study.,Speaker 1,not-edited
00:49:21.110,00:49:22.140,00:00:01.030,Thank you. Take care.,Speaker 2,not-edited