In,Out,Duration,Text,Speaker,Status
00:00:00.810,00:00:11.789,00:00:10.979,"Before I show you what we're working, I just wanted to ask a couple of questions is do you belong or have any subscriptions right now?",Speaker 1,not-edited
00:00:15.770,00:00:21.180,00:00:05.410,"I think I mean, yes, technically, I'm trying. What are we defining as like a subscription?",Speaker 2,not-edited
00:00:22.440,00:00:24.329,00:00:01.889,What comes to what's the first thing that comes to mind?,Speaker 1,not-edited
00:00:25.080,00:01:03.210,00:00:38.130,"So I have Spotify premium so that one I don't actively pay for Netflix, but I actively use someone's Netflix. Let's see what else I oh, I do like the what is the Dollar Shave Club for my raiser's. What's the other one, do you fabulous as well? I think I think that's it. I'm sure I have more, but I just can't think about",Speaker 2,not-edited
00:01:03.210,00:01:10.530,00:00:07.320,"it at the moment. Yeah, if they come to mind, just let me know. We're Fab Lennox and Shave Club. Is that coming to you monthly.",Speaker 1,not-edited
00:01:11.910,00:01:40.219,00:00:28.309,"So fab larynxes like you have a month, but you can skip every month if you want. So I generally just skip most months. I just I really love their clothing and so it's nice to have access to it, but I don't necessarily get the monthly outfit or whatever Dollar Shave Club is. I think like every four months or so, because, I mean, they sound like quite a few razors, I don't go through them that fast, OK?",Speaker 2,not-edited
00:01:42.420,00:01:45.980,00:00:03.560,I have. And subscriptions that you canceled.,Speaker 1,not-edited
00:01:46.670,00:03:30.439,00:01:43.769,"Yes, somebody told me that I tried a lot, but I think. I did like I did a couple of beauty boxes like IPSI and Sephora, I had one that I liked, but I didn't stick with it. But see, I've done. I'll do like a lot of, like subscribe and save on Amazon Prime and then generally, I don't know, I like trying new things. And so it's very hard for me to just be like, oh, I need the same thing over and over and over or at the same time with like so for us, like beauty box, I really liked that, but that it was just like this feels like clutter and I'm not getting. I'm trying all these great products and that's awesome. But then like once they're used up, like, I don't want to spend sixty dollars on this now. I've done I did a what was it called I did a couple of recently. It's like an energy bar, I had run a marathon in October, and so they had, like, advertise my news feed and they were these energy bars that were great for like triathletes and runners. And so I was using those when I was running. But now that I'm out running 30 miles a week, not really. And that has to be for my life. And then what was the other one I did? She was I don't know, it was never like food related one, OK,",Speaker 2,not-edited
00:03:30.650,00:03:33.979,00:00:03.329,"so maybe like a meal kit or like snacks in a box,",Speaker 1,not-edited
00:03:34.310,00:03:50.669,00:00:16.359,"like snacks in a box. Yeah, OK. I don't really I really enjoy cooking. And so I just don't feel like I would get the benefit from those like me on a box because I like real prepping, I like making the recipes. So I feel like it takes all the fun out of it.",Speaker 2,not-edited
00:03:52.580,00:03:59.529,00:00:06.949,"I get that. OK, any that you've heard of and want to try but you haven't done it yet.",Speaker 1,not-edited
00:04:00.440,00:04:34.249,00:00:33.809,"I'm hungry. Route that one. I would really like to try. A friend of mine had done it for a while and she really liked it. And I just I think they do a lot more innovative with what they're doing, like the types of things like sending their box and the types of meals. And they're generally like foods that I wouldn't necessarily purchase or like think to purchase. So it would be, I think, a great way to learn about new products and new types of cuisine. Got it.",Speaker 2,not-edited
00:04:34.730,00:05:34.100,00:00:59.370,"OK, all right. So I'm going to pull up the slides that I want to show you. And as I before I jump in, just just want to let you know that it will really help us if you if you're honest about what you love and what you hate, if it's like confusing or you're like, no, I wouldn't use that. That is all very helpful for us. So pull no punches, please. OK, all right. So Cho is introducing an idea. It's called the Taste Chasers Club, and it's a limited release subscription and it explores flavors inside and outside chocolate. And so every quarter they'll dove into a new flavor theme with education products and experiments. Any initial thoughts or reactions to the statement,",Speaker 1,not-edited
00:05:36.200,00:05:57.189,00:00:20.989,"I'm intrigued by education products and experiments, and I want to know more. Like, oh, what would be an example of that? I like that it's quarterly. So it's still. Enough, but it's not monthly to where it's overkill.",Speaker 2,not-edited
00:05:58.210,00:06:08.929,00:00:10.719,"OK? All right, I'll show you, obviously, I'll show you what it is, but based on this, maybe what are you anticipating or expecting in a box?",Speaker 1,not-edited
00:06:12.520,00:06:43.869,00:00:31.349,"So there's a wide area that I really like, and they do like wine and chocolate pairings that they send out. So I'm thinking something along those lines with just chocolate. I mean, wine just always goes well with chocolate. So that's what I thought. But yeah, something like that is probably what I'm thinking. Different different bars with like I don't know what else. I mean, there's so many things that go with chocolate, but I just can't think of anything but wine right now, even though it's not even 8:00 a.m..",Speaker 2,not-edited
00:06:45.910,00:07:20.260,00:00:34.350,"OK. All right. So here's the high level bird's eye view of the four parts of the City Chasers Club is the kit that you'll get in the mail inside. The kit is going to be a lot of goodies and I'll take you through unboxing one. But it also includes online content, exclusive online content, virtual life events and a closed group just on the initial little Wooderson for reaction from bots to this.",Speaker 1,not-edited
00:07:23.490,00:08:18.629,00:00:55.139,"I like I like the the live events. I think that's really cool. The close group doesn't I'm not, like, super excited about it. I don't know if that was something that would be something I would ever use and. I'm also I don't know what would be what kind of things would be in there that would necessarily bring value. I like the like there's recipes online that would go with what's in the kit. I do like that, it seems. And this could just be this like this one seems like cocktail oriented and that could just be this individual box. I would be like Taylor on that, or is that just the specific box?",Speaker 2,not-edited
00:08:19.830,00:09:38.039,00:01:18.209,"That is a very good question. I'll for now, I'll let you know that it's just this box dove into that near the end. But thank you. So let me jump into this first box. It is botanicals kids and the whole boxes will be centered around how Mother Nature is growing some really cool flavors. So I'll take you. It's a big box and it's once a quarter and I'll unbox it in three pieces. So the first part, you open the box, it's about flowering flavors, so we'll talk about the science behind how plants flower, where is the flavor coming from? And we'll also include four different example, ingredients of fennel pollen, Stanis, Durai, hibiscus, orange blossom water. And you'll get info cards on each of these as well. We'll also include like a simple sirup recipe for how you can use the hibiscus and a make or series Choa Chocolate Bar, and this one will use Bramble and Rose. So it's a botanical inspired chocolate bar. Any first first thoughts on this part of the box?",Speaker 1,not-edited
00:09:40.130,00:10:13.639,00:00:33.509,"I see this and I'm like, oh, I have a couple friends who would love this and this would be right up their alley. I feel like these are things that I would necessarily would actively go out of my way and so I would be worried that I would never use them. But if there is great recipes and great things to use it for them, I'm sure I'll use it there. They're definitely flavors that I think I would never have got out of my way to use. I like the limited release, a bar that is really cool.",Speaker 2,not-edited
00:10:15.550,00:11:02.620,00:00:47.070,"Cool. I'm going to keep going, so in the second part of the box, we'll go into cocktails like botanical cocktails, so included is a chocolate bitters. It's special, limited edition. We'll give you a couple of cocktail glasses. And this whole section is about how do you make a chocolate botanical cocktail? We'll have one recipe that's included, but we'll also have is an experiment guide for you to make your own floral chocolate cocktail and figure out a recipe for yourself. We'll use the ingredients that came in the box, but you could also add whatever else you want. Any thoughts on this?",Speaker 1,not-edited
00:11:03.130,00:11:24.450,00:00:21.320,"Oh, this is I like this. This is really cool. I so I think that this would be a really cool gift for somebody else. I don't know if this is something I would necessarily buy for myself, but it would definitely like I have like a list of people in my head that they would love this and this would be so cool if I could send them this one.",Speaker 2,not-edited
00:11:26.630,00:11:34.190,00:00:07.560,So tell me more about why it's not it's not something you would be interested in for yourself so far.,Speaker 1,not-edited
00:11:36.740,00:12:01.479,00:00:24.739,"I don't know, I don't think I necessarily think of things like this is something I would purchase for myself. I think they're really fun, but I would never it seems like a little bit like. Much like a little extravagant for something I would just like buy for myself rather than it's like, oh, this would be really cool, like purchase for somebody else or like something I could do with somebody else.",Speaker 2,not-edited
00:12:03.390,00:12:08.580,00:00:05.190,"Now, remind me now that you live in Seattle, do you have roommates or do you live alone?",Speaker 1,not-edited
00:12:08.790,00:12:09.659,00:00:00.869,I'm living alone.,Speaker 2,not-edited
00:12:10.680,00:12:15.460,00:00:04.780,Do you think your answer would be different if you were back in Reno with your brother?,Speaker 1,not-edited
00:12:16.170,00:12:49.389,00:00:33.219,"So I use over a couple of friends. And when I was living in Michigan and maybe if I was so I lived with, like one of my best friends, I think this would be something that I would really love if I was living with her. And it's like, oh, this is so cool. Like I was kid, we can make drinks tonight. Like, that would be very cool versus. Yeah, I think probably living alone. Plays an impact on that like. I would have to go out of my way of, like, having to do this with somebody whom I didn't think about that.",Speaker 2,not-edited
00:12:51.230,00:13:30.950,00:00:39.720,"OK. All right, let's keep going. There's one more part of this box, it's a do it yourself chocolate bitters. So we'll include some of those counties and you'll have to buy your own grain alcohol because we can't ship that. But we'll give you all the steps to to make and infuse your own chocolate bitters. And you also can use some of the same ingredients that we sent you to kind of bring out complexity of the flavor. We'll include four glass bottles that you can label and gift to friends when you're done with your masterpiece. Any thoughts on this office?",Speaker 1,not-edited
00:13:31.420,00:14:14.280,00:00:42.860,"Yeah, I think this is super cool. I love like it reminds me of those, like, experiment kits used to get as a kid where it's like, oh, make your own volcano. It's something like that, but very, very unique and very tailored. And then I like that it's something, oh, you can give it to a gift as a gift. It's like, oh, I made this for you. Like how? It's very unique, very inventive and fun, yeah, fun for you, but also farming is like something you can give to somebody else or you can make cocktails with the friend. Oh, I made these people impressed. OK, cool. I think out of the three is definitely my favorite part.",Speaker 2,not-edited
00:14:15.150,00:14:20.679,00:00:05.529,"Now, is this something is this do yourself part interesting like for you to do on your own.",Speaker 1,not-edited
00:14:21.120,00:14:34.279,00:00:13.159,"Yeah. Oh yeah, definitely. I think this is I generally I'm a very do it yourself person and I really love like doing crafts and stuff so like this really appeals to me, ok.",Speaker 2,not-edited
00:14:35.350,00:14:46.179,00:00:10.829,"So now that you've seen, like, the whole kit and it's like in the three parts of it, what were your favorite parts and what were your least favorite parts?",Speaker 1,not-edited
00:14:47.680,00:15:34.659,00:00:46.979,"I loved but part three, definitely my favorite hands down. I love the limited edition chocolate bar. I think that's super cool and a really cool way for show to be inventive with their flavors. I like I like the chocolate bitters with the cocktail recipe. I think that's really cool. The glasses itself I think are very hit or miss because if you already have them, well, now you have more. If you don't have them. Sweet. That's amazing. That's great. I mean, you don't know. I like I like the spices. Don't know if I would necessarily use them all if that would just end up being something that sits in the back of my cupboard later on.",Speaker 2,not-edited
00:15:37.510,00:15:52.000,00:00:14.490,"We asked the question, what if we gave you, because what we showed were like full size spice jars. What if we gave you, like, more like a sample, like a sampler, like like maybe a small amount?",Speaker 1,not-edited
00:15:52.360,00:16:04.199,00:00:11.839,"Yeah, I think that makes a lot more sense. Just like, all right, maybe even a third of that, if you still have enough to use it, but you're not overwhelmed by the amount.",Speaker 2,not-edited
00:16:04.890,00:16:15.710,00:00:10.820,"Got it. OK, now that you see in all three parts of this, is this still something that you would more likely give to a friend or do you see yourself buying this for yourself?",Speaker 1,not-edited
00:16:17.570,00:16:56.840,00:00:39.270,"I can see myself doing this for myself as the whole thing. Yeah, absolutely. I think they would be. Well, I think also like the way that it's broken up into parts, you could keep things for yourself and give other things away and like. It's I like I think it's a very inventive idea of taking I don't know, I kind of thought it would be very much like, oh, here some chocolate and here's some wine that goes, like, very simple. But you can tell there's been a lot of thought put into this. And this is very like next level ideas and innovation behind it.",Speaker 2,not-edited
00:16:58.110,00:17:02.489,00:00:04.379,Cool. And do you think you've seen a kit like this before?,Speaker 1,not-edited
00:17:06.230,00:17:14.930,00:00:08.700,"I don't think so. Nothing like jumps out. It's like, oh, this is pretty similar to this. It seems very inventive.",Speaker 2,not-edited
00:17:16.609,00:18:05.390,00:00:48.781,"Cool. All right, so I'm going to keep going and show you the digital side of the box, so in each kit you're going to get these cards. So you'll always have, like, all the cards that you need out of the box. But if you go to Chodak, you'll get the content digitally in case you lose a card. But some of the content will also come with the video that takes you a little deeper. And another idea we're thinking about is adding kind of like a common section where you have questions on how to make the recipe or you have like a way that you changed it or you have a question to show. You can pop that in there, see what else other people have said, and you can chime in as well.",Speaker 1,not-edited
00:18:05.810,00:19:01.319,00:00:55.509,"Mm hmm. My initial suggestion that is it would be really nice to have like a QR code on the recipe card itself, because I generally like looking at things on my phone and having it available. And I will probably stay in this card and then not be able to read it. So that's or like having that on the. The I don't know, something in the packaging to where you'd be able to access that pretty easily instead of having to go directly to the site. But I do like that it's both online and on the card. I like the ability to ask questions as well and have that discussion there. Cool.",Speaker 2,not-edited
00:19:01.560,00:19:14.429,00:00:12.869,"And video being on show dotcom. Like if we use a QR code, for example, is it would you. Is it fine to have it on dotcom or would you prefer it on like YouTube or Instagram or tick tock.",Speaker 1,not-edited
00:19:16.620,00:19:29.229,00:00:12.609,"So Dotcom would be fine. Yeah, especially especially if you can easily access. I think that's like the biggest thing. I guess as long as I can easily access that, I don't really care where it is.",Speaker 2,not-edited
00:19:30.550,00:20:16.809,00:00:46.259,"OK, cool. And I think that's it. All right. So next one is the like the live virtual events. So this guy here is Brad. He's chose had chocolate maker and he's he's really cool guy. He's got a lot of information. He knows a lot about chocolate and and just cooking and flavors in general. And this live event, he'll have special guests and they can really like nerd out on botanicals, on chocolate. And it really goes with your kid. If you miss the event, will always have a recording that you can turn to the benefit of going live as you can have. Ask questions, be interactive thoughts on this.",Speaker 1,not-edited
00:20:18.310,00:21:38.380,00:01:20.070,"I like this, I think it's really cool. How? How do you time it? I mean, I guess like that asks a bigger question like who is your target market? But how do you how do you make sure it's a good time for people on Pacific Time Zone or Eastern? Do you are you trying to market it to people in different countries? Because then you got to be conscious of when you are playing it. I think. Oh, sorry, go ahead. Oh, I think that is like I love I like virtual. That's great, but. Sorry, my mom and sister last week, so she's doing dishes in the background, you can hear I yeah, I think a lot of times, like events are based on like S t and then they don't end up working for my schedule. And that's a big part of why I don't attend is just the timing wasn't working for my time zone. Got it. So I think that is that would be my one concern of like, does it work with my schedule? Is it if it's based on PSV? I'm sure it does. But if it's based on SC, it might be a little bit harder to fit in.",Speaker 2,not-edited
00:21:40.610,00:22:34.630,00:00:54.020,"That's really helpful to know, OK. Last bit is the close knit group of sounds like you're familiar, Aslak. Yeah, but the guys at work. This one would be, you know, people that buy the kid that are like subscribe to it or to the club. You'll also have Cho the Cho team will be part of this close group and it'll be kind of similar to the comments. But now this is all kind of a community where you can talk about recipes you've done from the kid, share pictures, ask more questions, perhaps give Cho feedback, suggests the next make or series. You know, there's just like a lot of ways we see this getting used. Would you feel like this is something you would use or it's likely that you wouldn't?",Speaker 1,not-edited
00:22:36.790,00:23:29.630,00:00:52.840,"Oh, I think I like to it's not a Facebook group because I will never participate in a Facebook group versus slack to me, I always do more professionally. I don't think of it. But at the same time, like, I don't have the Facebook app on my phone, but I have this app on my phone. So it would be very easy to access. But I don't know if I necessarily think of slack is something where I'm putting in things for my personal life. I don't know. I think I think initially I didn't I wasn't a fan of it, but I was thinking about it a little more. I would say I'm more neutral to it now, but I don't necessarily I don't know if I necessarily see myself using this often.",Speaker 2,not-edited
00:23:30.810,00:23:46.380,00:00:15.570,"That's fair. Let's slack aside, Facebook group aside, is there any interest in connecting with other people that are like into cooking and chocolate that you might be?",Speaker 1,not-edited
00:23:50.140,00:24:24.579,00:00:34.439,"Maybe, I guess I don't know, I. I don't know, I don't know. Obviously, this is like always group to this group more towards like my age range and like people of my generation, but like my age. But I generally I don't know, I think of people who participate in these groups, like the weirdos. It's horrible. It's probably just me, though, so honest opinions.",Speaker 2,not-edited
00:24:24.590,00:24:48.369,00:00:23.779,This is very helpful. So I've showed you all the parts of the club and we're thinking of of pricing it out at one hundred and twenty five dollars per quarter. So can't you get everything in that box? You get access to all the the digital stuff that's on this price?,Speaker 1,not-edited
00:24:49.090,00:24:54.640,00:00:05.550,"Yeah, I, I guess it's probably about one hundred bucks, so not too far off.",Speaker 2,not-edited
00:24:57.890,00:25:00.880,00:00:02.990,"Twenty five, is it something you would do?",Speaker 1,not-edited
00:25:04.500,00:25:49.260,00:00:44.760,"Maybe I don't know, I think that. There's a lot of value outside of the box, and you'd have to be willing to use that to get the full value out of it for sure. I don't know, I would say. Honestly, like probably not like I think if it wasn't like the seventy five to one hundred, then I would be more likely to. But, yeah, I just I don't know if I would like. Get the full value out of that and be like, oh, this is definitely something I continue using.",Speaker 2,not-edited
00:25:50.140,00:26:34.319,00:00:44.179,"Got it. This is really helpful. So, OK, so you're like seventy five to one hundred as you do all the stuff. OK, that makes sense. I'll keep going. So this is one way we're thinking about pricing out. The kit is like one big box. What if we had a version where you would get the first two parts, the ingredients and the cocktail element. And if you wanted to add on the do it yourself bitters, you can add that on as a separate piece. Does this model, like, make it more appealing to you?",Speaker 1,not-edited
00:26:34.950,00:26:42.060,00:00:07.110,I do like that. Can you can you just do like the DIY bitters or is that you have to buy the box?,Speaker 2,not-edited
00:26:42.620,00:27:09.420,00:00:26.800,"That's a good question. I don't we haven't decided that yet. But you would you would want the option to just do the bitters. Yeah. OK. What if what if instead we gave you the box and three pieces, kind of maybe more like phablet, where like the first month you would get you can get the ingredients, the second month you can do cocktails. In the third month, you could do bitters.",Speaker 1,not-edited
00:27:13.200,00:27:52.739,00:00:39.539,"Can you could you, like, skip like, oh, I'm really not into this first box. I don't want that one, but I would love one, two and three because I don't know if I have to commit to every single month getting this. I don't necessarily think I would be into it. But if it's like, oh, like I love box two and three want that for sure. But I don't love box one. Would that be an option? So I think if I didn't have that option, I wouldn't be necessarily interested. Like I like to have the ability to pick and choose what I want and not necessarily have to do every single one.",Speaker 2,not-edited
00:27:54.040,00:28:41.829,00:00:47.789,"OK, that's this is very helpful. OK, so we talked about how, oh, I skipped too far experiments. So the box comes with these like experiments, right in the botanicals kit. I mentioned this experiment guide for making your own cocktail recipe. So we don't just want to give you recipes to memorize. Like the real goal is to help you figure out combinations that you like and like new stuff that works for you. So imagine this being like a big piece of paper that you fold out on your counter and it gives you all the steps to try your own cocktail combinations. What are you what are your thoughts on this?",Speaker 1,not-edited
00:28:42.100,00:29:03.710,00:00:21.610,"I like that. I think that's really cool. I yeah. This I don't necessarily. Experiment at times like cocktails and stuff of my own in my own life, and so I definitely think like having this and having a more of a guideline would definitely. Make me more apt to try.",Speaker 2,not-edited
00:29:05.800,00:29:18.160,00:00:12.360,"And considering, like your current situation right now, like living alone in Seattle, like, is this something that you would want to do solo or would you need to do this with other people?",Speaker 1,not-edited
00:29:18.370,00:29:28.320,00:00:09.950,"I do it with other people for sure. Like this would be a lemon invite over one of my friends and we're going to have like a cocktail and, like, make a thing out of it.",Speaker 2,not-edited
00:29:30.770,00:30:01.550,00:00:30.780,"OK, another experiment we're thinking of is do it yourself chocolate bar. So we'll give you some baking discs to melt. We'll show you how to temper and temper chocolate and pop them into molds. But using the ingredients in the kid you, we would guide you similar to the last. The last experiment will guide you on how to make different combinations so you can try your own flavors.",Speaker 1,not-edited
00:30:01.970,00:30:33.829,00:00:31.859,"Mm hmm. I love this, so I I studied abroad in college in Peru, and there was a like chocolate cafe there and they did like a DIY chocolate bar class there. And it was like my single favorite thing I did. And so I would like to be on this immediately, like this would be so far. I mean, I love chocolate and I like to be able to make my own Barasat that. Oh, I love it. Like, where do I buy the box today?",Speaker 2,not-edited
00:30:35.260,00:30:44.289,00:00:09.029,"Cool, that's and if this were like maybe part of a quarterly like it's a repeated quarterly experiment, would that still be appealing to you?",Speaker 1,not-edited
00:30:44.410,00:30:49.250,00:00:04.840,"Oh, yeah, that would be really cool. I like that idea a lot. Awesome.",Speaker 2,not-edited
00:30:50.000,00:32:14.569,00:01:24.569,"OK, so last but not least, these are other kits that we're thinking of offering, so on the left was botanicals. We walked you through that already. This this one in the middle is beer and chocolate. So we can't send you beer. But in the kit is all this information and teaching you about how brewing works. Where does the flavor come from? Will send you some hops. We'll send you some like malts. And then the experiment will be tasting beer and chocolate together. So, like, how does like pairing that change the flavor of both of them? And then this also includes a do it yourself Dove Bar, chocolate bar. So like, how do you get inspired by the snacks that you get at like a local bar, for example, and then make your own and it'll come with the auto maker series version as well. The chocolate and chocolate and coffee is a little similar. It's you know, they both come from beans. So we'll talk about how they have a lot in common. But we'll also talk about how they're different. There will be another, like, tasting of like chocolate and coffee together. And then you also do it yourself, like barista inspired chocolate bar.",Speaker 1,not-edited
00:32:15.350,00:32:44.339,00:00:28.989,"Hmm. Reactions, I like those I think both of those are great, are just I think that's a little bit. More of what I expected, and I think I mean, I think they're great, like I would enjoy that. It would be cool. Yeah, I think yeah. If you can, I don't know. That's all I got. I like it. I think it's cool idea.",Speaker 2,not-edited
00:32:45.300,00:32:49.710,00:00:04.410,"If you could rank these first, second and third, how would you rank them?",Speaker 1,not-edited
00:32:49.950,00:32:56.130,00:00:06.180,Hmm. I think I would go coffee number one. Beer number two. Botanicals three.,Speaker 2,not-edited
00:32:57.760,00:33:02.140,00:00:04.380,Can you tell me a little like like why chocolate coffee is first?,Speaker 1,not-edited
00:33:03.910,00:34:19.909,00:01:15.999,"Because I mean, I love coffee, I love chocolate. I think that's just I think it's very cohesive and you don't have to there's not necessarily any preparation of like, oh, I need to go buy this beer for this or I need to go buy this like vodka for this. I like that. It's all right there. And you could just package it. Boom, boom, boom. You got yourself a fun day, night, whatever. I think that is probably I would I think I would bring the botanicals higher if it was all there and same with the beer. It's just like, oh, you kind of have to go out of your way to get these. And I have no clue how many different types of beer you would want to have for that. But it's like, oh, OK. Like, that's going to add up then if I have to go by six different types of beer. But I do really like those concepts. And the botanicals, I think also the botanicals, it's not something I would ever go out of my way to do, but I think having it like given to me, I would really enjoy it.",Speaker 2,not-edited
00:34:22.449,00:34:32.590,00:00:10.141,"So you rank botanicals third under fear, what maybe what are some of the elements of the kit that are not as appealing?",Speaker 1,not-edited
00:34:35.860,00:35:51.989,00:01:16.129,"I don't I think I don't know if I love the glasses being in there, I do because I don't have those glasses. And so that would be really nice. But also, like, I just moved into my own apartment. So I don't have like I don't have a coffee table either. So my standard of what people own is pretty low right now. But I think a lot of people, like when I was living with my friend, we had glasses of wine glasses, like we had so much that I think would be, oh, great, another glass that we have and we just don't have the space for it. I don't know. I don't necessarily think of. Like Botanica, I'm just not I'm not a plant person either. I think that's probably a big part of it is like. I'm just not a plant person, but I do like I think that if someone was like I have other friends, I'm like they would rent that box. No one, that would be their favorite. They would be so intrigued by it. I think I like the. I like the concept of that, though I'm the best, but I just don't think. I just I'm not a plant person. I think that's it, that's fair.",Speaker 2,not-edited
00:35:52.410,00:36:14.710,00:00:22.300,"All right. I'm not I don't this is not on the slide on the slide for this. But what if Cho did, like, a whole box about salts or whole box, about, like peppercorns? And we'll give you because there's like a ton of varieties of salts out there. And it was all about that. And chocolate.",Speaker 1,not-edited
00:36:15.400,00:36:34.070,00:00:18.670,"Yeah, I like I. The peppercorn, I would have to see, because I just I don't necessarily put those two together, but like salt, I think all chocolate should have a little bit of salt because it just adds to it so much. But I think that would be really cool concept.",Speaker 2,not-edited
00:36:35.860,00:36:43.719,00:00:07.859,"OK, I think that's that's it for me, this is the last slide. Any last remaining thoughts?",Speaker 1,not-edited
00:36:45.330,00:36:46.260,00:00:00.930,I don't think so.,Speaker 2,not-edited
00:36:47.050,00:37:12.279,00:00:25.229,"Yeah. OK, McKayla, thank you so much. I found this really helpful. I'm sure my colleagues did, too. I thank you very much. I will follow up with you over email on fifty dollar gift card, if that's all right. Yeah, absolutely. All right. Well, thank you again. Congrats on Seattle. Have a great day and thanks again.",Speaker 1,not-edited
00:37:12.610,00:37:14.830,00:00:02.220,That's good. You as well by.,Speaker 2,not-edited