In,Out,Duration,Text,Speaker,Status
00:00:00.300,00:00:01.169,00:00:00.869,"You know,",Speaker 1,not-edited
00:00:02.050,00:00:06.579,00:00:04.529,"for the record, can you please tell me your name, age and location?",Speaker 2,not-edited
00:00:07.140,00:00:13.009,00:00:05.869,"Yeah, my name is Colin Gorman. I'm 30 years old and I live just outside Chicago.",Speaker 1,not-edited
00:00:15.410,00:00:17.269,00:00:01.859,And what is your occupation?,Speaker 2,not-edited
00:00:17.870,00:00:23.690,00:00:05.820,I'm a application developer in at Allstate on the investment side.,Speaker 1,not-edited
00:00:25.370,00:00:31.850,00:00:06.480,"Very cool, and can you describe what your household is like? Do you live with people you alone?",Speaker 2,not-edited
00:00:32.330,00:00:43.700,00:00:11.370,"Yeah, I live with my wife and we have two dogs as well. And hopefully in the future we'll add some little ones. But right now, just the two of us.",Speaker 1,not-edited
00:00:45.350,00:00:49.940,00:00:04.590,"And where does cooking, baking fit in your lives?",Speaker 2,not-edited
00:00:50.720,00:01:35.359,00:00:44.639,"We cook basically every day, I'd say probably five days a week, maybe six. And then I've also fallen in love with baking over the quarantine or just having that time at home now. And I'm working from home, Dilli at least. And so it just gives me that extra time to monitor things and get in and check on Addo or something. Right. But my wife grew up with a dad that was a pastry chef and he would cook at home all the time. So she's always loved cooking too and just learned from watching him and I kind of learned from watching her.",Speaker 1,not-edited
00:01:37.520,00:01:39.709,00:00:02.189,"Very cool, so big, big part of your lives.",Speaker 2,not-edited
00:01:40.010,00:01:53.870,00:00:13.860,"Yeah, yeah, we probably spend the most time in our house, in the kitchen or sitting on the couch watching Netflix or something. Right. Yeah, if we were cooking.",Speaker 1,not-edited
00:01:56.850,00:02:02.999,00:00:06.149,"Yeah, now in the post pandemic, which I'm sure it looks a little different, what was it like pre pandemic preparedness?",Speaker 2,not-edited
00:02:03.210,00:02:25.589,00:00:22.379,"DEMICK was a lot of cooking, not much baking. But still cooking five to six days a week, any time we have people over usually cooking something or grilling something and just like I know is just always about food, like it's kind of like the one thing that always brings us together.",Speaker 1,not-edited
00:02:27.340,00:02:37.550,00:00:10.210,"Yeah. OK, I'm going to switch gears a bit and ask you about subscriptions, do you and your wife belong to any subscriptions right now",Speaker 2,not-edited
00:02:39.860,00:02:42.650,00:00:02.790,"outside of, like, digital streaming stuff?",Speaker 1,not-edited
00:02:44.390,00:02:48.410,00:00:04.020,We do not have you tried any subscriptions?,Speaker 2,not-edited
00:02:50.900,00:02:52.909,00:00:02.009,I have not. No.,Speaker 1,not-edited
00:02:54.310,00:02:57.220,00:00:02.910,"What comes to mind when I say that word,",Speaker 2,not-edited
00:02:58.210,00:03:52.490,00:00:54.280,"so because it's related to show, I'm thinking like. Light blue apron and like those kind of companies, right, where it's like prepackaged prepped ingredients and. Instructions on how to do things, verses like. I don't know, maybe a subscription of, like, wrong reasons that you might use all the time that are just coming in, like I probably personally be more likely to do something that was like, oh, like if you're using this product pretty consistently, like, send it to me every month or something versus like, here's a recipe, try this. But I think that's primarily because I like to find my own recipes, go out and get my ingredients, you know, like mix it up. And and I don't know, I just find like a different connection that way.",Speaker 1,not-edited
00:03:54.970,00:04:01.869,00:00:06.899,"Outside of food, have you heard of other subscriptions, like through friends and family?",Speaker 2,not-edited
00:04:03.630,00:04:31.600,00:00:27.970,"Yeah, yeah, so like my sister in law actually works for Stitch Fix doing like it's like a what are they called a stylist social like put together items for people. Other than that, it would be like I think like half of my family uses like Pepitone. Right. And like workout subscriptions. Primarily.",Speaker 1,not-edited
00:04:37.450,00:04:44.700,00:00:07.250,Why do you think you and your wife haven't done those type of subscriptions for yourselves?,Speaker 2,not-edited
00:04:49.640,00:05:50.259,00:01:00.619,"I think that's a good question. I mean, like for first stitch fix, it's always like with clothing. We're looking for deals, right? For workout stuff, we're usually pretty. Pretty good at motivating ourselves, like I find like I'm training for a marathon right now, right. So it's like that's my goal and it's pretty easy to find a plan online. And I don't really need classes for me. I wouldn't be surprised if my. Wife were to eventually want like a subscription for workout stuff, because she used to do like Orange Theory classes before the pandemic, so. I could see that happening again, but. But I think. I think it's usually just like deal hunting and trying to be minimalist in a sense.",Speaker 1,not-edited
00:05:53.810,00:06:02.510,00:00:08.700,"What if I say, like, the word kit instead of subscriptions, does any products come to mind or companies come to mind when I say the word kit?",Speaker 2,not-edited
00:06:06.810,00:06:34.230,00:00:27.420,"I mean, it kind of brings blue apron back to it from the food side. And again, I've never done it, but I've seen my friends do it online. But. Nothing totally comes to mind company wise, but I mean, I guess, like, if I were to order like a one time, I would be open to it, right. And then it could turn into a subscription thing.",Speaker 1,not-edited
00:06:34.340,00:07:29.480,00:00:55.140,"So, OK. All right. So I'm going to start a screen share right now. And as I do, I just I, I want to remind you that that I'm a research partner and the stuff that I'm showing you, my goal is to get like as honest feedback as possible. I know you know, Lexi, but the like if you hate stuff, let me know. Don't worry. If it's like really mad, let me know that, too. And don't hold back. OK, so Cho is thinking about releasing something called the Taste Chasers Club. So it's a limited release subscription kid exploring flavors inside and outside chocolate. Every quarter they'll dove into a new flavor theme with education products and experiments.",Speaker 2,not-edited
00:07:29.930,00:07:33.940,00:00:04.010,OK. What do you think?,Unidentified,not-edited
00:07:36.740,00:08:15.029,00:00:38.289,"I'm super interested by hearing the outside of chocolate. From from them, right? And then I'm thinking. When I hear every quarter, it's like, OK, is it just like one thing every three months or is it a new theme every quarter where there's multiple? Items coming in or something or multiple recipes that you're covering, like. Is it weekly, is a monthly, daily? What's it just. It makes me curious.",Speaker 1,not-edited
00:08:16.230,00:08:25.220,00:00:08.990,Call. Any expectations on what could be in this kit based on this info?,Speaker 2,not-edited
00:08:31.050,00:09:08.669,00:00:37.619,"It definitely seems like there would be at least some good instructions, right? Product wise, I would definitely from them expect some sort of chocolate in there or chocolate product, an experiment. I have no clue and I would think. Maybe the education is about where the product comes from or what is in it, or kind of like a background of it, and then experience would be like the recipes or something. OK.",Speaker 1,not-edited
00:09:10.020,00:09:42.750,00:00:32.730,"So on a high level, the club will include the box that shows up at your doorstep and inside will have a lot of goodies. Unpack one with you in a minute. But it also comes with online content that goes with your kit. There's live events that go with the kit as well as a closed loop. Again, all of these things I'll go into in greater detail. But based on this high level summary, any thoughts?",Speaker 2,not-edited
00:09:46.630,00:10:28.049,00:00:41.419,"That seems actually pretty cool, so I like the. I like the use of like a website or whatever is going on there, right. So I grew group so that you can kind of like, interact, right. And it looks like maybe you'd be able to chat with other individuals doing the same or working with the same kit. And it looks. To me, very intriguing and like a lot of. Different ways to maybe use their product that I wouldn't necessarily have thought.",Speaker 1,not-edited
00:10:30.230,00:11:32.809,00:01:02.579,"OK, so let's dove into a. Our first idea is a botanical skit. So this entire theme is around how Mother Nature grows, some really cool flavors. OK, it's a big kids. And so I'm going to unbox it in three sections and it's all in one box right now. So the first part is flowering flavors. So we'll go to the science behind, like how plants they grow the flower, what parts of the plant create the ingredients will give you four examples of premium examples, as well as info cards that go deeper into like, let's say, what federal Paulina's will include at least one recipe for how you can turn hibiscus into a simple sirup. And then we'll also have a channel maker series for it's limited quantity and it's our botanical inspired flavor. OK, so this.",Speaker 2,not-edited
00:11:34.870,00:12:22.770,00:00:47.900,"Super interesting. Right, like these are. Ingredients that I often probably wouldn't pick up from a grocery store, right? And knowing more about it would be encourage me to use it in different ways, like. Like, I've never cooked with biscuits or Stanis, right? And I mean, I've used thermal in certain things, but usually only really related to pork, so it's it's intriguing. I. I don't know, I guess I was like when I first heard this, I was like, oh, it's got to be like all chocolate related, but now it's peaking my interest for.",Speaker 1,not-edited
00:12:25.040,00:12:56.510,00:00:31.470,"OK, the second part of this box is botanical cocktails, so we'll start to explore how these botanical flavors can come alive in cocktails. Mocktails will include a Choa chocolate bitters, some cute glasses. We'll have a recipe for one type of cocktail, but we'll also include an experiment guide for you to try out different flavors yourself. Thoughts on this part?",Speaker 2,not-edited
00:12:57.950,00:13:18.839,00:00:20.889,"I think that's super cool. I think it makes it especially with people in quarantine and maybe missing, going to to bars and stuff and getting those fancy drinks like it kinda makes it more accessible and thought provoking.",Speaker 1,not-edited
00:13:21.730,00:13:47.649,00:00:25.919,"OK. And then the last part of this box is a do it yourself chocolate bitters will include counterparts. You'll have to buy your own grain alcohol, but we'll give you all the steps to infuse your own creation. And we'll also include these glass dropper bottles for you to label and perhaps give to friends and family.",Speaker 2,not-edited
00:13:50.410,00:14:34.820,00:00:44.410,"Well, that one is like it's something I would probably do, but I could imagine a lot of people being like, I don't want to go out to the store and buy grain alcohol. And I wonder if it would be one of those things that just sits in the back of a pantry or something for a lot of people. I think it's a cool idea, but I wonder how much use it would get. And if I or something like, oh, it's just one of those things where it's like. We got to go pick up a decent grain alcohol and go through this process, and I'll do it another week or something, right. And then just completely forget about it.",Speaker 1,not-edited
00:14:36.950,00:14:47.539,00:00:10.589,"OK, so you've seen all three parts of the box. Is this something that you would see yourself doing?",Speaker 2,not-edited
00:14:49.930,00:14:53.040,00:00:03.110,"Yeah, I think I could actually see myself doing that.",Speaker 1,not-edited
00:14:55.240,00:15:01.269,00:00:06.029,"How can you maybe imagine, like, is it something you would do alone with your wife?",Speaker 2,not-edited
00:15:03.590,00:16:03.459,00:00:59.869,"Yes, I would probably like this box pretty specifically. Would probably. I can't see my wife being interested in it just because she's not big. Like the cocktail she's into are you're usually like like dirty martinis and more clear alcohols than anything else. And when I don't know, maybe it's just because I'm more into whiskey that I'm like I see a lot of. Potential for how to mix these right, and I'm not sure how you'd mix it with gin or vodka and how it would really turn out. So I guess, like. For me, I probably end up doing it alone or try and get together. With a friend. That would kind of look like the same kind of flavor profile as me.",Speaker 1,not-edited
00:16:06.080,00:16:10.820,00:00:04.740,What are what are your favorite parts of this box and what are your least favorite parts?,Speaker 2,not-edited
00:16:12.260,00:17:27.329,00:01:15.069,"I think the the stuff I'm most interested in was part one of the kit. Just because there were some different like. Botanical ingredients there that I typically wouldn't. Like play around with all that much. Until like learning how to use new ingredients in one fashion might open up my eyes as to how else I can incorporate it in the kitchen. And I think. Like me, the cocktail party sounds fun, but again, I'd have to see if my wife would be up for trying it and mixing it together and really just because she's not into the same kind of alcohols that I am that I would think would make the best place for it. And then my least favorite part, I think, would actually be. What's cool is actually making the Vitters just because. Again, I think like I forget about it or something, and then it would be like two months later and find it in the back of the pantry like, oh yeah, I'm supposed to do that. Right.",Speaker 1,not-edited
00:17:32.110,00:18:10.319,00:00:38.209,"All right, let's talk about the digital parts of the kit. So each kit will always include these printed cards, so everything is ready out of the box. But you also have the same content available on the website and some of it will have video that will take you even deeper. And another idea we're thinking of is including comments on the bottom of the page so that you can ask questions and see what other people are saying might drop in with any reactions on this part of the experience.",Speaker 2,not-edited
00:18:11.020,00:19:05.809,00:00:54.789,"I would want one hundred percent keep the comments down there. Just like any time I look up any recipe online, I'll look through the recipe and then the next thing I do is go through the comments and see if people are like this. It was way too much of this is way too little of that. Right. And just kind of see if there's a theme and people agree. And like like maybe I tweak this recipe to how they've already tweaked it. Right. Since it's my first time making it or going through it. So I think that is definitely a peace worth having on there, and I like that there is it looks like basically. The same information there, right, but you get the video as well, which kind of makes it more interactive for those that want to.",Speaker 1,not-edited
00:19:07.620,00:19:14.009,00:00:06.389,What what how do you see yourself using the card or online in the video?,Speaker 2,not-edited
00:19:16.150,00:19:43.599,00:00:27.449,"So I would probably. I would probably read through the card like as soon as I open the package, right, and just like, oh, this is cool, like, what am I doing with it? And then while I was actually going through the process, I would probably use. The channel, or I believe that's what you call right. Or is it a website",Speaker 1,not-edited
00:19:44.620,00:19:47.859,00:00:03.239,of this this here is just the website with comments.,Speaker 2,not-edited
00:19:48.100,00:20:08.670,00:00:20.570,"OK, so on the website I would probably use that like I was going through the process for the first time. And then if it was a recipe I loved, I would be either I'd probably store the card somewhere like physically or I'd write it down just because I'm when I find recipes I love, I just write them down in a notebook.",Speaker 1,not-edited
00:20:10.770,00:20:42.990,00:00:32.220,"OK, so we also are thinking of live virtual events. Brad is Cho's head chocolate maker, really cool guy. He has a lot of knowledge. And on the live event, he'll include special guests that will they'll really just like go nerd out on, let's say, botanicals for this one. If you watch it live, there's a chance to ask questions, get involved if you miss it. We'll have a recording that you can watch on demand reactions.",Speaker 2,not-edited
00:20:43.830,00:21:13.790,00:00:29.960,"I think that's pretty cool. That's it's definitely interesting. I know I used that word a lot. But I like that you can kind of get like a professional opinion on how these flavors work together, right? And that seems like something worth watching maybe before you go into that experiment phase of mixing different flavors together.",Speaker 1,not-edited
00:21:16.820,00:21:25.339,00:00:08.519,"OK, do you how do you see do you see yourself watching this live recorded, maybe skipping it?",Speaker 2,not-edited
00:21:25.850,00:21:35.429,00:00:09.579,"I probably watch it recorded. Yeah, I think I probably watch it recorded.",Speaker 1,not-edited
00:21:37.090,00:22:06.849,00:00:29.759,"OK. All right, here is the slacker. So in addition to having comments on the website, we're thinking of a select group that members of the club would be invited to, but they're also Choa team members will be on here. So Lexi might be on here. Club members can share the recipes, share pics, ask questions, give us your feedback. Is this something you see yourself using?",Speaker 2,not-edited
00:22:08.790,00:22:33.470,00:00:24.680,"Yeah, I think that would actually be pretty cool just to be able to share recipes and pictures like that because. Someone might come up with something totally unique or different than what I would think of, right? And so I think I could see myself or other individuals using that right.",Speaker 1,not-edited
00:22:37.190,00:22:43.339,00:00:06.149,What if this were a Facebook group instead of a slack group? Would that change anything for you?,Speaker 2,not-edited
00:22:44.000,00:23:09.089,00:00:25.089,"I probably wouldn't use it, but that's primarily because I don't use Facebook much anymore. So I think for me, I probably I think you would feel more unique to the group or subscription, whatever you want to call it, if it was something that was more standalone.",Speaker 1,not-edited
00:23:11.510,00:23:24.980,00:00:13.470,"OK, so I've showed you all the pieces of the club, and for each quarter the price will be one hundred and twenty five per Kitz reactions to this price.",Speaker 2,not-edited
00:23:26.910,00:23:37.130,00:00:10.220,"It definitely feels high. Yeah, it definitely feels high to me.",Speaker 1,not-edited
00:23:40.250,00:23:47.829,00:00:07.579,"As I was going through the kit and the different pieces, was there like a price for like floating around in your head?",Speaker 2,not-edited
00:23:50.590,00:24:02.020,00:00:11.430,"I was probably thinking like. Like seventy five tops, I know that's pretty low compared to what they put out there.",Speaker 1,not-edited
00:24:04.660,00:24:07.009,00:00:02.349,"Now, this is helpful to know, like, what your expectations are.",Speaker 2,not-edited
00:24:07.090,00:24:30.040,00:00:22.950,"OK, yeah, yeah. But again, I'm like, I don't know much about the botanical ingredients and what that costs and the shipping and all that stuff. But yeah, I would be like you could lower it. You could. While the glasses are nice, you know, they're not, like, totally necessary. So.",Speaker 1,not-edited
00:24:33.540,00:25:02.130,00:00:28.590,"All right, so we're also thinking of a couple of other ways to price this out, and I'm curious if it changes your interest in the kit. OK, so you know, what we showed you was one big kit every three months. Another idea is if we gave you the first two parts of the kit and then you have an option to add the do it yourself builders as Lego as an upgrade. OK.",Speaker 2,not-edited
00:25:04.510,00:25:15.509,00:00:10.999,"Yeah, I'd probably be more likely to do that, right? My first part of the. As you know, I was mentioning my concerns about the bitters portion.",Speaker 1,not-edited
00:25:17.120,00:25:42.440,00:00:25.320,"OK, that makes sense. What if we offered this as a monthly subscription where, you know, the key one theme is botanicals. And so the first month you would get the ingredients, the second month you'd get cocktails, in the third month you'd get the bitters kit. What are your thoughts on this type of option?",Speaker 2,not-edited
00:25:44.100,00:26:02.850,00:00:18.750,"I think my concern would be if I got. The flowering flavors and month one, I'd be like, OK, now what do I do with these for a month? Right. They kind of need to have part two there with them.",Speaker 1,not-edited
00:26:06.480,00:26:50.940,00:00:44.460,"OK, that makes a lot of sense. All right, so, you know, a big part of this kit concept are these experiments in the botanicals kit. We give you a recipe, but we don't want to just give you recipes to memorize. Like a goal of ours is to give you steps for how to explore recipes that you make yourself. So imagine this in your botanicals kit, and it's a big piece of paper that folds out onto your counter and it gives you steps for how to make a bunch of different combinations. What do you think about this as an activity?",Speaker 2,not-edited
00:26:52.280,00:27:19.539,00:00:27.259,"I think that could be super fun. I think that's a good idea. Right, because it's so easy, like if you're even if you're just like, oh, let's do cocktails, right? Like, it's so easy to just be like, oh, we're just going to do this one cocktail that we like and have all the time. And I think this, like, really encourages you to. Open up to a different flavor combination. So it looks fun.",Speaker 1,not-edited
00:27:20.650,00:27:33.799,00:00:13.149,"Who how do you think you would try this, like imagine you have this at home right now, like what can you imagine a scenario using it? Yeah.",Speaker 2,not-edited
00:27:37.240,00:28:20.779,00:00:43.539,"I think, again, if I could get my wife on board for or maybe she could convince me that it would work with different based alcohol, but I mean, I could definitely see it, like if I could get her on board. I got to being a very fun date night kind of thing. Right. Like. Even if you just order in food and it's like, all right, we're going to make a bunch of different cocktail combinations and. Mix these flavors together and kind of play around and or do like a competition between two people, or I like to make one at the same time with different flavors and compare them. So I think it could be a lot of fun.",Speaker 1,not-edited
00:28:21.850,00:28:54.029,00:00:32.179,"Cool. I like that idea. Oh, OK, another experiment we're thinking of is do it yourself, chocolate bars, OK, so we'll send you the baking discs. We'll show you how to melt it temperate and then pop them into molds and using the kids. We'll give you a guide for how to make different combinations. And it's a it's a similar concept as the as the cocktail one. But now it's creating your own flavor. Chocolate, chocolate flavors. That's cool.",Speaker 2,not-edited
00:28:57.130,00:29:26.900,00:00:29.770,"I think. I think that sounds like a lot of fun, too, and that's something you can do if you're like a family with kids, right, that. You can include them on it or in it as well, instead of just like. Making cocktails with them, but I can't imagine I would go, although you could do mocktails, like you said, but yeah, this looks pretty cool to. I almost like this.",Speaker 1,not-edited
00:29:28.620,00:29:31.469,00:00:02.849,That was my next question. Which one do you think you like more?,Speaker 2,not-edited
00:29:31.800,00:29:33.679,00:00:01.879,"I think I like this one more, honestly.",Speaker 1,not-edited
00:29:35.690,00:29:39.349,00:00:03.659,Do you have any ideas why?,Speaker 2,not-edited
00:29:43.490,00:30:25.390,00:00:41.900,"I think because so we're also big wine drinkers in our household, and I think that these flavors could pair really well with certain wines, too. And so you could almost still do kind of like a date night thing that way. And just like, all right, we're going to make our own chocolate. You get to kind of go through the whole process here of, like, creating the flavors. Right. And tempering the chocolate and kind of understanding what goes into making the chocolate bar. I don't know, it just seems it seems more intriguing to me.",Speaker 1,not-edited
00:30:26.630,00:31:48.349,00:01:21.719,"OK, um, and so this is something you could see yourself and your wife doing together. Mm hmm. OK, um, let's see. And so we're at the the last part of the concept. So we have other ideas. So what we showed you was botanicals. Another idea we had was beer and chocolate. Fortunately, we can't send beer in the kit. But what will be included are information about how flavors made in brew in the brewing process will include like hops, maybe some malts, and we'll take you through a beer and chocolate pairing. And this experiment is make your own chocolate bar based on like a Dove Bar snack, OK? And then the last idea is chocolate and coffee, there's a lot of similarities because they're both beans, but there's also differences. So we'll take you through the process, how origin plays a part, how fermentation plays a part. We'll explore how these two flavors go together. And then the experiment is making a barista inspired chocolate bar. OK, reactions to these two new kids,",Speaker 2,not-edited
00:31:49.950,00:32:26.230,00:00:36.280,"I love the idea of coffee and chocolate at. The bigger one I'm less interested in personally. I think it's the general concept is. Is good. I might friends, I would love it because I have a few friends that do homebrewing. And they might be like, oh, maybe I should get some more product or something so I can actually incorporate it into a large batch. But me personally, I'd be more intrigued in the coffee and chocolate one.",Speaker 1,not-edited
00:32:27.890,00:32:31.440,00:00:03.550,"OK, how would you rank these three in?",Speaker 2,not-edited
00:32:35.120,00:32:45.650,00:00:10.530,"I think I would go. I think I would go with coffee first, but technical second, beer third.",Speaker 1,not-edited
00:32:48.420,00:33:07.380,00:00:18.960,"Um. I think that's it. I'm like, I was checking all the time and I'm thinking through my questions, like maybe my last my last question I'll ask is, have you seen a kid or a subscription like this anywhere else?",Speaker 2,not-edited
00:33:08.250,00:33:16.140,00:00:07.890,"No, I have a. Yeah, no.",Speaker 1,not-edited
00:33:18.180,00:33:42.150,00:00:23.970,"All right, I lied, I have one more question. I'm sorry, know we've we've heard through other research that folks might buy multiple kits, one for themselves, and then maybe they'll send one to, like, brother in law or like friends and then do them together. Is that something that you see you and your wife trying?",Speaker 2,not-edited
00:33:42.900,00:34:11.469,00:00:28.569,"I can see that being super fun. Yeah. Yeah, especially right now. Well, first of all, I have siblings that live like ones in Minnesota, ones in Connecticut, right. So it could be super fun no matter what, to do it over, zoom in and hang out together. But especially during the times we're in right now, I could see that being like a really fun idea to get some friends together and all kind of do it.",Speaker 1,not-edited
00:34:12.440,00:34:20.209,00:00:07.769,"Cool. Well, Colin, those are those are all the questions we made wonderful time. Do you have any questions for me that I can answer for you?",Speaker 2,not-edited
00:34:21.710,00:34:43.340,00:00:21.630,"I don't think so. It sounds like it could be a really cool product or subscription. I don't know what I guess it would still be a product of, but yeah, it sounds like a good way to kind of encourage people to explore their taste buds.",Speaker 1,not-edited
00:34:44.969,00:34:51.929,00:00:06.960,"They're cool. Well, I'll pass along the positive feedback. Thank you so very much for your time. I can't thank you enough.",Speaker 2,not-edited
00:34:52.710,00:34:58.469,00:00:05.759,"Yeah, of course. No problem. Thank you for letting me schedule on Friday. Sorry I wasn't able to on Wednesday or Thursday.",Speaker 1,not-edited
00:34:58.530,00:35:03.929,00:00:05.399,"No, no, no, no. That's fine. Don't worry about it. Thank you. Have a good one. Have a good weekend.",Speaker 2,not-edited
00:35:04.510,00:35:05.199,00:00:00.689,"Thanks, Natalie.",Speaker 1,not-edited