In,Out,Duration,Text,Speaker,Status
00:00:00.300,00:00:10.409,00:00:10.109,"The record button, good, OK, first first couple of questions I would like to ask are, do you have any subscriptions?",Speaker 1,not-edited
00:00:13.880,00:01:08.129,00:00:54.249,"Yes, what are they sort of unavoidable at this point, just with even technology in general? Oh, dear. Does Amazon subscribe and save kind of subscription for certain things? OK, for, like face wash and stuff like that? So that's one. Vinyl me, please, the record subscription. Trade coffee as well. What are the ones? Mostly just be like technology based, like. Software is all now subscription based, so that's exciting. That might be",Speaker 2,not-edited
00:01:08.920,00:01:17.099,00:00:08.179,"OK. OK, can I ask, like vinyl mean please, for example, like, how long have you been subscribing to that?",Speaker 1,not-edited
00:01:19.150,00:01:22.949,00:00:03.799,Dear. Five years.,Speaker 2,not-edited
00:01:26.310,00:01:29.519,00:00:03.209,"So what can I ask what you what you get from that subscription,",Speaker 1,not-edited
00:01:30.520,00:02:13.889,00:00:43.369,"it's changed drastically over the years. Previously it was just a. There was a smaller company that was putting out a release a month, and you would normally just get that you'd have the option to swap for whatever else they were doing limited distribution for. But it has changed. Now it is a much larger company. It's three separate. Tracks you can take classic's hip hop or ethnic essentials, which is like their main one, which is like could be modern artists, could be Sister Rosetta Tharpe, like some really interesting solo record. And you can change it each month. And it's gotten. Much more extensive over the years to.",Speaker 2,not-edited
00:02:16.130,00:02:18.589,00:00:02.459,"So you just getting like a surprise Vinals,",Speaker 1,not-edited
00:02:19.430,00:02:48.039,00:00:28.609,"you know what, it is ahead of time in case you don't want it. Originally it was more of a surprise and it was more. I guess surprising artists, but now probably the only reason why I'm still with them is because they're getting they're doing like triple-A jazz releases. So they have the analog masters and they remastered and analog and then press it directly. So there's no digital and they get a lot of big names involved in that process. So that's why I'm sticking around with them.",Speaker 2,not-edited
00:02:49.100,00:02:55.849,00:00:06.749,Very cool answers when you get the vinyl's like what is there anything else that comes in the box or,Speaker 1,not-edited
00:02:56.720,00:03:18.379,00:00:21.659,"they that is also changing before part of the catchiness I think, was there would be a pick up, an art print that would accompany the music and then a cocktail recipe. Oh, OK, I never participated in, but I was like, that's neat, maybe for someone",Speaker 2,not-edited
00:03:19.920,00:03:23.839,00:00:03.919,and any subscriptions that you've canceled.,Speaker 1,not-edited
00:03:28.210,00:04:00.250,00:00:32.040,"Yeah, I mean, most of the the the the common like Netflix and. And not just the ones that weren't rewarding to me, Dollar Shave Club, I think I canceled that kind of I don't save that much cheaper. I think that Gillette similar similar topic, the Gillette subscription. I think it's a.",Speaker 2,not-edited
00:04:04.710,00:04:11.219,00:00:06.509,Any that you've heard of that you're interested in picked your interests.,Speaker 1,not-edited
00:04:24.680,00:05:27.459,00:01:02.779,"Not that I can think of at this point, I'm. Happily at this point, at a point where I thought something was interesting, I would do my research and commit to it. So there's nothing remotely like. Pending. If I found like a like a lock picking subscription where they send you a new lock every month, I'd probably do that. I don't think that exists, but maybe it should. And. I don't know, I mean, for most of the subscriptions, like I don't like to pay per month for things, and so it has to be something that I really get a lot of enjoyment out of for me to want to commit to that. Or like with the Amazon subscriptions, I find a lot of. Value and convenience, and they bolster it with the more things you get, the better discount you have. OK, Amazon does. Uh. I guess Amazon Prime would be a subscription to that I have Amazon. I can't think of one.",Speaker 2,not-edited
00:05:28.660,00:06:30.139,00:01:01.479,"OK, OK, um, all right, let's jump let's jump into it. So I'm going to share my screen to show you this idea, but before I then it's you know, it's a concept for now. And the more honest you can be around, like, what makes sense, what you love, what you hate, what's confusing really makes this is going to help us out a lot. So don't don't pull back, OK? All right. So here it is. It's it's just like a summary. It's called Cho's Taste Chasers Club. And we're thinking it's a limited edition, a limited release subscription kids. And it explores flavors inside and outside chocolate. And it's a quarter every quarter you're going to dove into a new flavor theme with education products and experiments, initial reactions.",Speaker 1,not-edited
00:06:31.660,00:06:49.589,00:00:17.929,"It's initially it sounds pretty awesome. It's much more involved than just just chocolate. It's not like just a product. It's an experience that seems like I wouldn't immediately be like and close the window or whatever, delete the email. I'd be like, OK. Piqued my interest.",Speaker 2,not-edited
00:06:52.030,00:07:02.110,00:00:10.080,Perfect. So you've talked about it a bit. So what would it be? What would you imagine could be in the box based on this?,Speaker 1,not-edited
00:07:04.240,00:07:42.250,00:00:38.010,"I would go through each one of dimensions, education. I feel kind of like we talked about before with I think with chocolate, but definitely with coffee. Is education about maybe what the theme may be or where the beans are from or what the process is just about the product itself. So people that are hopefully more interested in subscribing to a chocolate subscription would. Just be more knowledgeable about what they have and the products, I mean, whether it's just the chocolate or whatever else that. Comes with an experiment. I don't know, but that sounds exciting. I like that word.",Speaker 2,not-edited
00:07:43.110,00:08:14.759,00:00:31.649,"Cool, cool, cool, cool. All right. So high level the that the club will include the kit that arrives in the mail at your doorstep, but will also have online content that goes along with it, will offer live events that complement the box, virtual events as well as a closed group. So I'll go into into detail on all of these things. But bird's eye view, initial initial reactions.",Speaker 1,not-edited
00:08:15.360,00:09:22.659,00:01:07.299,"Yeah, I think. For me, I get a lot more value out of something like that because it's. More of an experience and not just kind of like a particularly with food, just like a throw away thing like chocolate. OK. Me, please, those anthologies, and they include a podcast, they include similarily, like I like exclusive chat group. I don't really participate in those just because. And I listen to the podcast, but I don't do the chat group, that's not really my style, but if it was something like chocolate, I feel like they'd be a little bit easier than chatting with a bunch of people about. Some weird funk records. And clearly, I think it's a good it's a more digestible. Frequency, I think for me, particularly once a month, can get. A lot, depending on if there are multiple tiers of. Stuff that you're getting. OK.",Speaker 2,not-edited
00:09:23.900,00:10:12.199,00:00:48.299,"So let's unbox one one example, the first theme we're thinking is the botanicals kit, so it's all going to be centered around how Mother Nature grows some down to earth flavors. OK, so it's a big box. I'm going to I'm going to unbox it in three parts. The first part is flowering. So we'll talk about the science behind flowering, where the flavors coming from will give you four examples. So fennel pollen stanis, each will come with an info card that tells you more about it. But we also have a make or series bar that includes botanical ingredients as well. Any initial reactions?",Speaker 1,not-edited
00:10:12.670,00:10:58.899,00:00:46.229,"Yeah, I love the make or series, I enjoy that greatly. So it's cool that it's included in this kit and to be an incentive for the people that. Maybe have already enjoyed that. I do like that it's not just chocolate. That's really. Intriguing that it's truly a whole experience and I don't have it, I don't know the tie in with the actual. Botanicals yet, but that is not something that you can utilize outside of just. The Shoket experience, something that can spill into the rest of your life. Yeah, I do. I really like that. I think that's. It has more. Staying power, I guess.",Speaker 2,not-edited
00:11:00.900,00:11:34.899,00:00:33.999,"OK, so let's let's keep on boxing this thing, so the second part of this box underneath all of that is the botanical cocktail's. So we'll include this limited edition chocolate bitters that Cho's made a couple of cocktail glasses and we'll talk about how you can take those ingredients and create a botanical cocktail. And there's two ways we'll do that. They'll be like a recipe card. But there also is going to be this experiment guide sheet so you can play around and try different things yourself.",Speaker 1,not-edited
00:11:35.740,00:12:46.890,00:01:11.150,"That's OK. I, I, I do remember another subscription that I used to do with Birchbox. I used to do like the bit similar to this. It had like the glasses. It's not just. Like chocolate or the product or even just all food related things or food, food items, it's things that you'll have and that will remind you of. That company or that that product originally where you got it. So I do I really enjoy that. And I would imagine that each. Box would have a different thing, like you're not going to end up with 20 like cocktail glasses, I would imagine. Right. Or maybe I wouldn't be the worst thing. And I do like the experiments because that's similar to the chill chocolate tasting kit that I got for a very long time ago with a. And it's not just like, here's your chocolate, eat it whenever you would normally eat it, it's a it's an investment of appreciating what was created. So I really, really like that.",Speaker 2,not-edited
00:12:49.320,00:13:20.200,00:00:30.880,"Cool. Last part of the box, let's keep going, is the do it yourself chocolate bitters so you'll get cocoa nibs. We can't send grain alcohol, but you buy that and then you infuse your own chocolate bitters, plus it up with some of the botanicals. And we'll provide you these glass bottles where you can bottle it up, maybe give to friends, keep it all yourself, but you get all the steps for for doing this at home.",Speaker 1,not-edited
00:13:21.320,00:14:03.029,00:00:41.709,"That's awesome. I mean, I am a target audience for that because I love food product and making it and giving it away or selling it. I can't sell this, but yeah, I have a lot of bidders that I've made already. And I don't know if each each box would have each box would have like a bitters or something that you would do or what the theme would be, but. This one box in itself, I think, is really well rounded, that has. Finally, something for everyone, but like you can't you're not going to be done with it in a day, right? There's all these different things you can plan out and be like, oh, man, we've got to do that this weekend and have people over.",Speaker 2,not-edited
00:14:05.240,00:14:22.239,00:00:16.999,"Yeah. Cool, so that's interesting that you you already make your own bitters, you're familiar with that, is that having this kit, is that does it make it more appealing, less appealing, or does it affect you at all",Speaker 1,not-edited
00:14:22.670,00:15:30.110,00:01:07.440,"more just because it's something that, I mean, doesn't come up too often? But I enjoy it, I got a. There's a mesquite fest that is normally occurs in Austin, where they have some local companies that focus on Mesquite as a flavor because it's not really prominent out here and they included Mesquite and Seattle. There's a total company out here like a. Similar tequila, but it's a different plant that we have, they they included everything to make mesquite bitters, so. And for that as well, but it's it's again, one of those things that I think increases the longevity of the experience, because bitters is not something that I don't go through very quickly, but that I have and I can use not just in cocktails, but in ice creams. When I make whipped cream, you can do a whole lot with with bitters, so to speak, to me.",Speaker 2,not-edited
00:15:30.980,00:15:50.289,00:00:19.309,"All right. Well, I wish to tap into you for ideas on how to use bitters outside of cocktails. All right. So that's the that's the box. This is an overview. Now that you see it all at once. What do you loving, what do you hating?",Speaker 1,not-edited
00:15:52.950,00:16:43.200,00:00:50.250,"I like the balance a lot that it's so many things, but it's also quarterly. I think that's a good a good spread from what you get and again, keep it. Being something that I would look forward to and be also, again, you don't you're not done with it in a week like you keep participating with all the things that came with it and the glasses and like, you can reuse everything, which is really cool. So, yeah, it's not just like. It's like getting chocolate, being like, oh, that can wait till I get more next quarter. Yeah, I could see a lot of value in this for for for me and for people that are interested in food and flavor and. No need to put",Speaker 2,not-edited
00:16:43.970,00:16:46.190,00:00:02.220,"anything, anything that you could do without",Speaker 1,not-edited
00:16:46.800,00:16:56.369,00:00:09.569,"you could. No, I mean, I I'm pretty easygoing, so I think it's all pretty great.",Speaker 2,not-edited
00:16:57.150,00:17:38.669,00:00:41.519,"OK, so let's move on to the digital part of this experience. So the first bit is you always get cards in your box, so all the content is available immediately, but you can find all of that information online and some cases there'll be a video to go alongside it and kind of enrich, enrich the content. And we're also thinking of including a comment section where you could ask a question, maybe share your idea, Cho might pop in and weigh in or whatnot. Would how would you use any of this stuff, if at all?",Speaker 1,not-edited
00:17:40.050,00:18:47.680,00:01:07.630,"Yeah, if it's a. When it comes to Internet comment, it's can go either way, but I feel like this is like an exclusive to this than I could see that there would be value in it. Again, something like this, like, oh, I used a different better's or I did this with that and people could share. And there's a lot of more value in that. I find that. It's not it becomes more than what. Joe intended originally, it's a it's becomes a kind of a community thing, which is really neat, and if this kind of content with a message board or comments was there each quarter, like I remember you from last time, you tell me about the cocktail. That was really great. I enjoyed it. Thanks. I think the comments would be good, particularly if they're like exclusive to this experience. And it helps that everything is digital since. Everything's everything is now anyway. And if you lose the card or whatever and you have to worry about it. So, OK.",Speaker 2,not-edited
00:18:48.720,00:18:52.559,00:00:03.839,"What would you gravitate more to, like one format over the other,",Speaker 1,not-edited
00:18:57.390,00:20:01.609,00:01:04.219,"something like a cocktail recipe, as I probably just look at it once and I may never use it again like that. That's how I was with the bonhomie, please, and even the the the Mesquite Festival, they had a cocktail and I made it once and I was like, man, I don't really make cocktails at home myself. Particularly now, because it's like no one can't have people over, so but obviously if this were not a pandemic, I'd be like, that's really neat. Yeah, I would I would like to have the physical copy and maybe just give it to someone who came over that night to try it. Like here you can take this with you. I have the digital version, so I. As someone that likes. Records, obviously, the physical experience of it, I feel there's a lot of value to that. Particularly because if you're opening a box, you're hopefully not on your computer as well, like you're just focusing on that and not distracted. So I think I think both options are good.",Speaker 2,not-edited
00:20:02.180,00:20:42.650,00:00:40.470,"OK, so we're also thinking about virtual events, live ones in the picture here is Cho's had chocolate maker Brad. Really cool guy, knows a whole lot about not even just chocolate, but just a whole lot of things. And in this live event, he'd have special guests. They could really nerd out, go deep. And I would always compliment the stuff in your box. And if you missed the live event, you'll have a recording that you can tap into later. Does this seem like something you would be interested in?",Speaker 1,not-edited
00:20:43.850,00:20:48.829,00:00:04.979,"Yeah, I it would just be one per per quarter, right?",Speaker 2,not-edited
00:20:49.750,00:20:51.140,00:00:01.390,"So far, yeah. Yeah.",Speaker 1,not-edited
00:20:53.820,00:21:36.160,00:00:42.340,"Yeah, I think it would be neat because, again, if it's if it depending on how it's presented, if you're able to have comments and they talk to other people and ask questions would be a big piece of that. Similar again, to bring it up again, the Mesquite Festival had, like live where they do things with honey making your own chocolate and. Making the cocktail and who else was there, a sweet flower that was nice to have multiple people. Talking about their products and obviously in this case would be Brad, but yeah, I would I would participate in that.",Speaker 2,not-edited
00:21:37.460,00:21:42.049,00:00:04.589,"Quick question, the mesquite, first of all, is that virtual?",Speaker 1,not-edited
00:21:43.290,00:22:16.259,00:00:32.969,"This year, yes, I had to go pick up a pick up the box of all the goodies, but the that it's normally like. The year prior, it was held at the distillery, the so-called distillery, and they had vendors and everyone was there and it was. Different, obviously, this one is all through zom. It was not any of their forte's to put it all together, so it's a bit of a bumpy ride, but that's fine fun. OK.",Speaker 2,not-edited
00:22:17.320,00:22:49.440,00:00:32.120,"The last bit is the closed slacker, so you buy the kid, it gets it sounds like the chat group on vinyl, the vinyl me please, but this would be on slack. You'll be a bunch of different channels. You can share your recipes that you've done or pictures. You can ask questions or maybe even give them feedback for their next make or series. What do you think about this?",Speaker 1,not-edited
00:22:51.530,00:23:52.250,00:01:00.720,"I like the idea I spend most of my day in slack, so I would probably have a little bit of hesitancy because I try to not look at it during all my time, but I end up doing so. And also I like. What this could offer, but I feel like a lot of it just depends on the community and the response of. Like it's. If you build it, they will come type scenario because everybody can participate and be. Doing worthwhile things. So, yes, I do think that it would be. It'd be neat, particularly with the different channels and. Kind of like with the comments for the the live video as well, being able to share and suggestions or different takeaways and also suggesting that what we're following quarters could be about. Yes, seven out of ten for them.",Speaker 2,not-edited
00:23:54.940,00:24:06.140,00:00:11.200,"OK, I like that. OK, so that's oh, one quick question. Would it change if this were on Facebook group versus slack for you?",Speaker 1,not-edited
00:24:07.880,00:24:12.260,00:00:04.380,"Yes, I'd probably be much more steadfast in saying no.",Speaker 2,not-edited
00:24:14.600,00:24:36.739,00:00:22.139,"OK, got it. All right, so you've seen all of it in pieces. Let's show you the price. So all of it we're thinking the kids, all the digital components would be a hundred and twenty five dollars per kids. So that's per quarter. Thoughts on this price.",Speaker 1,not-edited
00:24:37.700,00:24:58.749,00:00:21.049,"I mean, with even just all the physical items itself, it kind of makes sense because it's a lot of different things on which is good, plus all the other content. It's. Would there be a discount if it's done like an annual commitment?",Speaker 2,not-edited
00:25:02.120,00:25:02.930,00:00:00.810,I would hope so.,Speaker 1,not-edited
00:25:03.800,00:25:40.890,00:00:37.090,"Theoretically, if there was an annual, there'd be much more enticing because. That's a lot for what it's worth. That would probably be an item in the category that we talked about, but I want to put things in me like I don't. Yeah. Probably, maybe let me think about that. Yeah, but taking the tour and seeing everything that's included, I'd be much more inclined to to to to commit to that. Particularly if there's a second option.",Speaker 2,not-edited
00:25:45.190,00:25:52.229,00:00:07.039,"Before I got to the slide and you were seeing all the pieces, was there a media price that was floating around in your head?",Speaker 1,not-edited
00:25:53.020,00:25:58.239,00:00:05.219,"It was probably right around there, like I was thinking a hundred bucks. This kind of makes sense.",Speaker 2,not-edited
00:26:00.660,00:26:05.160,00:00:04.500,"OK, how much is Minobe, please? Every month.",Speaker 1,not-edited
00:26:09.420,00:26:34.049,00:00:24.629,"The price just rose, so I think it's forty four dollars a month. 40, I don't know, they they offered they offered me like. Longtime member discount. And if they didn't, I probably would have been a harder decision to even commit to that because I think it's four hundred dollars a year. Is a lot. Donna.",Speaker 2,not-edited
00:26:35.040,00:27:06.089,00:00:31.049,"OK, so what if this so the box that I showed you came in three parts, it was like a big box, right? What if we sold it like this where you would get the ingredients in the cocktail part of it in one, and you could add on the bitters for like an extra, let's say, forty dollars. This is does this make it interesting to you? Is it like it doesn't matter. It's like kind of just as appealing or",Speaker 1,not-edited
00:27:07.920,00:27:45.109,00:00:37.189,"since I saw the whole thing at first, I feel like this kind of cheapens all the. Like curation that went into it because for me, I feel like if we're going to do it, like do it, just print the whole thing. Yeah, I probably. If it were if there were add on pieces, I would probably be less inclined like this particular one, I'd be like, well, I had to do my own business. I just I won't do that one. Even though if we're included in the main box, if I saw bidders, I'd be excited about it.",Speaker 2,not-edited
00:27:47.390,00:27:48.109,00:00:00.719,Interesting.,Speaker 1,not-edited
00:27:48.530,00:27:48.890,00:00:00.360,Yeah.,Speaker 2,not-edited
00:27:52.000,00:28:06.999,00:00:14.999,"All right, what if what if it were a monthly box, so like you, one was about botanicals and January you got flowering ingredients, February cocktails and March the bitters.",Speaker 1,not-edited
00:28:09.220,00:29:09.880,00:01:00.660,"No. Yeah, I mean, I probably still. Do the quarterly one, I think. I don't know it it's it's. As someone that gets a lot of records and things delivered, is that I think it's much more exciting to get like that big box and be like, Wow. Take all the videos of kids at Christmas getting like their Super Nintendo or whatever it is. This I. I like, but I don't know the way that the. The way that I was walking through it, again, I feel like this takes away from the curation of the debate, it's all the same things. It's not that I feel like you lose some of the cohesion that was built upon, like the theme itself.",Speaker 2,not-edited
00:29:11.700,00:29:53.589,00:00:41.889,"OK. It's all good information, thank you very much, next section, so we talked about the experiments being a big part of this, the one I want to go deeper into, the one that came with the cocktail's. So we don't want to just give recipes to memorize because like you said, you might just throw it away. But what you want to focus on is like how do you explore your own combinations? So imagine this paper like folds out on your computer and it takes you step by step on just trying different combos and restaurant and recipes yourself. What do you think about this as an experiment?",Speaker 1,not-edited
00:29:54.490,00:30:53.089,00:00:58.599,"Awesome, like that's the the physical aspect of it, I appreciate that it's not just like a. Like a website you go to. It's a write down you get to yeah, this seems more it's like the gamification of, in this case, alcohol, but it's much more participatory. And yeah, this is something that I would I think is really neat. Again, it looks like it's. There's a lot more that went into it than just like you said, just here's this recipe. Enjoy it. Have a good time. This is what you get to create. You get to take these pieces that we've given you and you get to make what you like, what's best for you. So I feel like that gives each individual that gets this a more rewarding experience because the cocktail that's on the card. Right. Some of them like, oh, I didn't really like that. But with this, they'd be like, oh, I can make something that I like.",Speaker 2,not-edited
00:30:54.780,00:31:20.310,00:00:25.530,"Cool. All right. Another experiment idea that we had is Make Your Own Maker series bar, where we give you big baking soda to melt temper. The chocolate will give some some molds, chocolate molds. And yet it's similar to the other experiment where you just try different combinations and see what what's good for you.",Speaker 1,not-edited
00:31:22.040,00:31:26.029,00:00:03.989,"That's. Yeah, I.",Unidentified,not-edited
00:31:27.520,00:32:49.779,00:01:22.259,"Less exciting for me. I like the. I don't know if. There is a chocolatier here that I've gone through his classes many times and you get to do the same thing where you do the bean, the bar experience and the small level and then add fixin's or whatever you like, but. I don't know what it when it came to adding things to it. I just I just want to I just want to have the thing like I want to appreciate. How it was and that's kind of how I am with me or with other flavored things, is that I do like see the maker bars because it's. It's it's not my choice, like, I didn't get to put too much or too little of something, it's just someone that. Had an idea, made it into me when I have the make or series that I've had, they're all very. Well, Daoust, I guess we'll say they're. They're they're crafted with this, I think it's fun, right, like if I had people that would be like everybody, we can make our own truck pass. I don't know when I get chocolate. I want to be able to like. Taste where it's where it's from, similar to like honey and all that stuff, like don't flavor my honey, get out of it just. Let me taste the beans.",Speaker 2,not-edited
00:32:52.100,00:33:11.000,00:00:18.900,"So when I start when I popped onto the slide, I thought you looked really excited, and then when I started to explain it some more, you seemed less interested. Like, where did it? Like, what were you imagining? And then, like, we're like, where did I lose you?",Speaker 1,not-edited
00:33:11.600,00:33:27.320,00:00:15.720,"I think it was the the recognition of the Maker series and how much I've enjoyed that in the past. And I was like, oh, that looks like you could make your own, but it would not be that because, you know, to think that was it, it was kind of like a brand recognition thing where I was like, oh, microspheres.",Speaker 2,not-edited
00:33:30.350,00:33:56.719,00:00:26.369,"Yeah, totally fair. Let me ask one hypothetical, what you see here are like full sized chocolate bars. What if the experiment was making little bite sizes? So you're not like committing to a whole bar, but you're you're you're now experimenting with just despites. So change it for you.",Speaker 1,not-edited
00:33:58.390,00:34:23.790,00:00:25.400,"I would I'd be less angry about it. Yes, I think I still have some of the ones that I made before and they are like smaller little pieces, but. Yeah, I don't know. That's just not my thing. I feel like people that do like chocolate, that has nuts or goji berries, pistachios, whatever those are that they. I appreciate it, but it's not for me.",Speaker 2,not-edited
00:34:25.250,00:35:41.800,00:01:16.550,"OK, OK, this is this is this is good information. Thank you. Last last one is other kids that we're thinking of, other quarters we did botanicals, but we're also thinking about beer and chocolate. So we can't send you beer. But the kit will include hops and malts and all and all the information for you to really learn how brewing changes flavor. It also include a bunch of chocolate. You can do a beer and chocolate tasting together to see how they affect the flavors. And then the experiment is a make your own Dove Bar snack dove. I never say this Dove Bar Snack bar. I think maybe the next one is coffee and chocolate. So, you know, they're being brothers. There's a lot of overlap, but there's a lot of differences. We'll talk about origin, we'll talk about fermentation. We'll experiment how they go together, how they complement one another. And then you would make your own barista chocolate bar. Reactions to these two new themes.",Speaker 1,not-edited
00:35:42.500,00:36:48.739,00:01:06.239,"Yeah, I mean, I think these are cool cause I'm interested in all of these things. I think it's neat as well, because someone that. Where to subscribe to this, to get chocolate. They like chocolate ever may, is that this may spark new passions for them, like beer making or whatever it may be. So I do appreciate that. And that makes me feel like that. Quarterly cost, I think, would be much more. Worth it to me, also seeing the differences of what can be offered the. Copy one same thing. You know how I feel about the do it yourself chocolate bars. I'm like, OK. I would be interested to see. How many of these themes can be discovered, and that's interesting to see where this would go, really? I think that's like if those were the three that were lined up, I'd probably be like, yeah, I'll try to.",Speaker 2,not-edited
00:36:50.270,00:36:55.369,00:00:05.099,"Cool, if you could rank these in order of preference.",Speaker 1,not-edited
00:36:57.030,00:38:03.340,00:01:06.310,"Oh, dear, botanicals would be number one. I think it's a. I don't know, it's much more unique, I think. I don't think that that's. Like, if someone showed me the other two kids, I would be like someone may have done that already, but this would be. The whole experience with online, all the other pieces of botanicals, one of my cats, that's really neat. OK, so no one. Well, I mean. I feel like the other two are kind of. Tied for second, really, I feel I feel they're both very similar. It's not a bad thing, like maybe a. There were ones that were like that, like beer, coffee, tea, like the other ones that you would put in those categories, if they're spread out like a botanicals was in between those. Keep it exciting. Yeah, Botanicas, number one, the other two. Tied for second.",Speaker 2,not-edited
00:38:05.130,00:38:17.429,00:00:12.299,So that's really interesting. Let me dig into that a little bit. So you you said beer and chocolate are like similar to you in your mind. Is it because of what's in the kit or is it because of the topic itself?,Speaker 1,not-edited
00:38:18.810,00:39:47.289,00:01:28.479,"I feel the topic itself because botanicals is I mean, it's just so much more. Space to go with that and obviously, I don't know what the beer or the coffee cups look like, but particularly with coffee, because there's a wide range of flavor profiles that you can get. But I don't think you can go very deep, you know, just being like. It goes deep. You can take a brisk walk through the world with beer as well, it's. I don't know, I feel like. Like, so with the the beer and chocolate in the middle of the included ingredients, if you will, from what I would imagine specifically for the chocolate bar for like the Dove Bar snacks and then the that I can't I can identify what those two are for the coffee one, but with the botanicals, like each of those flavor profiles with the fennel pollen and the star anise are so different. See, I feel like the. Botanicals is just it's a. It's a more broad or more. In depth experience, like you can travel farther with your with your with your flavor.",Speaker 2,not-edited
00:39:50.260,00:40:17.750,00:00:27.490,"Yeah. So what if thinking on the fly here were like Ursy? I don't I don't I have no idea with it, like maybe we would give you different ingredients that exemplify an earthy flavor. What does that maybe sage mushrooms think that.",Speaker 1,not-edited
00:40:19.580,00:40:42.750,00:00:23.170,"Yeah, I mean that. That is a make or bar that I've had the mommy, one that was really good. The. Yes, I feel like there's. It's less pigeonholed, I guess, is what I would say. It's more exciting to me.",Speaker 2,not-edited
00:40:44.110,00:41:03.780,00:00:19.670,"OK, and then one more hypothetical is like if we did maybe like a single ingredient or like an ingredient family such as like salt or peppercorn, what if we showed you, like, all the different varieties? And go really go deep on one thing.",Speaker 1,not-edited
00:41:04.810,00:42:19.040,00:01:14.230,"I mean, yeah, that's that's my jam when it comes to something that I'm interested in, passionate about, I like to. Go the distance, and particularly with I mean, with with all these things, like if you did peppercorns, you could incorporate the history of what it looks like, particularly with how humans interacted with peppercorns and why they are where they are now. Insult thing that I think that those. Those are something that I would also think, even though it's not like botanicals, where it has very different flavors. Those are interesting concepts that that even me that has like tons of different types of salt, I'd still be like me even if I had them all, I'd get to learn more about it and incorporate it with chocolate, which maybe I haven't done in someone that maybe. Again, doesn't have that many types of salt, it gives them a whole new thing to experiment with. I think. If if one of those were to replace. The beer or coffee, that would be my number two.",Speaker 2,not-edited
00:42:21.680,00:42:46.580,00:00:24.900,"OK, very cool. All right, David, that's that's it for me in terms of slides. Actually, one question I forgot to ask is if you were to buy this kit, like, how would you use it? Is it something you would do alone? You know, would you gifted? Is it something you would do with friends? Like what's what's most likely for you?",Speaker 1,not-edited
00:42:50.000,00:43:57.059,00:01:07.059,"Definitely with friends, I feel like every one of those pieces, but like the online, maybe even the live video. Even the trapped bear, most of us thing like the with the botanicals one, for instance, the make your own cocktail sheet, I would definitely try to have dinner with friends and the bitters. I probably just do all myself because I enjoy that as a passion. But then I'd probably just, like, give them away or. To save them, to have with friends, so, yeah, I think that's one of the things that I really enjoyed about the Quarterly's you get all of us at once. So in my head, I can be like, oh, I've got all these things, maybe in two weeks I'll have everybody ready for this. And I feel like. I don't know. To me, for some reason, I don't know why it seems like that's easier to. Plan. I don't know why, but it's more enticing to me for whatever reason.",Speaker 2,not-edited
00:43:58.530,00:44:10.559,00:00:12.029,"Don't have to know why, but knowing what you like is very helpful. Thank you very much for your time. Do you have any questions? I'm happy to answer anything that.",Speaker 1,not-edited
00:44:12.780,00:44:26.359,00:00:13.579,"No, I mean, that that is not anything that I would have expected when I was asking, what is all this introductory information that I'm giving? What is it for? Yeah, that's. That's a cool idea,",Speaker 2,not-edited
00:44:26.970,00:44:30.389,00:00:03.419,"cool, do you think? Have you ever seen anything similar to it before?",Speaker 1,not-edited
00:44:34.920,00:46:18.130,00:01:43.210,"I don't think so there there are more specialized. Less involved ones like one of the mysteries in Arizona has transcription club, but you like just you just get bottles of meat, which isn't a bad thing at all, but it's also incredibly expensive because it's made in the tiny. So, yeah, nothing. Besides, so that finally, please does anthologies like a boxset, and that's Renea, because they don't include a podcast for all the different things or. Anything really involved, like the online chat with these anthologies, it's like a whole experience. Originally they were trying to ship them out. Like three records a week for ten records or whatever, maybe. That's it's very similar to that and that I enjoy, even though some of those anthologies are like. A lot of money, but it's the. Even though no offense to Joe, it's a large, very, very large company that is kind of. Face, listen, it comes with the territory, I guess, some chocolate, but it. Who I am as a consumer, it shows me that they they have passionate people that want to put something together for the people that enjoy their brand, not just have something on a shelf that people buy. They want to they want to participate with the people that enjoy their products. So I've seen things similar, but. I am impressed by what that looks like.",Speaker 2,not-edited
00:46:19.250,00:46:27.510,00:00:08.260,Cool. That's that's really good to hear. That's definitely a goal. So I'm glad that we seem to be on the right track.,Speaker 1,not-edited
00:46:27.990,00:46:28.639,00:00:00.649,"Yeah, sure.",Speaker 2,not-edited
00:46:29.510,00:46:53.960,00:00:24.450,"Well, I thank you again. Let me follow up with you over email about the gift card. Actually, I want to ask you, do you want an Amex gift card again? Or I can also give you 50 dollars off 50 gift card. You can think about it and email me and I'll just e-mail you anyway. OK, deal. OK, OK, I'll take care. Have a good, good one.",Speaker 1,not-edited