In,Out,Duration,Text,Speaker,Status
00:00:00.060,00:00:13.999,00:00:13.939,"Right here, I want to record. Awesome. So we'll just start off pretty simple, if you could tell me your age, your name, age and where you live.",Speaker 1,not-edited
00:00:14.750,00:00:22.310,00:00:07.560,"OK, I'm Gabriella. I'm forty one and I live in Kendall Park, New Jersey, which is very close to Princeton.",Speaker 2,not-edited
00:00:23.610,00:00:30.449,00:00:06.839,Excellent. And what does your household look like? Do you live with family pets?,Speaker 1,not-edited
00:00:30.480,00:00:51.539,00:00:21.059,"Yes, I have. I live with my husband, so and we have three daughters. They're 14, 10 and seven and two puppies that we just got this past year with the craziness. The kids were along. They wanted the puppy. And I ended up getting to know. One, two.",Speaker 2,not-edited
00:00:52.900,00:00:59.199,00:00:06.299,"Well, congratulations. Thank you. And what type of work do you do for a living?",Speaker 1,not-edited
00:01:00.610,00:01:34.480,00:00:33.870,"We own a restaurant and it's an Italian restaurant. As you can tell, I have an accent and I my husband is mainly working there. You know, I go there when he needs me. I take care of the kids mostly because they've been home since March 20, 20. They never went back to school. So I had to stay home and I didn't even especially for the seven year old, stayed in school from home. And I needed to be here. But when then when he needed me, I tried to go.",Speaker 2,not-edited
00:01:35.900,00:01:38.359,00:00:02.459,Awesome. How long have you had your restaurant for?,Speaker 1,not-edited
00:01:39.770,00:01:40.940,00:00:01.170,About 13 years.,Speaker 2,not-edited
00:01:41.780,00:01:43.459,00:00:01.679,Congratulations. It's not easy,Speaker 1,not-edited
00:01:43.850,00:01:49.790,00:00:05.940,"now, especially in this year was very tough. If we survive this year, we're good.",Speaker 2,not-edited
00:01:50.750,00:01:52.010,00:00:01.260,"Well, I wish you luck.",Speaker 1,not-edited
00:01:52.310,00:01:52.909,00:00:00.599,Thank you.,Speaker 2,not-edited
00:01:53.970,00:01:59.069,00:00:05.099,Can I ask what motivated you and your husband to go into the restaurant industry,Speaker 1,not-edited
00:02:01.500,00:02:41.979,00:00:40.479,"since I moved to the U.S. about 20 years ago? I always worked in restaurants, my family, relatives restaurant. So I used to work for them. And my husband, he was born here, but he. EOL was you went to school as a master in chemistry and biology, but you always grew up in the restaurant business with his father, used to have a catering hall. So I was always in this interested to cook and learn and things like that. So I was definitely something that always. Infatuated and and that's what he wanted to do, and that's it up in.",Speaker 2,not-edited
00:02:43.250,00:02:49.490,00:00:06.240,"Right, and so 13 years, it sounds like there's something you enjoy about running a restaurant.",Speaker 1,not-edited
00:02:49.790,00:03:05.800,00:00:16.010,"Well, it's very difficult. It's very like career never off as somebody doesn't show up to go in. It's but of right now, he has a cruel tongue. So it's taking a couple of days off a week. So it's good.",Speaker 2,not-edited
00:03:06.890,00:03:13.250,00:00:06.360,Awesome. And you said you're in New Jersey right now. Can you describe what your neighborhood is like?,Speaker 1,not-edited
00:03:14.480,00:03:58.520,00:00:44.040,"We're in a suburban, so I like covering this small town like 40 minutes from New York, so it's not that, you know, we're so close to the city, but like more private, I have a lot of neighbors around, but they're big backyard that we enjoy. Now my girls are outside. Using the pool and stuff and everything is like we have the school very close to the house, so they have a lot of friends around here, we go to community pool, which is also across the street. So it's like very everything is close by and. Yes, it's good.",Speaker 2,not-edited
00:04:00.600,00:04:08.789,00:00:08.189,"I mean, you described it a little bit, but what made you pick this part of New Jersey to begin to live in?",Speaker 1,not-edited
00:04:10.110,00:04:30.529,00:00:20.419,"Well, my husband's family lives like walking distance. So that's why we live here for me, you know, I left my own time, so for me anywhere is good. I don't really mind, but, yeah, I wanted to stay close to his family, which we never see anyway, so it's OK.",Speaker 2,not-edited
00:04:32.150,00:04:38.470,00:00:06.320,"But, um, so you said you lived in the US for about 20 years. What inspired you to move over here?",Speaker 1,not-edited
00:04:41.080,00:05:45.130,00:01:04.050,"I was from I'm from the small town, it's very tiny, everybody knows each other. It was like, well, financial developed like people graduating there and they still didn't find work and stuff. So I had the opportunity to get the green card to my uncle who used to live here I year and with my dad and stuff. So we got the green card and I came here for vacation while we were getting the green card. And I enjoy it. I like that. I like the fact that there is this big space is the fact that everybody's independent. The roads that are so big know I was always scared to drive in Italy because, you know, the roads are very tiny. So, yeah, everything is big here. The financial and the economies. I mean, beside this year, that was a little bit of everything. But overall, it's there are more opportunities here.",Speaker 2,not-edited
00:05:46.840,00:05:54.760,00:00:07.920,"Got it, got it, and I think you mentioned in your survey that you studied in college, what was what was your degree?",Speaker 1,not-edited
00:05:56.410,00:06:06.849,00:00:10.439,"I started off with the classes and I came here, I didn't know any English, so I studied with them and then overall I finished them and I have a degree in the Spanish.",Speaker 2,not-edited
00:06:08.050,00:06:21.160,00:00:13.110,"Oh, so you're multilingual, amazing, yes, awesome. Well, good for you. I wish I understand. Can you tell me a little bit about personal hobbies that you have?",Speaker 1,not-edited
00:06:23.860,00:07:10.869,00:00:47.009,"I love to bake, I love to cook. I also love to work out the kinks with my girls, go to the mall shopping, shopping online, shopping to the store. This morning, we went to the mall with the girls and it's nice and cool in the mall. So, yeah, I love doing art. Every now and then we do these paintings with my girls. That's something we don't like manicure here. We like a lot to do during this year. We bought a lot of equipment of nails, painting, baking, all these things. And I took the time, spent the time together and have fun.",Speaker 2,not-edited
00:07:12.370,00:07:22.329,00:00:09.959,So these hobbies sound like things that you can do with your children and family. Are other other things that attracts you to baking and art and shopping.,Speaker 1,not-edited
00:07:27.230,00:08:03.740,00:00:36.510,"We just learned we just got an RV like camping and just, you know, because with the puppies, it was hard to find hotels. And I really do want to go to a hotel. So we just learned that we like going to this campsite and then go to the beach. We might affect we're leaving tomorrow to go to Cape May. And it's something that I like. I like to be in the outdoors lately more than I used to be doing the outdoor and doing exclusion and stuff.",Speaker 2,not-edited
00:08:04.670,00:08:17.149,00:00:12.479,"Yeah, that sounds wonderful, so I get a sense of what your life is like, but can you tell me what is like what's important to you in life? Like what's number one, what's a good life?",Speaker 1,not-edited
00:08:18.800,00:09:21.570,00:01:02.770,"Well, my main thing is my kids, like, I do everything for them. They are like the reason my life, if I see them happy, I am happy. So it's like trying to do a lot of things and not be bored. When I hear more from them, it's getting like I feel like I'm failing. So I like to do different things. I love to travel. That's like I hate to be at the same place all the time, to be like doing the same things over and over. So for me, it's important to find the new things and explore and. Good. My family's important, like I have my parents in Italy, and I wish this year they're opening up, but still very concerned. And so that's something important. I'm fortunate enough to go to see my friends actually next year.",Speaker 2,not-edited
00:09:23.560,00:09:35.109,00:00:11.549,"Well, fingers crossed, so on the flip side, maybe what are things that worry you about life, like what keeps you up at night or what are your biggest concerns?",Speaker 1,not-edited
00:09:36.640,00:10:09.090,00:00:32.450,"Well, with covid and all the consequences, that became very scary for, like, not just covered everything, like even like if my daughter say I have a dick, I always worry and think that things like I'm a little pessimistic. So that's something that scares me a lot about being trying to be healthy, eating well and things like that to avoid any cancer or things like that.",Speaker 2,not-edited
00:10:10.560,00:10:16.320,00:00:05.760,"And before covid, was there other things that concerned you?",Speaker 1,not-edited
00:10:19.580,00:10:58.469,00:00:38.889,"Also scared that even with all the expenses we have and things like that on. And I cannot for things like my girls like now to do dance, dance, dance competition, they were stuck for this year, but eventually they're going to restart and know one thing. Society can afford things and say not your kids is not something they want to do. So that was something to scare me even before covid. Yes. Being like on top of things and try to afford everything. Mm hmm.",Speaker 2,not-edited
00:10:59.830,00:11:07.880,00:00:08.050,"OK, OK, one last question and we're going to move on to our next section. But what does sustainability mean to you in life?",Speaker 1,not-edited
00:11:09.390,00:11:46.190,00:00:36.800,"Sustainability and the kind of environment in recycling, trying to go green light, given with the with the cars, even though I don't know that a hybrid or electric car. But, yeah, I'd like to get a moment because, you know, if we took it out of government, we get ourselves. Definitely not, it's related to health and.",Speaker 2,not-edited
00:11:47.720,00:11:57.070,00:00:09.350,Living well in are there areas in your life where you're able to be more sustainable than others?,Speaker 1,not-edited
00:11:59.100,00:12:40.379,00:00:41.279,"I definitely know every recycle, like everything I use my even my husband sometimes is too overwhelmed them, disrupted it, put stuff in the trash that doesn't belong that I go to grab and put her in the in the recycle bin or try to buy products that are with the packaging that is recycled. Our. I don't know, not try to save water, even when I brush my teeth, that goes to water while brushing things like that, small things that can have some I.",Speaker 2,not-edited
00:12:43.080,00:12:49.080,00:00:06.000,"All right, so let's talk about cars. Can you tell me what cars you have at home right now?",Speaker 1,not-edited
00:12:50.250,00:13:14.129,00:00:23.879,"I have a bike, an plus. Are are serious, also my husband. It's a story, the Alfa Romeo Juliet for you, and also he has a pickup truck for the store, for the restaurant, for our pickup. And when mentoring his stuff like that. And it's a GMC Sierra. Fifteen hundred.",Speaker 2,not-edited
00:13:14.920,00:13:19.070,00:00:04.150,"Mm hmm. And which cars that you buy first, second and third.",Speaker 1,not-edited
00:13:19.860,00:13:26.820,00:00:06.960,"The first one was this GMC Sierra, then the Alpha and then my uncle's wagon.",Speaker 2,not-edited
00:13:28.250,00:13:30.610,00:00:02.360,And how long ago did you buy your atlas?,Speaker 1,not-edited
00:13:30.890,00:13:35.570,00:00:04.680,"It's 2019, so, you know, April was two years that I bought it.",Speaker 2,not-edited
00:13:37.160,00:13:42.109,00:00:04.949,And can you tell me what inspired you to buy your atlas?,Speaker 1,not-edited
00:13:43.070,00:16:00.340,00:02:17.270,"OK, first I had that I had when I was to I say I had Gedda. I always loved European cars. And I always love that Jerry, very start the very good car with the family and sometimes my parents come from Italy, I needed an SUV saw before the disastrous side of GMC Acadia. And to me, it was just too overpriced for the product and the quality. I really wasn't happy with that. I as I said, I like European cars and I still like those bags. And it's very stardate good quality, not as expensive as the other competitors like. Mercedes, BMW, actually, to me, looks a little bit like the BMW, the exterior. And it's like car that has everything they wanted, like. With the touch screen, I can do the card play, yes, big space, a big trunk. I can even when I pull up to the seats, he has a good trunk space when I go shopping. It is spacious. The girls go out and on the bench in the back with their kids. I and just do that to sit in the back. And I feel like and I don't like the mix, like the two come and sit, but to me it's just wasting a spot there and it's like a car with six spaces, six seats. So I was like a big car. And all this space was to me it was just I didn't like that. So I like the bench, the seats. My seats get warm. I don't have the air conditioning, conditioning works really well, I just like the way he drives. I feel secure when I drive that car.",Speaker 2,not-edited
00:16:02.010,00:16:13.739,00:00:11.729,So you think the Acadia was not good value for your money and you talked about but the seats were there other things about the Acadia that you felt were not worthwhile?,Speaker 1,not-edited
00:16:14.700,00:16:50.500,00:00:35.800,"I mean, it could be that opinion. But to me, for the price I paid, there was an American car and I was really. Good Lord, stand beside me and upset the seats just the way I drove, I wasn't feeling secure. When I put the brake on, I felt like I was wasn't standee, wasn't very. And so securing that car, as you said, I've got now. Ten died in an accident, but I will feel more secure in there.",Speaker 2,not-edited
00:16:52.290,00:17:13.109,00:00:20.819,So what I'm hearing is security means breaking the way the brakes feel and the way the car drives. Yeah. So do you have any opinions on American engineering versus perhaps European perhaps like Asian engineering?,Speaker 1,not-edited
00:17:14.359,00:17:38.539,00:00:24.180,"I feel do the best I could be, it could be because I'm from there, but it's just it's better. I feel like, you know, even. The way they they make it, the way it looks, the way it's, you know, it's just better.",Speaker 2,not-edited
00:17:39.710,00:17:43.640,00:00:03.930,Yeah. Why do you think Europeans make a better car?,Speaker 1,not-edited
00:17:45.290,00:18:25.589,00:00:40.299,"Get that just from. I know that Europe is not the old country. There have been. Like. Compared to Europe, to America, it's just feel like the. They're more advanced, like I know America has it's. As the morning financial. Resources like the like even the mines, the way the engineer and even the doctors there, that's much more prepared than. You make a better job.",Speaker 2,not-edited
00:18:27.840,00:18:38.299,00:00:10.459,"OK, so let's go back to the time you've had with your atlas. What are the favorite? Do you have any favorite memories with your Alice?",Speaker 1,not-edited
00:18:43.040,00:20:35.989,00:01:52.949,"I didn't get to drive it at all last year, so I got to remember something that we did two years ago are now good memories. We. What I was able to when my parents came in 2019, we took a long trip with my car and he was so comfortable and I can remember as again, as I say, the setting like taking three hours drive to Maryland to visit some neighbors, some relatives. It was like a detour, Horn said. When I was sitting in the Acadia, an hour drive my back hurt and things like that. So I feel like. Everybody felt comfortable in their. And the trip was moved. So that's something that's important, but you want to take long trips and want to do. Sorry, go. And I was saying if you drive around like 10 minutes, maybe not. It's not noticeable. But when you take long trips, then that's when you realize that a car is a good value and. It's comfortable to think that the only thing is I feel like, you know, I guess like I wish it was more see more gas like I have to do if I drive a. I fill up the gas in like two to three days if I drive a lot. I wish you safety more. Yes.",Speaker 2,not-edited
00:20:38.410,00:20:46.719,00:00:08.309,"So do you do how do you use your atlas, is it a lot do you take long trips often or is it is that a special occasion?",Speaker 1,not-edited
00:20:47.680,00:21:09.339,00:00:21.659,"I use it right now. Every day I go around the restaurant, I go shopping, and when my friends are here, we only use my card because that's the only way to treat everybody. I use it as a call for everything. Given how long trips are just around Old Town here,",Speaker 2,not-edited
00:21:11.240,00:21:19.420,00:00:08.180,so are you very careful with your car or are you OK to speed it up a little bit? Like how do you treat your car?,Speaker 1,not-edited
00:21:20.990,00:22:19.440,00:00:58.450,"Well, at the beginning, I was very careful, very I know when everybody said something always at the beginning of the ticket and more. I was like the type of person to tell the kids, now you don't need to my car in the back. Now a little easier. And then in the car, I tried to clean it. And a couple weeks I could go to a car wash, but I tried to vacuum, for example, now we went to the mall date something after this, I'm going to vacuum my suitcase. And I know I was very upset when I was in the parking lot to somebody hit my door. I have a little dance. I went to buy the paid. So you kind of fix it. Because, you know, I I feel like I stick it on my car. I like it.",Speaker 2,not-edited
00:22:20.700,00:22:23.970,00:00:03.270,And I think you treated your Acadia the same way,Speaker 1,not-edited
00:22:24.810,00:23:12.309,00:00:47.499,"now because I was leaving at the time, so I wasn't really like I now have to return and maybe charge me for her. I was mostly worried that the miles. Now, the fact that it's mine, I don't I don't care about the miles, even though I know it's the terror of the car, I still need to. To avoid the cliff, I want I have for a long time, I don't want to kill with Miles, but still at the. Now, I take care of this car more than that was going to return. I didn't get it, but you said this one like, I want to have it for a long time, so.",Speaker 2,not-edited
00:23:13.970,00:23:21.139,00:00:07.169,"So between your Kadia and your atlas, what made you decide to buy or were you also considering losing?",Speaker 1,not-edited
00:23:27.120,00:24:38.859,00:01:11.739,"Every. Every so we go to the car show in New York Center, so we like to see you, and it's like a hobby that we have every Easter we used to go out with this year or last year. So we like to look around for the next car. And I was looking at the Mercedes, the BMW, but it was off my budget. So and we like that Atlas was offering like the warranty even. I remember it was like a lot of miles. They were having an affair and now I can't remember much. But it was like a good deal, like the warranties over other companies in the world offering the warranty for over 100 miles hundred thousand miles, I think something like that. So that was the reason why. Another reason why I took that place. But otherwise I was looking if I got a. Choose another car that will be something both in quality like Mercedes or BMW.",Speaker 2,not-edited
00:24:41.070,00:24:50.160,00:00:09.090,"So was the Atlas the only car that was really in your budget, or was there other cars, other models that you're close to, close to buying?",Speaker 1,not-edited
00:24:54.330,00:25:27.650,00:00:33.320,"He said, you want an American car, maybe they're on the pilot with another choice. Why, for the body and the factory, some tickets, Japanese free. Sol. That's another car that is made well of STADA, and that's forever and saw. There was another choice to go, but the same price, I think.",Speaker 2,not-edited
00:25:29.180,00:25:41.990,00:00:12.810,"And like that final decision between, let's say, the Honda Pilot and your Atlas, like what did it come down to? Like what what was that process like to make the final decision? It's not a it's not a small purchase.",Speaker 1,not-edited
00:25:43.520,00:25:51.940,00:00:08.420,"Again, because it was an open car and I had the Gera before, and I was happy with that. So there is a.",Speaker 2,not-edited
00:25:58.120,00:26:24.530,00:00:26.410,Let's see what. I'm trying to pick the next the next question to ask if so many are so. If you had to pick between like. Considering your atlas as a pet or considering your atlas like maybe it's just like an appliance or a tool like where where on that spectrum does your atlas fall?,Speaker 1,not-edited
00:26:27.260,00:27:15.479,00:00:48.219,"I'm actually I will consider that a fact, because it's not just my car now, it's my you know, I really love my car. I'm happy with it. And so it's more than just an appliance that comes up. It's. Like I knew I the first time I I took my daughter to school at that, I remember all these moments in order for some we went for a day trip to Maryland or to Delaware or I have friends. So I feel like it's more than just an appliance. It's like I remember me. Remember it reminds me also events.",Speaker 2,not-edited
00:27:18.300,00:27:19.810,00:00:01.510,What you know about that?,Speaker 1,not-edited
00:27:20.400,00:28:20.789,00:01:00.389,"It's just not. A couple of weeks ago, I haven't seen my best friend for a year and a half, so we went there. I remember that moment that I know I went there and see her and we ate together. We had this nice day. So I just I went to my car and I was another hour and a half and left to get there. So I was like, you know, the fact that I go there and I drive there and I feel comfortable, even though it's like 70 miles or so. At. It's important because with your kids, I used to get whatever with my back hurting and things like that, I feel comfortable in my car. So it's not just. No, it's not just the car, it's something that.",Speaker 2,not-edited
00:28:22.790,00:28:27.099,00:00:04.309,"Do you have a name for your car? Do you have, like a nickname for it?",Speaker 1,not-edited
00:28:29.690,00:28:32.559,00:00:02.869,"Now, I just got off this list.",Speaker 2,not-edited
00:28:33.230,00:28:43.329,00:00:10.099,"What color is your car? White. Quite nice. Can you remember any times where you're, like, frustrated with your atlas?",Speaker 1,not-edited
00:28:44.590,00:29:33.410,00:00:48.820,"Yes, the moment that. There was something wrong with my brakes. And I Tuticorin, I took it in the first time at the dealer and they said there is nothing wrong. And then I took the car the day a couple days after it happened again, it was like I was getting the regular alerts that I know something was wrong with the brakes and I was pushing on the brake and it was like, no use not working. So I called them screaming at them, I said, something is wrong with this car, do you have to fix it? I have kids in the car and on my own life most of the time, so I have to. And they found that there was something wrong with the sensor. And if it's and that was in a frustrating moment",Speaker 2,not-edited
00:29:35.000,00:29:37.010,00:00:02.010,"and how's it been afterwards, I",Speaker 1,not-edited
00:29:37.010,00:29:45.730,00:00:08.720,know everything works fine. It was just the idea that we find the error the first time. OK.,Speaker 2,not-edited
00:29:48.220,00:29:53.609,00:00:05.389,"So can you tell me more about your relationship to VW, just like as a brand's?",Speaker 1,not-edited
00:29:58.260,00:31:35.550,00:01:37.290,"As I said, I said my relationship with them, but 20 years ago when I came to us, I feel like, you know, it makes me closer to my. Continent, small, like I feel like picking a car that comes from there, so I'm like very. You know, happy with it. I don't know why I said that after I returned to Jeddah or sold it. I don't know why I didn't like that they didn't have an SUV. And then I got married at the that kind of. I think it was called the good times, something it was like, more like. It's called I was an SUV minivan, and I don't like the minivan, the matter of fact, I think they discontinued that. So when I saw that they were making a car like this. Which is like an SUV with the third row seat. I said, all right, that's going to be my car. Because, you know, I was always happy with the back and even the delay there for now. I paid the extra warranty. When I go there, they do all the service. I don't pay for anything. At one point they will end and then have to pay. But I feel like it's not it's in the middle. It's not too expensive like the other competitors. And but it's also a good quality car. So that makes me like that's why it makes me happy.",Speaker 2,not-edited
00:31:38.090,00:31:45.180,00:00:07.090,"Are there any low points about the Volkswagen, any negative points about the brand? No.",Speaker 1,not-edited
00:31:47.020,00:31:50.849,00:00:03.829,I don't know any negative points. I'm happy with that.,Speaker 2,not-edited
00:31:51.750,00:32:02.720,00:00:10.970,"All right, that's awesome. So what do you think VW means to other people when they see you drive your car?",Speaker 1,not-edited
00:32:06.440,00:33:14.980,00:01:08.540,"I think it's like they will consider that like a middle class car. It's not like I don't think it's looks considered luxurious, but also it's still like good quality. And I not I have all my friends, this said it's beautiful car, like I get compliments for it because they only need a lot of friends drive Mazda or Ford, and that's a little. Lower grade, I think. But not offended anybody. They are what kind of car? I'm sorry, but that's just to give an example. I feel like I'm in the. Like, no top I end, but I'm not into law, so I feel like it's a good quality car. I mean, my payment is pretty. It's pretty high compared to other friends, so I feel like I'm driving a good quality car.",Speaker 2,not-edited
00:33:16.930,00:33:22.509,00:00:05.579,"You know anybody else that drives a Volkswagen? Yes, our friend group,",Speaker 1,not-edited
00:33:22.810,00:33:24.099,00:00:01.289,"yes, our friend,",Speaker 2,not-edited
00:33:25.120,00:33:25.540,00:00:00.420,"yeah,",Speaker 1,not-edited
00:33:26.980,00:33:47.029,00:00:20.049,"actually two, I just saw the new ones, my friend just got the new one, the twenty, twenty, twenty one. And there is a slightly different action. I'm saying even my two in law that just got the truck and another plus. It's four people that I know that drive the bus I have to do.",Speaker 2,not-edited
00:33:48.130,00:33:51.489,00:00:03.359,Did you influence their purchase or did they happen to pick.,Speaker 1,not-edited
00:33:51.640,00:33:56.049,00:00:04.409,Because my sister in law got influenced by me. Yes.,Speaker 2,not-edited
00:33:57.210,00:34:03.990,00:00:06.780,And what do you think what do you think changed your mind or made her decide to get rid of you?,Speaker 1,not-edited
00:34:04.260,00:34:21.880,00:00:17.620,"They saw both of them. They saw my car and they liked it. And. My oldest sister in law used to have a golf, so she eventually she I guess she did she made a decision on that to also",Speaker 2,not-edited
00:34:21.880,00:34:23.679,00:00:01.799,the dealership is close by.,Speaker 1,not-edited
00:34:24.190,00:34:44.219,00:00:20.029,"So it's another thing that helps. When they got to do a world change and things like that, it's nice that it's close by. The reputation of the car is great. That helps. But yeah, definitely I helped them. You know, I trust them a lot.",Speaker 2,not-edited
00:34:46.010,00:34:48.949,00:00:02.939,That's amazing. I see if I can get your referral.,Speaker 1,not-edited
00:34:49.850,00:34:50.419,00:00:00.569,That's right.,Speaker 2,not-edited
00:34:53.719,00:35:12.669,00:00:18.950,"So when you think about maybe even outside of your friends and family, if you think about all the people. Like in the US, what do you picture as like a VW driver, or is there a picture in your head of what that type of person is? Or are they not the same?",Speaker 1,not-edited
00:35:13.540,00:35:31.340,00:00:17.800,"It's just I feel like it's mostly family and parents. All in all, needs a comfortable car to drive their kids around. For activism stuff.",Speaker 2,not-edited
00:35:32.080,00:35:44.380,00:00:12.300,"Mm hmm. Mm hmm. OK, so so you came from Italy and VW is a European brand. When did you first learn about VW?",Speaker 1,not-edited
00:35:47.730,00:36:18.869,00:00:31.139,"Oh. I guess 20 years ago, and I was living with my uncle and he suggested to buy the Bulls bargain because I was only 18, just got the driver's license. So I didn't have much experience with cars or anything. So, yeah, my uncle, you know, there was a dealership. But today, you saw. So. We drove there, and that's what I thought.",Speaker 2,not-edited
00:36:21.040,00:36:30.810,00:00:09.770,"So it was a recommendation from your uncle. Yes, all right, do you remember what you felt about the brand back then?",Speaker 1,not-edited
00:36:37.800,00:37:37.129,00:00:59.329,"You know, I drove it. I like the style. I had a lot of friends way of driving their Volkswagen, so that was also an influence that I got and now came from Europe. I'd more like it was a completely different country. So I think in Italy, not my friends, never again, but I had some friends. So that was like when you come to a new country, just. I was getting recommendation from me, as I said, from relatives, but I also know that's what you remember from your hometown and I have seen a lot of not SUV because many believe the small roads are too small to drive an SUV. But I've seen them are the symbol of the Volkswagen over there. And that's what the dealership was close by and I just ended up going there.",Speaker 2,not-edited
00:37:39.710,00:37:47.089,00:00:07.379,Do you think your opinions on Volkswagen has changed from when you were 18 today?,Speaker 1,not-edited
00:37:48.860,00:38:30.340,00:00:41.480,"No, not at all. Actually, it is like give me a improver. Like, to me, it's definitely a great I have more proof that it's definitely a good quality car. OK, awesome. I just I just hope they make my husband this pickup truck is very old and hoping they make a pickup truck because it's a little limited in the types of car. It was mostly Sidhom and then we have now that are improving with Rajin but they need the pickup truck. Yeah, I think so.",Speaker 2,not-edited
00:38:31.310,00:38:41.539,00:00:10.229,"All right, OK, I'll let I'll let the team know. So do you consider yourself part of a VW community?",Speaker 1,not-edited
00:38:43.300,00:38:58.450,00:00:15.150,"Yeah, I mean, I referred to like two or three friends, and you have got an I own one, then I probably buy another one. Well, this one, you know, it's eventually, you know, it's time to change it because I'm happy with that.",Speaker 2,not-edited
00:38:59.710,00:39:20.619,00:00:20.909,"Yeah, so actually, I have a quick question. How do you usually think about your next car? Are you going to wait until this VW Atlas is like 10 years old, 15 years old, or are you somebody that tries to, like, sell it and then buy a new car every few years? What's what's what do you usually do?",Speaker 1,not-edited
00:39:21.040,00:40:46.400,00:01:25.360,"I'm planning to have it for at least two or three years. I mean, I know I bought it instead of leasing it because I want to be this to. Like a couple of years without payment for maybe another four. And out to the could study, the leasing is nice car every two years, but you never end to pay and also you're in restricted with the miles. I bought this car just to check the miles. I was always going over with the Keats's stuff. So definitely it was something that was concerning me and I had to buy. And then when I start to see that, for example. Even though the Jedi had it like four, six, seven years, so even more than my asthma started to take it to work, and that's when you decided to buy the kick off because it was. I think he lasted 10 years, actually, because in 2011 he posted the GMC, so it's less than 10 years. So it's very durable car. So unless something starts to break and then overall it's something else, and then you have to pay so much money to replace stuff and it's not worth anymore. I will definitely keep. Until then.",Speaker 2,not-edited
00:40:48.030,00:40:57.030,00:00:09.000,"So you said your Jetta lasted almost 10 years. Yes, amazing. And do you still have that car? Did you sell it now?",Speaker 1,not-edited
00:40:57.040,00:41:02.570,00:00:05.530,We sold you sold it. Sold the one you bought the GMC to and.,Speaker 2,not-edited
00:41:04.100,00:41:04.910,00:00:00.810,I traded,Speaker 1,not-edited
00:41:05.180,00:41:05.639,00:00:00.459,"yeah, I",Speaker 2,not-edited
00:41:06.650,00:41:12.499,00:00:05.849,"got it, got it. OK, great. And what was the did you get a good value for the car more than you expected or.",Speaker 1,not-edited
00:41:12.620,00:41:26.659,00:00:14.039,"Yes, we had a good and I think we had a problem with some kind of problems, but they still took it and gave us some water. Eight, eight, nine nine. Nine thousand dollars. All right.",Speaker 2,not-edited
00:41:26.900,00:41:34.850,00:00:07.950,"Awesome. OK, any any last thoughts that you want to share with me about Volkswagen before we go to our last section?",Speaker 1,not-edited
00:41:36.660,00:41:40.849,00:00:04.189,"No, just keep doing what are you doing because you've done a great job.",Speaker 2,not-edited
00:41:42.290,00:42:06.119,00:00:23.829,"Awesome. All right. OK, so now we're just going to talk about some word association right now. It's really just about your first impressions on it. So let's go back to the word sustainable. Before I asked you about sustainability in life, do you think about sustainability with cars?",Speaker 1,not-edited
00:42:07.010,00:43:39.670,00:01:32.660,"Yes, I know they're making something hybrid. I forgot the name of it. I'm just concerned. Now, a lot actually let you can, I think I think I saw the electric car coming up or he's already out. I forgot the name of it, but the electric cars know it's good for the environment, of course, but it just scares me if I'm in the mountains and that is, you know. I need to take long drives, how does it work, how can I? Sergeant, I know they're making eyes, so I've seen in the even the shopping centers, the station what you can I see all these there's lots of tea and stuff, but OK here and I know that place like I, that if you're in the mountains, so what happens? That's the only thing that scares me. I like to use it. I do it with my car that I go like kings and drive long distance. That will make me lose some time, so they need to do something, you know, it's important to save the environment because the gas is not. Good bye. I think the best option. I feel like it's more hybrid because you have the. The option, mm hmm.",Speaker 2,not-edited
00:43:39.670,00:43:47.789,00:00:08.119,"Mm hmm. OK, so do you have any opinions on Tesla? Like, what do you think about Tesla?",Speaker 1,not-edited
00:43:50.280,00:44:26.170,00:00:35.890,"It's I haven't seen so many. It's like it's an expensive car. It looks very modern, futuristic. I like it. It's just, you know, to know I need a little more information on it before make a purchase like that, but I like, you know, the concept that know. Of sustainability there, I know it's good for the environment and the planet is.",Speaker 2,not-edited
00:44:28.880,00:44:39.460,00:00:10.580,"OK, I'm going to ask you a question, what what how do you feel when somebody tells you that you deserve something? Was the word deserving to you?",Speaker 1,not-edited
00:44:43.330,00:45:12.439,00:00:29.109,"Means that I work hard on something and. So. I can kind of like as I said, when I get to buy something for myself, it's just because now for me, the kids come first. But it's something else because I worked hard on something and I can really, you know, don't feel guilty. To buy it.",Speaker 2,not-edited
00:45:15.030,00:45:21.820,00:00:06.790,So it. You worked hard and so you don't have to feel guilty about about what you're doing.,Speaker 1,not-edited
00:45:22.370,00:45:22.730,00:00:00.360,Yeah.,Speaker 2,not-edited
00:45:23.680,00:45:28.360,00:00:04.680,"OK, in your opinion, what is a better car?",Speaker 1,not-edited
00:45:33.240,00:46:43.459,00:01:10.219,"OK, depends on for what reason. Yes, definitely. For the flight, it's the electric car is the best option. For myself, you know, I know. Good convenience is more important. So go get gas. Five minutes starts and go, I think it I don't know how long it will take to charge the car and it will take I will need more time, and especially with this lifestyle that we do always in a rush and never stopped, I will take some time and. So there will be. More time to consider if you're going somewhere, because you've got to check your car, if you're taking a long trip, you're going to get off the highway, go somewhere where you can check the car and go back. So it will take some time. So this should be this should work on something that in all. Won't take as long.",Speaker 2,not-edited
00:46:44.330,00:47:00.779,00:00:16.449,"Mm hmm. So it sounds like you said that in the context of electric vehicles. Is there like. Maybe if you don't have to think about electric vehicles, just like any car, like what would better car?",Speaker 1,not-edited
00:47:04.000,00:47:44.179,00:00:40.179,"He has to feel comfortable now when I sit in that room, I have to get to work and stuff like that. Yes. To. Be affordable, good quality, like even when you go to do maintenance and stuff like that, you have to kill a leg and an arm and. Just consume like save gas now it's going up again a lot, so it has to be like affordable. NEVINE And not just to buy it, even to use it.",Speaker 2,not-edited
00:47:46.260,00:47:49.239,00:00:02.979,"OK, so what if somebody said to",Speaker 1,not-edited
00:47:49.240,00:47:55.050,00:00:05.810,"you, and I'm sorry, I also know you're safe. Safety comes first.",Speaker 2,not-edited
00:47:56.880,00:48:03.360,00:00:06.480,"Can we talk a little more about safety like you have your children in the car, like what is what a safety means to you in a car?",Speaker 1,not-edited
00:48:06.970,00:48:52.109,00:00:45.139,"You know, even if I'm distracted because it could be with the kids in the back and stuff like that, they could use the break with Suffit with the sensor stuff. Now they use the breaks in emergencies also, again, start to forget in an accident, the car doesn't like stays well, like, for example, Osma to and and the car's smart. If you're in an accident that becomes like flat, it's too small. So something very sturdy, like with the body has to be strong and able to get an impact in case it happens.",Speaker 2,not-edited
00:48:53.280,00:48:56.969,00:00:03.689,"So you mean like the little smart car? So many cars, is that what you mean?",Speaker 1,not-edited
00:48:57.240,00:48:58.949,00:00:01.709,"Yeah, because. Yeah.",Speaker 2,not-edited
00:48:59.920,00:49:09.599,00:00:09.679,"Yeah, those are little, those are very little, OK, so what if somebody said to you, everyone deserves a better car? What's your first thought?",Speaker 1,not-edited
00:49:10.820,00:49:31.859,00:00:21.039,"I did just say, you know. Like a form of advertisement, like, yeah, I would have thought if I really don't care about everybody, it's just in our form of racism that you're trying to try to. Get people. That's how that's how I feel.",Speaker 2,not-edited
00:49:32.980,00:49:40.580,00:00:07.600,"What about is there's one part of that sentence that makes you feel that way, or is it is it the whole thing?",Speaker 1,not-edited
00:49:40.870,00:50:02.609,00:00:21.739,"It's a positive message, but it's just a phrase that probably make car makers. Just putting it there for people to. I want to see proofs. That is. You know, give me the reason. Why this car is better if he's trying to sell the car.",Speaker 2,not-edited
00:50:03.710,00:50:22.800,00:00:19.090,"Mm hmm. So the better car, you said you want to know why it's better. Yeah. Got it. OK. Do you think that everyone deserves a better car, sounds like the Volkswagen or does it does it sound like any car or.",Speaker 1,not-edited
00:50:24.810,00:51:05.929,00:00:41.119,"It could be a message. That, you know. Because they make a good cut, I'm just know. Seeing the face, what you're seeing is everybody is in a burka, so I don't see anything else and it's just, you know, I would like to see more, but that's definitely something, you know, because they make good cars, those megamix and good cars, so. It's real, it's not it's not just the. A fixed sentence phrase that is very nice, I can say that you can relate to what and definitely",Speaker 2,not-edited
00:51:07.400,00:51:13.850,00:00:06.450,"OK, if someone said to you you deserve a better car, how would that make you feel?",Speaker 1,not-edited
00:51:16.480,00:51:26.469,00:00:09.989,Their carbon more than my cars are. I deserve the best. Let's just get across.,Speaker 2,not-edited
00:51:28.030,00:51:34.520,00:00:06.490,"OK, so your reaction is kind of like, what do you mean?",Speaker 1,not-edited
00:51:34.940,00:51:39.989,00:00:05.049,"Yeah, what I mean, you trying to say that my car is not the best.",Speaker 2,not-edited
00:51:43.120,00:51:48.659,00:00:05.539,"And so, OK, so you'd get kind of maybe defensive about the car you have right now.",Speaker 1,not-edited
00:51:50.390,00:51:59.540,00:00:09.150,"Yeah, if you tell me you deserve a better car and means to me you're not living. I don't have the good quality cards are better than that.",Speaker 2,not-edited
00:52:00.710,00:52:26.069,00:00:25.359,"OK, got it. I think the last question that I have for you is what we first started this interview, you talked about moving from Italy, where it's like small cars and small highways, and then you come to the United States and it's like it's bigger. Everything's bigger. What does bigger mean to you?",Speaker 1,not-edited
00:52:29.100,00:53:56.890,00:01:27.790,"Be able to drive without being you know, you have to be careful, but the fact that. You can turn without like you can make a big turn and not be being worried to locate somebody on your side over there. It's one lane and you have to have two cars. One lane, that is. It's two lanes there. So it's very it's very tight even to park. It's so. Oh, my God. You have to do only parallel parking. It's like the city here, it's an even smaller version like. Here, what I really have to do, parallel parking there, that's all the way to park and it's like the traffic is unbelievable. The people park on the second row, like on the street. It's they don't respect the signals. It's so so here it's everything. It's more space. Like everywhere you go, there is space for parking and stuff. They they make parking first and then the stores come over there. It's impossible to go to stores like. That's why Transportational works like its main. To grind the city, that's that's how I go with the train. OK.",Speaker 2,not-edited
00:53:59.110,00:54:06.249,00:00:07.139,"When you hear the word figure, does it what are the what are the different meanings of figure to you?",Speaker 1,not-edited
00:54:08.010,00:54:19.510,00:00:11.500,Oh. Large. I value. Spacious.,Speaker 2,not-edited
00:54:24.360,00:54:33.900,00:00:09.540,"Yeah, any any questions for me? We've got like six minutes left, but we can I can answer any questions that you have now.",Speaker 1,not-edited
00:54:33.920,00:54:35.359,00:00:01.439,"No, I don't have any questions.",Speaker 2,not-edited
00:54:36.060,00:54:43.199,00:00:07.139,"All right, Gabby, thank you. Thank you very much. I really appreciate it. This is a lot of fun. I hope you have some fun, too.",Speaker 1,not-edited
00:54:43.330,00:54:47.099,00:00:03.769,"Oh, yes, that one. I hope I helped absolutive.",Speaker 2,not-edited
00:54:47.400,00:54:52.469,00:00:05.069,There's definitely a lot that we learned. So I appreciate your time today and I hope you have a good trip.,Speaker 1,not-edited
00:54:52.920,00:54:53.550,00:00:00.630,Thank you.,Speaker 2,not-edited
00:54:54.210,00:54:58.530,00:00:04.320,"Yeah. And if you have any other questions, just let me know or you can.",Speaker 1,not-edited