{"recording_start": 1625151719462,
  "data":[
[1625151831658,"Background"],
[1625151859362,"Background"],
[1625151932162,"Background"],
[1625151964453,"Background"],
[1625152077495,"Background"],
[1625152186179,"Background"],
[1625152770996,"Background"],
[1625152777516,"Background"],
[1625152785062,"Background"],
[1625152797179,"Background"],
[1625152810006,"Background"],
[1625152821270,"Background"],
[1625152841881,"Background"],
[1625152867918,"Car Ownership"],
[1625152890653,"Car Ownership"],
[1625152914742,"Car Ownership"],
[1625152942741,"Car Ownership"],
[1625152975044,"Car Ownership"],
[1625152985194,"Car Ownership"],
[1625153050571,"Car Ownership"],
[1625153077138,"Car Ownership"],
[1625153123292,"Car Ownership"],
[1625153163416,"Car Ownership"],
[1625153191529,"Car Ownership"],
[1625153262683,"Buying a Car"],
[1625153280025,"Buying a Car"],
[1625153286386,"Buying a Car"],
[1625153290068,"Buying a Car"],
[1625153326336,"Buying a Car"],
[1625153341089,"Buying a Car"],
[1625153360484,"Buying a Car"],
[1625153380341,"Buying a Car"],
[1625153413250,"Buying a Car"],
[1625153416734,"VW Owners"],
[1625153424606,"VW Owners"],
[1625153455084,"VW Owners"],
[1625153499778,"Buying a Car"],
[1625153521005,"Buying a Car"],
[1625153547547,"VW Perception"],
[1625153568714,"VW Perception"],
[1625153596841,"VW Owners"],
[1625153633903,"VW Owners"],
[1625153653567,"VW Owners"],
[1625153684793,"Car Ownership"],
[1625153695736,"Car Ownership"],
[1625153749625,"Car Ownership"],
[1625153770307,"Car Ownership"],
[1625153776919,"Car Ownership"],
[1625153805810,"Car Ownership"],
[1625153834520,"VW Owners"],
[1625153870168,"VW Perception"],
[1625153940680,"VW Perception"],
[1625154000237,"VW Perception"],
[1625154069178,"VW Perception"],
[1625154082085,"VW Perception"],
[1625154107988,"VW Perception"],
[1625154123061,"VW Perception"],
[1625154150820,"VW Perception"],
[1625154173226,"Buying a Car"],
[1625154647639,"Stimuli"],
[1625154663211,"Stimuli"],
[1625154685730,"Stimuli"],
[1625154703528,"Stimuli"],
[1625154732524,"Stimuli"],
[1625154740448,"Stimuli"],
[1625154743442,"VW Perception"],
[1625154808454,"VW Perception"],
[1625154818461,"VW Perception"],
[1625154837179,"VW Perception"],
[1625154856387,"VW Perception"],
[1625156652550,"Buying a Car"]
]}